%YAML 1.1
%TAG !u! tag:unity3d.com,2011:
--- !u!1 &2286782940527515670
GameObject:
  m_ObjectHideFlags: 0
  m_CorrespondingSourceObject: {fileID: 0}
  m_PrefabInstance: {fileID: 0}
  m_PrefabAsset: {fileID: 0}
  serializedVersion: 6
  m_Component:
  - component: {fileID: 9016929901969908448}
  - component: {fileID: 2739792313426615849}
  m_Layer: 0
  m_Name: book
  m_TagString: Untagged
  m_Icon: {fileID: 0}
  m_NavMeshLayer: 0
  m_StaticEditorFlags: 0
  m_IsActive: 1
--- !u!4 &9016929901969908448
Transform:
  m_ObjectHideFlags: 0
  m_CorrespondingSourceObject: {fileID: 0}
  m_PrefabInstance: {fileID: 0}
  m_PrefabAsset: {fileID: 0}
  m_GameObject: {fileID: 2286782940527515670}
  m_LocalRotation: {x: 0, y: 0, z: 0, w: 1}
  m_LocalPosition: {x: 0, y: 0, z: 0}
  m_LocalScale: {x: 1, y: 1, z: 1}
  m_ConstrainProportionsScale: 0
  m_Children:
  - {fileID: 6120798614125438060}
  m_Father: {fileID: 0}
  m_RootOrder: 0
  m_LocalEulerAnglesHint: {x: 0, y: 0, z: 0}
--- !u!114 &2739792313426615849
MonoBehaviour:
  m_ObjectHideFlags: 0
  m_CorrespondingSourceObject: {fileID: 0}
  m_PrefabInstance: {fileID: 0}
  m_PrefabAsset: {fileID: 0}
  m_GameObject: {fileID: 2286782940527515670}
  m_Enabled: 1
  m_EditorHideFlags: 0
  m_Script: {fileID: 11500000, guid: 572f67e1ca3b27b4eb618843806bcb1c, type: 3}
  m_Name: 
  m_EditorClassIdentifier: 
  _key: hand
--- !u!1001 &6015622267379843975
PrefabInstance:
  m_ObjectHideFlags: 0
  serializedVersion: 2
  m_Modification:
    m_TransformParent: {fileID: 9016929901969908448}
    m_Modifications:
    - target: {fileID: -8679921383154817045, guid: e1308ff378163ea4193ad91d591c0da7, type: 3}
      propertyPath: m_RootOrder
      value: 0
      objectReference: {fileID: 0}
    - target: {fileID: -8679921383154817045, guid: e1308ff378163ea4193ad91d591c0da7, type: 3}
      propertyPath: m_LocalPosition.x
      value: 0.252
      objectReference: {fileID: 0}
    - target: {fileID: -8679921383154817045, guid: e1308ff378163ea4193ad91d591c0da7, type: 3}
      propertyPath: m_LocalPosition.y
      value: -0.102
      objectReference: {fileID: 0}
    - target: {fileID: -8679921383154817045, guid: e1308ff378163ea4193ad91d591c0da7, type: 3}
      propertyPath: m_LocalPosition.z
      value: -0.28
      objectReference: {fileID: 0}
    - target: {fileID: -8679921383154817045, guid: e1308ff378163ea4193ad91d591c0da7, type: 3}
      propertyPath: m_LocalRotation.w
      value: 0.8099012
      objectReference: {fileID: 0}
    - target: {fileID: -8679921383154817045, guid: e1308ff378163ea4193ad91d591c0da7, type: 3}
      propertyPath: m_LocalRotation.x
      value: 0.4779318
      objectReference: {fileID: 0}
    - target: {fileID: -8679921383154817045, guid: e1308ff378163ea4193ad91d591c0da7, type: 3}
      propertyPath: m_LocalRotation.y
      value: -0.25482982
      objectReference: {fileID: 0}
    - target: {fileID: -8679921383154817045, guid: e1308ff378163ea4193ad91d591c0da7, type: 3}
      propertyPath: m_LocalRotation.z
      value: -0.22517358
      objectReference: {fileID: 0}
    - target: {fileID: -8679921383154817045, guid: e1308ff378163ea4193ad91d591c0da7, type: 3}
      propertyPath: m_LocalEulerAnglesHint.x
      value: 138.746
      objectReference: {fileID: 0}
    - target: {fileID: -8679921383154817045, guid: e1308ff378163ea4193ad91d591c0da7, type: 3}
      propertyPath: m_LocalEulerAnglesHint.y
      value: 123.349
      objectReference: {fileID: 0}
    - target: {fileID: -8679921383154817045, guid: e1308ff378163ea4193ad91d591c0da7, type: 3}
      propertyPath: m_LocalEulerAnglesHint.z
      value: 125.987
      objectReference: {fileID: 0}
    - target: {fileID: 919132149155446097, guid: e1308ff378163ea4193ad91d591c0da7, type: 3}
      propertyPath: m_Name
      value: book_open
      objectReference: {fileID: 0}
    m_RemovedComponents: []
  m_SourcePrefab: {fileID: 100100000, guid: e1308ff378163ea4193ad91d591c0da7, type: 3}
--- !u!4 &6120798614125438060 stripped
Transform:
  m_CorrespondingSourceObject: {fileID: -8679921383154817045, guid: e1308ff378163ea4193ad91d591c0da7, type: 3}
  m_PrefabInstance: {fileID: 6015622267379843975}
  m_PrefabAsset: {fileID: 0}
