%YAML 1.1
%TAG !u! tag:unity3d.com,2011:
--- !u!1 &8127568490191446124
GameObject:
  m_ObjectHideFlags: 0
  m_CorrespondingSourceObject: {fileID: 0}
  m_PrefabInstance: {fileID: 0}
  m_PrefabAsset: {fileID: 0}
  serializedVersion: 6
  m_Component:
  - component: {fileID: 8899461230414314198}
  - component: {fileID: 5489579271653143923}
  - component: {fileID: 7767038146233713081}
  - component: {fileID: 1844500107825288587}
  m_Layer: 0
  m_Name: fridge
  m_TagString: Untagged
  m_Icon: {fileID: 0}
  m_NavMeshLayer: 0
  m_StaticEditorFlags: 0
  m_IsActive: 1
--- !u!4 &8899461230414314198
Transform:
  m_ObjectHideFlags: 0
  m_CorrespondingSourceObject: {fileID: 0}
  m_PrefabInstance: {fileID: 0}
  m_PrefabAsset: {fileID: 0}
  m_GameObject: {fileID: 8127568490191446124}
  m_LocalRotation: {x: 0, y: 0, z: 0, w: 1}
  m_LocalPosition: {x: -0.3422, y: 0.0356, z: -1.5455}
  m_LocalScale: {x: 1, y: 1, z: 1}
  m_ConstrainProportionsScale: 0
  m_Children:
  - {fileID: 8899461230049643369}
  m_Father: {fileID: 0}
  m_RootOrder: 0
  m_LocalEulerAnglesHint: {x: 0, y: 0, z: 0}
--- !u!33 &5489579271653143923
MeshFilter:
  m_ObjectHideFlags: 0
  m_CorrespondingSourceObject: {fileID: 0}
  m_PrefabInstance: {fileID: 0}
  m_PrefabAsset: {fileID: 0}
  m_GameObject: {fileID: 8127568490191446124}
  m_Mesh: {fileID: 4560855401624191757, guid: 0ede39dfb62694b4998983dfad68a764, type: 3}
--- !u!23 &7767038146233713081
MeshRenderer:
  m_ObjectHideFlags: 0
  m_CorrespondingSourceObject: {fileID: 0}
  m_PrefabInstance: {fileID: 0}
  m_PrefabAsset: {fileID: 0}
  m_GameObject: {fileID: 8127568490191446124}
  m_Enabled: 1
  m_CastShadows: 1
  m_ReceiveShadows: 1
  m_DynamicOccludee: 1
  m_StaticShadowCaster: 0
  m_MotionVectors: 1
  m_LightProbeUsage: 1
  m_ReflectionProbeUsage: 1
  m_RayTracingMode: 2
  m_RayTraceProcedural: 0
  m_RenderingLayerMask: 1
  m_RendererPriority: 0
  m_Materials:
  - {fileID: 2100000, guid: 3c7c2e4f76e016d4ab8e9f9c6da80525, type: 2}
  m_StaticBatchInfo:
    firstSubMesh: 0
    subMeshCount: 0
  m_StaticBatchRoot: {fileID: 0}
  m_ProbeAnchor: {fileID: 0}
  m_LightProbeVolumeOverride: {fileID: 0}
  m_ScaleInLightmap: 1
  m_ReceiveGI: 1
  m_PreserveUVs: 0
  m_IgnoreNormalsForChartDetection: 0
  m_ImportantGI: 0
  m_StitchLightmapSeams: 1
  m_SelectedEditorRenderState: 3
  m_MinimumChartSize: 4
  m_AutoUVMaxDistance: 0.5
  m_AutoUVMaxAngle: 89
  m_LightmapParameters: {fileID: 0}
  m_SortingLayerID: 0
  m_SortingLayer: 0
  m_SortingOrder: 0
  m_AdditionalVertexStreams: {fileID: 0}
--- !u!114 &1844500107825288587
MonoBehaviour:
  m_ObjectHideFlags: 0
  m_CorrespondingSourceObject: {fileID: 0}
  m_PrefabInstance: {fileID: 0}
  m_PrefabAsset: {fileID: 0}
  m_GameObject: {fileID: 8127568490191446124}
  m_Enabled: 1
  m_EditorHideFlags: 0
  m_Script: {fileID: 11500000, guid: 5997e17d15ab42c1b6b7e264abf79a29, type: 3}
  m_Name: 
  m_EditorClassIdentifier: 
  _configs:
  - Mesh: {fileID: 0}
    Materials: []
  - Mesh: {fileID: 4560855401624191757, guid: 0ede39dfb62694b4998983dfad68a764, type: 3}
    Materials:
    - {fileID: 2100000, guid: 3c7c2e4f76e016d4ab8e9f9c6da80525, type: 2}
--- !u!1001 &8938384855532907650
PrefabInstance:
  m_ObjectHideFlags: 0
  serializedVersion: 2
  m_Modification:
    m_TransformParent: {fileID: 8899461230414314198}
    m_Modifications:
    - target: {fileID: -8679921383154817045, guid: 9761684e04dce084881f9da09e22a092, type: 3}
      propertyPath: m_RootOrder
      value: 0
      objectReference: {fileID: 0}
    - target: {fileID: -8679921383154817045, guid: 9761684e04dce084881f9da09e22a092, type: 3}
      propertyPath: m_LocalScale.x
      value: 1.3263584
      objectReference: {fileID: 0}
    - target: {fileID: -8679921383154817045, guid: 9761684e04dce084881f9da09e22a092, type: 3}
      propertyPath: m_LocalScale.y
      value: 1.4086653
      objectReference: {fileID: 0}
    - target: {fileID: -8679921383154817045, guid: 9761684e04dce084881f9da09e22a092, type: 3}
      propertyPath: m_LocalPosition.x
      value: -0.03925
      objectReference: {fileID: 0}
    - target: {fileID: -8679921383154817045, guid: 9761684e04dce084881f9da09e22a092, type: 3}
      propertyPath: m_LocalPosition.y
      value: 0.0006
      objectReference: {fileID: 0}
    - target: {fileID: -8679921383154817045, guid: 9761684e04dce084881f9da09e22a092, type: 3}
      propertyPath: m_LocalPosition.z
      value: 0.00774
      objectReference: {fileID: 0}
    - target: {fileID: -8679921383154817045, guid: 9761684e04dce084881f9da09e22a092, type: 3}
      propertyPath: m_LocalRotation.w
      value: 0.7071068
      objectReference: {fileID: 0}
    - target: {fileID: -8679921383154817045, guid: 9761684e04dce084881f9da09e22a092, type: 3}
      propertyPath: m_LocalRotation.x
      value: -0.7071068
      objectReference: {fileID: 0}
    - target: {fileID: -8679921383154817045, guid: 9761684e04dce084881f9da09e22a092, type: 3}
      propertyPath: m_LocalRotation.y
      value: -0
      objectReference: {fileID: 0}
    - target: {fileID: -8679921383154817045, guid: 9761684e04dce084881f9da09e22a092, type: 3}
      propertyPath: m_LocalRotation.z
      value: -0
      objectReference: {fileID: 0}
    - target: {fileID: -8679921383154817045, guid: 9761684e04dce084881f9da09e22a092, type: 3}
      propertyPath: m_LocalEulerAnglesHint.x
      value: -90
      objectReference: {fileID: 0}
    - target: {fileID: -8679921383154817045, guid: 9761684e04dce084881f9da09e22a092, type: 3}
      propertyPath: m_LocalEulerAnglesHint.y
      value: 0
      objectReference: {fileID: 0}
    - target: {fileID: -8679921383154817045, guid: 9761684e04dce084881f9da09e22a092, type: 3}
      propertyPath: m_LocalEulerAnglesHint.z
      value: 0
      objectReference: {fileID: 0}
    - target: {fileID: -7511558181221131132, guid: 9761684e04dce084881f9da09e22a092, type: 3}
      propertyPath: m_Materials.Array.data[0]
      value: 
      objectReference: {fileID: 2100000, guid: c522fd3f48693894fa209c6e10aee360, type: 2}
    - target: {fileID: 919132149155446097, guid: 9761684e04dce084881f9da09e22a092, type: 3}
      propertyPath: m_Name
      value: quad
      objectReference: {fileID: 0}
    m_RemovedComponents: []
  m_SourcePrefab: {fileID: 100100000, guid: 9761684e04dce084881f9da09e22a092, type: 3}
--- !u!4 &8899461230049643369 stripped
Transform:
  m_CorrespondingSourceObject: {fileID: -8679921383154817045, guid: 9761684e04dce084881f9da09e22a092, type: 3}
  m_PrefabInstance: {fileID: 8938384855532907650}
  m_PrefabAsset: {fileID: 0}
