%YAML 1.1
%TAG !u! tag:unity3d.com,2011:
--- !u!1 &3935590460420720314
GameObject:
  m_ObjectHideFlags: 0
  m_CorrespondingSourceObject: {fileID: 0}
  m_PrefabInstance: {fileID: 0}
  m_PrefabAsset: {fileID: 0}
  serializedVersion: 6
  m_Component:
  - component: {fileID: 6582525317270170089}
  - component: {fileID: 4218372841774683266}
  - component: {fileID: 8750964680893016805}
  - component: {fileID: 5883576717676163560}
  m_Layer: 9
  m_Name: 1 (8)
  m_TagString: Untagged
  m_Icon: {fileID: 0}
  m_NavMeshLayer: 0
  m_StaticEditorFlags: 2147483647
  m_IsActive: 1
--- !u!4 &6582525317270170089
Transform:
  m_ObjectHideFlags: 0
  m_CorrespondingSourceObject: {fileID: 0}
  m_PrefabInstance: {fileID: 0}
  m_PrefabAsset: {fileID: 0}
  m_GameObject: {fileID: 3935590460420720314}
  m_LocalRotation: {x: -0, y: -0.7071067, z: -0, w: 0.70710695}
  m_LocalPosition: {x: 0, y: 0, z: 0}
  m_LocalScale: {x: 1.361, y: 100, z: 14.425352}
  m_ConstrainProportionsScale: 0
  m_Children: []
  m_Father: {fileID: 7805228229396367197}
  m_RootOrder: 1
  m_LocalEulerAnglesHint: {x: 0, y: -90, z: 0}
--- !u!33 &4218372841774683266
MeshFilter:
  m_ObjectHideFlags: 0
  m_CorrespondingSourceObject: {fileID: 0}
  m_PrefabInstance: {fileID: 0}
  m_PrefabAsset: {fileID: 0}
  m_GameObject: {fileID: 3935590460420720314}
  m_Mesh: {fileID: 10209, guid: 0000000000000000e000000000000000, type: 0}
--- !u!23 &8750964680893016805
MeshRenderer:
  m_ObjectHideFlags: 0
  m_CorrespondingSourceObject: {fileID: 0}
  m_PrefabInstance: {fileID: 0}
  m_PrefabAsset: {fileID: 0}
  m_GameObject: {fileID: 3935590460420720314}
  m_Enabled: 1
  m_CastShadows: 0
  m_ReceiveShadows: 0
  m_DynamicOccludee: 1
  m_StaticShadowCaster: 0
  m_MotionVectors: 1
  m_LightProbeUsage: 1
  m_ReflectionProbeUsage: 1
  m_RayTracingMode: 2
  m_RayTraceProcedural: 0
  m_RenderingLayerMask: 1
  m_RendererPriority: 0
  m_Materials:
  - {fileID: 10303, guid: 0000000000000000f000000000000000, type: 0}
  m_StaticBatchInfo:
    firstSubMesh: 0
    subMeshCount: 0
  m_StaticBatchRoot: {fileID: 0}
  m_ProbeAnchor: {fileID: 0}
  m_LightProbeVolumeOverride: {fileID: 0}
  m_ScaleInLightmap: 1
  m_ReceiveGI: 1
  m_PreserveUVs: 0
  m_IgnoreNormalsForChartDetection: 0
  m_ImportantGI: 0
  m_StitchLightmapSeams: 1
  m_SelectedEditorRenderState: 3
  m_MinimumChartSize: 4
  m_AutoUVMaxDistance: 0.5
  m_AutoUVMaxAngle: 89
  m_LightmapParameters: {fileID: 0}
  m_SortingLayerID: 0
  m_SortingLayer: 0
  m_SortingOrder: 0
  m_AdditionalVertexStreams: {fileID: 0}
--- !u!114 &5883576717676163560
MonoBehaviour:
  m_ObjectHideFlags: 0
  m_CorrespondingSourceObject: {fileID: 0}
  m_PrefabInstance: {fileID: 0}
  m_PrefabAsset: {fileID: 0}
  m_GameObject: {fileID: 3935590460420720314}
  m_Enabled: 1
  m_EditorHideFlags: 0
  m_Script: {fileID: 11500000, guid: 1e3fdca004f2d45fe8abbed571a8abd5, type: 3}
  m_Name: 
  m_EditorClassIdentifier: 
  m_OverrideArea: 1
  m_Area: 0
  m_IgnoreFromBuild: 0
  m_AffectedAgents: 00000000
--- !u!1 &6134083040481849690
GameObject:
  m_ObjectHideFlags: 0
  m_CorrespondingSourceObject: {fileID: 0}
  m_PrefabInstance: {fileID: 0}
  m_PrefabAsset: {fileID: 0}
  serializedVersion: 6
  m_Component:
  - component: {fileID: 556795100083888493}
  - component: {fileID: 6448350760363097934}
  - component: {fileID: 6661667744333700014}
  - component: {fileID: 638283641102485580}
  m_Layer: 9
  m_Name: 1 (7)
  m_TagString: Untagged
  m_Icon: {fileID: 0}
  m_NavMeshLayer: 0
  m_StaticEditorFlags: 2147483647
  m_IsActive: 1
--- !u!4 &556795100083888493
Transform:
  m_ObjectHideFlags: 0
  m_CorrespondingSourceObject: {fileID: 0}
  m_PrefabInstance: {fileID: 0}
  m_PrefabAsset: {fileID: 0}
  m_GameObject: {fileID: 6134083040481849690}
  m_LocalRotation: {x: -0, y: 0.00000071525574, z: -0, w: 1}
  m_LocalPosition: {x: 0, y: 0, z: 0}
  m_LocalScale: {x: 1.361, y: 100, z: 14.425352}
  m_ConstrainProportionsScale: 0
  m_Children: []
  m_Father: {fileID: 7805228229396367197}
  m_RootOrder: 0
  m_LocalEulerAnglesHint: {x: 0, y: -90, z: -90}
--- !u!33 &6448350760363097934
MeshFilter:
  m_ObjectHideFlags: 0
  m_CorrespondingSourceObject: {fileID: 0}
  m_PrefabInstance: {fileID: 0}
  m_PrefabAsset: {fileID: 0}
  m_GameObject: {fileID: 6134083040481849690}
  m_Mesh: {fileID: 10209, guid: 0000000000000000e000000000000000, type: 0}
--- !u!23 &6661667744333700014
MeshRenderer:
  m_ObjectHideFlags: 0
  m_CorrespondingSourceObject: {fileID: 0}
  m_PrefabInstance: {fileID: 0}
  m_PrefabAsset: {fileID: 0}
  m_GameObject: {fileID: 6134083040481849690}
  m_Enabled: 1
  m_CastShadows: 0
  m_ReceiveShadows: 0
  m_DynamicOccludee: 1
  m_StaticShadowCaster: 0
  m_MotionVectors: 1
  m_LightProbeUsage: 1
  m_ReflectionProbeUsage: 1
  m_RayTracingMode: 2
  m_RayTraceProcedural: 0
  m_RenderingLayerMask: 1
  m_RendererPriority: 0
  m_Materials:
  - {fileID: 10303, guid: 0000000000000000f000000000000000, type: 0}
  m_StaticBatchInfo:
    firstSubMesh: 0
    subMeshCount: 0
  m_StaticBatchRoot: {fileID: 0}
  m_ProbeAnchor: {fileID: 0}
  m_LightProbeVolumeOverride: {fileID: 0}
  m_ScaleInLightmap: 1
  m_ReceiveGI: 1
  m_PreserveUVs: 0
  m_IgnoreNormalsForChartDetection: 0
  m_ImportantGI: 0
  m_StitchLightmapSeams: 1
  m_SelectedEditorRenderState: 3
  m_MinimumChartSize: 4
  m_AutoUVMaxDistance: 0.5
  m_AutoUVMaxAngle: 89
  m_LightmapParameters: {fileID: 0}
  m_SortingLayerID: 0
  m_SortingLayer: 0
  m_SortingOrder: 0
  m_AdditionalVertexStreams: {fileID: 0}
--- !u!114 &638283641102485580
MonoBehaviour:
  m_ObjectHideFlags: 0
  m_CorrespondingSourceObject: {fileID: 0}
  m_PrefabInstance: {fileID: 0}
  m_PrefabAsset: {fileID: 0}
  m_GameObject: {fileID: 6134083040481849690}
  m_Enabled: 1
  m_EditorHideFlags: 0
  m_Script: {fileID: 11500000, guid: 1e3fdca004f2d45fe8abbed571a8abd5, type: 3}
  m_Name: 
  m_EditorClassIdentifier: 
  m_OverrideArea: 1
  m_Area: 0
  m_IgnoreFromBuild: 0
  m_AffectedAgents: 00000000
--- !u!1 &7805228229396367198
GameObject:
  m_ObjectHideFlags: 0
  m_CorrespondingSourceObject: {fileID: 0}
  m_PrefabInstance: {fileID: 0}
  m_PrefabAsset: {fileID: 0}
  serializedVersion: 6
  m_Component:
  - component: {fileID: 7805228229396367197}
  - component: {fileID: 1987595410498515063}
  - component: {fileID: 4355451668308231357}
  m_Layer: 0
  m_Name: road_X
  m_TagString: Untagged
  m_Icon: {fileID: 0}
  m_NavMeshLayer: 0
  m_StaticEditorFlags: 2147483647
  m_IsActive: 1
--- !u!4 &7805228229396367197
Transform:
  m_ObjectHideFlags: 0
  m_CorrespondingSourceObject: {fileID: 0}
  m_PrefabInstance: {fileID: 0}
  m_PrefabAsset: {fileID: 0}
  m_GameObject: {fileID: 7805228229396367198}
  m_LocalRotation: {x: 0, y: 0, z: 0, w: 1}
  m_LocalPosition: {x: -21.327, y: 0, z: 7.54}
  m_LocalScale: {x: 0.02, y: 0.01, z: 0.02}
  m_ConstrainProportionsScale: 0
  m_Children:
  - {fileID: 556795100083888493}
  - {fileID: 6582525317270170089}
  - {fileID: 7428566895169178800}
  - {fileID: 7428566894982948655}
  - {fileID: 7428566895511967050}
  - {fileID: 7428566894764351491}
  m_Father: {fileID: 0}
  m_RootOrder: 0
  m_LocalEulerAnglesHint: {x: 0, y: 0, z: 0}
--- !u!33 &1987595410498515063
MeshFilter:
  m_ObjectHideFlags: 0
  m_CorrespondingSourceObject: {fileID: 0}
  m_PrefabInstance: {fileID: 0}
  m_PrefabAsset: {fileID: 0}
  m_GameObject: {fileID: 7805228229396367198}
  m_Mesh: {fileID: -8824479685282280097, guid: d65b1daea48dccc47a3b47814bea8671, type: 3}
--- !u!23 &4355451668308231357
MeshRenderer:
  m_ObjectHideFlags: 0
  m_CorrespondingSourceObject: {fileID: 0}
  m_PrefabInstance: {fileID: 0}
  m_PrefabAsset: {fileID: 0}
  m_GameObject: {fileID: 7805228229396367198}
  m_Enabled: 1
  m_CastShadows: 1
  m_ReceiveShadows: 1
  m_DynamicOccludee: 1
  m_StaticShadowCaster: 0
  m_MotionVectors: 1
  m_LightProbeUsage: 1
  m_ReflectionProbeUsage: 1
  m_RayTracingMode: 2
  m_RayTraceProcedural: 0
  m_RenderingLayerMask: 1
  m_RendererPriority: 0
  m_Materials:
  - {fileID: 2100000, guid: d38976edf0112a647849c501c1d9b819, type: 2}
  - {fileID: 2100000, guid: d38976edf0112a647849c501c1d9b819, type: 2}
  - {fileID: 2100000, guid: d38976edf0112a647849c501c1d9b819, type: 2}
  m_StaticBatchInfo:
    firstSubMesh: 0
    subMeshCount: 0
  m_StaticBatchRoot: {fileID: 0}
  m_ProbeAnchor: {fileID: 0}
  m_LightProbeVolumeOverride: {fileID: 0}
  m_ScaleInLightmap: 1
  m_ReceiveGI: 1
  m_PreserveUVs: 0
  m_IgnoreNormalsForChartDetection: 0
  m_ImportantGI: 0
  m_StitchLightmapSeams: 1
  m_SelectedEditorRenderState: 3
  m_MinimumChartSize: 4
  m_AutoUVMaxDistance: 0.5
  m_AutoUVMaxAngle: 89
  m_LightmapParameters: {fileID: 0}
  m_SortingLayerID: 0
  m_SortingLayer: 0
  m_SortingOrder: 0
  m_AdditionalVertexStreams: {fileID: 0}
--- !u!1001 &1275499824
PrefabInstance:
  m_ObjectHideFlags: 0
  serializedVersion: 2
  m_Modification:
    m_TransformParent: {fileID: 7805228229396367197}
    m_Modifications:
    - target: {fileID: 7428566895770563891, guid: f9a10e49073f1d146b448b6daf41326a, type: 3}
      propertyPath: m_RootOrder
      value: 5
      objectReference: {fileID: 0}
    - target: {fileID: 7428566895770563891, guid: f9a10e49073f1d146b448b6daf41326a, type: 3}
      propertyPath: m_LocalScale.x
      value: 50
      objectReference: {fileID: 0}
    - target: {fileID: 7428566895770563891, guid: f9a10e49073f1d146b448b6daf41326a, type: 3}
      propertyPath: m_LocalScale.y
      value: 1
      objectReference: {fileID: 0}
    - target: {fileID: 7428566895770563891, guid: f9a10e49073f1d146b448b6daf41326a, type: 3}
      propertyPath: m_LocalScale.z
      value: 50
      objectReference: {fileID: 0}
    - target: {fileID: 7428566895770563891, guid: f9a10e49073f1d146b448b6daf41326a, type: 3}
      propertyPath: m_LocalPosition.x
      value: 82
      objectReference: {fileID: 0}
    - target: {fileID: 7428566895770563891, guid: f9a10e49073f1d146b448b6daf41326a, type: 3}
      propertyPath: m_LocalPosition.y
      value: 1.1
      objectReference: {fileID: 0}
    - target: {fileID: 7428566895770563891, guid: f9a10e49073f1d146b448b6daf41326a, type: 3}
      propertyPath: m_LocalPosition.z
      value: -41.8
      objectReference: {fileID: 0}
    - target: {fileID: 7428566895770563891, guid: f9a10e49073f1d146b448b6daf41326a, type: 3}
      propertyPath: m_LocalRotation.w
      value: 0.7071068
      objectReference: {fileID: 0}
    - target: {fileID: 7428566895770563891, guid: f9a10e49073f1d146b448b6daf41326a, type: 3}
      propertyPath: m_LocalRotation.x
      value: -0
      objectReference: {fileID: 0}
    - target: {fileID: 7428566895770563891, guid: f9a10e49073f1d146b448b6daf41326a, type: 3}
      propertyPath: m_LocalRotation.y
      value: -0.7071068
      objectReference: {fileID: 0}
    - target: {fileID: 7428566895770563891, guid: f9a10e49073f1d146b448b6daf41326a, type: 3}
      propertyPath: m_LocalRotation.z
      value: -0
      objectReference: {fileID: 0}
    - target: {fileID: 7428566895770563891, guid: f9a10e49073f1d146b448b6daf41326a, type: 3}
      propertyPath: m_LocalEulerAnglesHint.x
      value: 90
      objectReference: {fileID: 0}
    - target: {fileID: 7428566895770563891, guid: f9a10e49073f1d146b448b6daf41326a, type: 3}
      propertyPath: m_LocalEulerAnglesHint.y
      value: 0
      objectReference: {fileID: 0}
    - target: {fileID: 7428566895770563891, guid: f9a10e49073f1d146b448b6daf41326a, type: 3}
      propertyPath: m_LocalEulerAnglesHint.z
      value: 0
      objectReference: {fileID: 0}
    - target: {fileID: 8660871524522269460, guid: f9a10e49073f1d146b448b6daf41326a, type: 3}
      propertyPath: m_Name
      value: Crosswalk (3)
      objectReference: {fileID: 0}
    m_RemovedComponents: []
  m_SourcePrefab: {fileID: 100100000, guid: f9a10e49073f1d146b448b6daf41326a, type: 3}
--- !u!4 &7428566894764351491 stripped
Transform:
  m_CorrespondingSourceObject: {fileID: 7428566895770563891, guid: f9a10e49073f1d146b448b6daf41326a, type: 3}
  m_PrefabInstance: {fileID: 1275499824}
  m_PrefabAsset: {fileID: 0}
--- !u!1001 &1359876636
PrefabInstance:
  m_ObjectHideFlags: 0
  serializedVersion: 2
  m_Modification:
    m_TransformParent: {fileID: 7805228229396367197}
    m_Modifications:
    - target: {fileID: 7428566895770563891, guid: f9a10e49073f1d146b448b6daf41326a, type: 3}
      propertyPath: m_RootOrder
      value: 3
      objectReference: {fileID: 0}
    - target: {fileID: 7428566895770563891, guid: f9a10e49073f1d146b448b6daf41326a, type: 3}
      propertyPath: m_LocalScale.x
      value: 50
      objectReference: {fileID: 0}
    - target: {fileID: 7428566895770563891, guid: f9a10e49073f1d146b448b6daf41326a, type: 3}
      propertyPath: m_LocalScale.y
      value: 1
      objectReference: {fileID: 0}
    - target: {fileID: 7428566895770563891, guid: f9a10e49073f1d146b448b6daf41326a, type: 3}
      propertyPath: m_LocalScale.z
      value: 50
      objectReference: {fileID: 0}
    - target: {fileID: 7428566895770563891, guid: f9a10e49073f1d146b448b6daf41326a, type: 3}
      propertyPath: m_LocalPosition.x
      value: -41.9
      objectReference: {fileID: 0}
    - target: {fileID: 7428566895770563891, guid: f9a10e49073f1d146b448b6daf41326a, type: 3}
      propertyPath: m_LocalPosition.y
      value: 1.1
      objectReference: {fileID: 0}
    - target: {fileID: 7428566895770563891, guid: f9a10e49073f1d146b448b6daf41326a, type: 3}
      propertyPath: m_LocalPosition.z
      value: 21.8
      objectReference: {fileID: 0}
    - target: {fileID: 7428566895770563891, guid: f9a10e49073f1d146b448b6daf41326a, type: 3}
      propertyPath: m_LocalRotation.w
      value: 1
      objectReference: {fileID: 0}
    - target: {fileID: 7428566895770563891, guid: f9a10e49073f1d146b448b6daf41326a, type: 3}
      propertyPath: m_LocalRotation.x
      value: -0
      objectReference: {fileID: 0}
    - target: {fileID: 7428566895770563891, guid: f9a10e49073f1d146b448b6daf41326a, type: 3}
      propertyPath: m_LocalRotation.y
      value: -0
      objectReference: {fileID: 0}
    - target: {fileID: 7428566895770563891, guid: f9a10e49073f1d146b448b6daf41326a, type: 3}
      propertyPath: m_LocalRotation.z
      value: -0
      objectReference: {fileID: 0}
    - target: {fileID: 7428566895770563891, guid: f9a10e49073f1d146b448b6daf41326a, type: 3}
      propertyPath: m_LocalEulerAnglesHint.x
      value: 0
      objectReference: {fileID: 0}
    - target: {fileID: 7428566895770563891, guid: f9a10e49073f1d146b448b6daf41326a, type: 3}
      propertyPath: m_LocalEulerAnglesHint.y
      value: 90
      objectReference: {fileID: 0}
    - target: {fileID: 7428566895770563891, guid: f9a10e49073f1d146b448b6daf41326a, type: 3}
      propertyPath: m_LocalEulerAnglesHint.z
      value: 90
      objectReference: {fileID: 0}
    - target: {fileID: 8660871524522269460, guid: f9a10e49073f1d146b448b6daf41326a, type: 3}
      propertyPath: m_Name
      value: Crosswalk (1)
      objectReference: {fileID: 0}
    m_RemovedComponents: []
  m_SourcePrefab: {fileID: 100100000, guid: f9a10e49073f1d146b448b6daf41326a, type: 3}
--- !u!4 &7428566894982948655 stripped
Transform:
  m_CorrespondingSourceObject: {fileID: 7428566895770563891, guid: f9a10e49073f1d146b448b6daf41326a, type: 3}
  m_PrefabInstance: {fileID: 1359876636}
  m_PrefabAsset: {fileID: 0}
--- !u!1001 &1684568451
PrefabInstance:
  m_ObjectHideFlags: 0
  serializedVersion: 2
  m_Modification:
    m_TransformParent: {fileID: 7805228229396367197}
    m_Modifications:
    - target: {fileID: 7428566895770563891, guid: f9a10e49073f1d146b448b6daf41326a, type: 3}
      propertyPath: m_RootOrder
      value: 2
      objectReference: {fileID: 0}
    - target: {fileID: 7428566895770563891, guid: f9a10e49073f1d146b448b6daf41326a, type: 3}
      propertyPath: m_LocalScale.x
      value: 50
      objectReference: {fileID: 0}
    - target: {fileID: 7428566895770563891, guid: f9a10e49073f1d146b448b6daf41326a, type: 3}
      propertyPath: m_LocalScale.y
      value: 1
      objectReference: {fileID: 0}
    - target: {fileID: 7428566895770563891, guid: f9a10e49073f1d146b448b6daf41326a, type: 3}
      propertyPath: m_LocalScale.z
      value: 50
      objectReference: {fileID: 0}
    - target: {fileID: 7428566895770563891, guid: f9a10e49073f1d146b448b6daf41326a, type: 3}
      propertyPath: m_LocalPosition.x
      value: -21.5
      objectReference: {fileID: 0}
    - target: {fileID: 7428566895770563891, guid: f9a10e49073f1d146b448b6daf41326a, type: 3}
      propertyPath: m_LocalPosition.y
      value: 1.1
      objectReference: {fileID: 0}
    - target: {fileID: 7428566895770563891, guid: f9a10e49073f1d146b448b6daf41326a, type: 3}
      propertyPath: m_LocalPosition.z
      value: -41.8
      objectReference: {fileID: 0}
    - target: {fileID: 7428566895770563891, guid: f9a10e49073f1d146b448b6daf41326a, type: 3}
      propertyPath: m_LocalRotation.w
      value: 0.7071068
      objectReference: {fileID: 0}
    - target: {fileID: 7428566895770563891, guid: f9a10e49073f1d146b448b6daf41326a, type: 3}
      propertyPath: m_LocalRotation.x
      value: -0
      objectReference: {fileID: 0}
    - target: {fileID: 7428566895770563891, guid: f9a10e49073f1d146b448b6daf41326a, type: 3}
      propertyPath: m_LocalRotation.y
      value: -0.7071068
      objectReference: {fileID: 0}
    - target: {fileID: 7428566895770563891, guid: f9a10e49073f1d146b448b6daf41326a, type: 3}
      propertyPath: m_LocalRotation.z
      value: -0
      objectReference: {fileID: 0}
    - target: {fileID: 7428566895770563891, guid: f9a10e49073f1d146b448b6daf41326a, type: 3}
      propertyPath: m_LocalEulerAnglesHint.x
      value: 90
      objectReference: {fileID: 0}
    - target: {fileID: 7428566895770563891, guid: f9a10e49073f1d146b448b6daf41326a, type: 3}
      propertyPath: m_LocalEulerAnglesHint.y
      value: 0
      objectReference: {fileID: 0}
    - target: {fileID: 7428566895770563891, guid: f9a10e49073f1d146b448b6daf41326a, type: 3}
      propertyPath: m_LocalEulerAnglesHint.z
      value: 0
      objectReference: {fileID: 0}
    - target: {fileID: 8660871524522269460, guid: f9a10e49073f1d146b448b6daf41326a, type: 3}
      propertyPath: m_Name
      value: Crosswalk
      objectReference: {fileID: 0}
    m_RemovedComponents: []
  m_SourcePrefab: {fileID: 100100000, guid: f9a10e49073f1d146b448b6daf41326a, type: 3}
--- !u!4 &7428566895169178800 stripped
Transform:
  m_CorrespondingSourceObject: {fileID: 7428566895770563891, guid: f9a10e49073f1d146b448b6daf41326a, type: 3}
  m_PrefabInstance: {fileID: 1684568451}
  m_PrefabAsset: {fileID: 0}
--- !u!1001 &1905713273
PrefabInstance:
  m_ObjectHideFlags: 0
  serializedVersion: 2
  m_Modification:
    m_TransformParent: {fileID: 7805228229396367197}
    m_Modifications:
    - target: {fileID: 7428566895770563891, guid: f9a10e49073f1d146b448b6daf41326a, type: 3}
      propertyPath: m_RootOrder
      value: 4
      objectReference: {fileID: 0}
    - target: {fileID: 7428566895770563891, guid: f9a10e49073f1d146b448b6daf41326a, type: 3}
      propertyPath: m_LocalScale.x
      value: 50
      objectReference: {fileID: 0}
    - target: {fileID: 7428566895770563891, guid: f9a10e49073f1d146b448b6daf41326a, type: 3}
      propertyPath: m_LocalScale.y
      value: 1
      objectReference: {fileID: 0}
    - target: {fileID: 7428566895770563891, guid: f9a10e49073f1d146b448b6daf41326a, type: 3}
      propertyPath: m_LocalScale.z
      value: 50
      objectReference: {fileID: 0}
    - target: {fileID: 7428566895770563891, guid: f9a10e49073f1d146b448b6daf41326a, type: 3}
      propertyPath: m_LocalPosition.x
      value: -41.9
      objectReference: {fileID: 0}
    - target: {fileID: 7428566895770563891, guid: f9a10e49073f1d146b448b6daf41326a, type: 3}
      propertyPath: m_LocalPosition.y
      value: 1.1
      objectReference: {fileID: 0}
    - target: {fileID: 7428566895770563891, guid: f9a10e49073f1d146b448b6daf41326a, type: 3}
      propertyPath: m_LocalPosition.z
      value: -82.3
      objectReference: {fileID: 0}
    - target: {fileID: 7428566895770563891, guid: f9a10e49073f1d146b448b6daf41326a, type: 3}
      propertyPath: m_LocalRotation.w
      value: 1
      objectReference: {fileID: 0}
    - target: {fileID: 7428566895770563891, guid: f9a10e49073f1d146b448b6daf41326a, type: 3}
      propertyPath: m_LocalRotation.x
      value: -0
      objectReference: {fileID: 0}
    - target: {fileID: 7428566895770563891, guid: f9a10e49073f1d146b448b6daf41326a, type: 3}
      propertyPath: m_LocalRotation.y
      value: -0
      objectReference: {fileID: 0}
    - target: {fileID: 7428566895770563891, guid: f9a10e49073f1d146b448b6daf41326a, type: 3}
      propertyPath: m_LocalRotation.z
      value: -0
      objectReference: {fileID: 0}
    - target: {fileID: 7428566895770563891, guid: f9a10e49073f1d146b448b6daf41326a, type: 3}
      propertyPath: m_LocalEulerAnglesHint.x
      value: 0
      objectReference: {fileID: 0}
    - target: {fileID: 7428566895770563891, guid: f9a10e49073f1d146b448b6daf41326a, type: 3}
      propertyPath: m_LocalEulerAnglesHint.y
      value: 90
      objectReference: {fileID: 0}
    - target: {fileID: 7428566895770563891, guid: f9a10e49073f1d146b448b6daf41326a, type: 3}
      propertyPath: m_LocalEulerAnglesHint.z
      value: 90
      objectReference: {fileID: 0}
    - target: {fileID: 8660871524522269460, guid: f9a10e49073f1d146b448b6daf41326a, type: 3}
      propertyPath: m_Name
      value: Crosswalk (2)
      objectReference: {fileID: 0}
    m_RemovedComponents: []
  m_SourcePrefab: {fileID: 100100000, guid: f9a10e49073f1d146b448b6daf41326a, type: 3}
--- !u!4 &7428566895511967050 stripped
Transform:
  m_CorrespondingSourceObject: {fileID: 7428566895770563891, guid: f9a10e49073f1d146b448b6daf41326a, type: 3}
  m_PrefabInstance: {fileID: 1905713273}
  m_PrefabAsset: {fileID: 0}
