%YAML 1.1
%TAG !u! tag:unity3d.com,2011:
--- !u!114 &11400000
MonoBehaviour:
  m_ObjectHideFlags: 0
  m_CorrespondingSourceObject: {fileID: 0}
  m_PrefabInstance: {fileID: 0}
  m_PrefabAsset: {fileID: 0}
  m_GameObject: {fileID: 0}
  m_Enabled: 1
  m_EditorHideFlags: 0
  m_Script: {fileID: 11500000, guid: 940c143c7899419e8ea310d44ef9b51f, type: 3}
  m_Name: BalanceConfig
  m_EditorClassIdentifier: 
  StartSoft: 1500
  IncomeDelay: 1
  MaxOfflineTime: 7200
  DailyQuestsComplete: 150
  ReturnWindowHardPrice: 50
  RewardCompleteTask: 5
  PriceHardPerMinute: 0.5
  CorpseOrderDelay: 120
  MaxCorpseOrder: 3
  SoftRewardForCorpseOrder: 120
  TokensRewardForCorpseOrder: 25
  SoftMinWeight: 2
  SoftMaxWeight: 10
  SoftWeight: 8
  CardSoftReward: 300
  CardTokensUpgradePrice: 25
  VideoBoostHardValue: 25
  MainWindowOfferDuration: 20
  FirstHardValue: 150
  FastCashValue: 120
  DelayBetweenOffers: 15
  DelayBetweenOffersWithoutAds: 60
  AgentIncomeInTime: 7200
  AgentHardAmount: 400
  CarMoveSpeed: 0
  CarRotationSpeed: 0
  CarStoppingDistance: 0
  TutorialCycleDelay: 5
  Rooms:
  - RoomType: 1
    StartLevel: 1
    CycleDelay: 12
    CycleDelay2: 10
    CycleDelay3: 10
    PriceLevel1: 0
    PriceLevel2: 150000
    PriceLevel3: 500000
    TimerLevel1: 60
    TimerLevel2: 60
    TimerLevel3: 60
    IncludeStatistic: 1
  - RoomType: 2
    StartLevel: 1
    CycleDelay: 0
    CycleDelay2: 0
    CycleDelay3: 0
    PriceLevel1: 0
    PriceLevel2: 150000
    PriceLevel3: 500000
    TimerLevel1: 60
    TimerLevel2: 60
    TimerLevel3: 60
    IncludeStatistic: 1
  - RoomType: 3
    StartLevel: 1
    CycleDelay: 12
    CycleDelay2: 10
    CycleDelay3: 10
    PriceLevel1: 0
    PriceLevel2: 150000
    PriceLevel3: 500000
    TimerLevel1: 60
    TimerLevel2: 60
    TimerLevel3: 60
    IncludeStatistic: 1
  - RoomType: 4
    StartLevel: 1
    CycleDelay: 15
    CycleDelay2: 10
    CycleDelay3: 10
    PriceLevel1: 0
    PriceLevel2: 150000
    PriceLevel3: 500000
    TimerLevel1: 60
    TimerLevel2: 60
    TimerLevel3: 60
    IncludeStatistic: 1
  - RoomType: 5
    StartLevel: 1
    CycleDelay: 15
    CycleDelay2: 10
    CycleDelay3: 10
    PriceLevel1: 0
    PriceLevel2: 150000
    PriceLevel3: 500000
    TimerLevel1: 60
    TimerLevel2: 60
    TimerLevel3: 60
    IncludeStatistic: 1
  - RoomType: 6
    StartLevel: 1
    CycleDelay: 15
    CycleDelay2: 10
    CycleDelay3: 10
    PriceLevel1: 0
    PriceLevel2: 150000
    PriceLevel3: 500000
    TimerLevel1: 60
    TimerLevel2: 60
    TimerLevel3: 60
    IncludeStatistic: 1
  - RoomType: 7
    StartLevel: 0
    CycleDelay: 15
    CycleDelay2: 10
    CycleDelay3: 10
    PriceLevel1: 25000
    PriceLevel2: 150000
    PriceLevel3: 500000
    TimerLevel1: 3600
    TimerLevel2: 60
    TimerLevel3: 60
    IncludeStatistic: 1
  - RoomType: 8
    StartLevel: 1
    CycleDelay: 25
    CycleDelay2: 600
    CycleDelay3: 10
    PriceLevel1: 0
    PriceLevel2: 0
    PriceLevel3: 0
    TimerLevel1: 60
    TimerLevel2: 60
    TimerLevel3: 60
    IncludeStatistic: 0
  - RoomType: 9
    StartLevel: 0
    CycleDelay: 100
    CycleDelay2: 10
    CycleDelay3: 10
    PriceLevel1: 250000
    PriceLevel2: 0
    PriceLevel3: 0
    TimerLevel1: 7200
    TimerLevel2: 60
    TimerLevel3: 60
    IncludeStatistic: 0
  - RoomType: 10
    StartLevel: 0
    CycleDelay: 100
    CycleDelay2: 10
    CycleDelay3: 10
    PriceLevel1: 500000
    PriceLevel2: 0
    PriceLevel3: 0
    TimerLevel1: 14400
    TimerLevel2: 60
    TimerLevel3: 60
    IncludeStatistic: 0
  - RoomType: 11
    StartLevel: 0
    CycleDelay: 100
    CycleDelay2: 10
    CycleDelay3: 10
    PriceLevel1: 100000
    PriceLevel2: 150000
    PriceLevel3: 500000
    TimerLevel1: 1800
    TimerLevel2: 60
    TimerLevel3: 60
    IncludeStatistic: 1
  - RoomType: 12
    StartLevel: 0
    CycleDelay: 0
    CycleDelay2: 0
    CycleDelay3: 0
    PriceLevel1: 500
    PriceLevel2: 0
    PriceLevel3: 0
    TimerLevel1: 0
    TimerLevel2: 0
    TimerLevel3: 0
    IncludeStatistic: 0
  - RoomType: 13
    StartLevel: 0
    CycleDelay: 0
    CycleDelay2: 0
    CycleDelay3: 0
    PriceLevel1: 0
    PriceLevel2: 0
    PriceLevel3: 0
    TimerLevel1: 0
    TimerLevel2: 0
    TimerLevel3: 0
    IncludeStatistic: 0
  - RoomType: 14
    StartLevel: 0
    CycleDelay: 0
    CycleDelay2: 0
    CycleDelay3: 0
    PriceLevel1: 0
    PriceLevel2: 0
    PriceLevel3: 0
    TimerLevel1: 14400
    TimerLevel2: 0
    TimerLevel3: 0
    IncludeStatistic: 0
  - RoomType: 15
    StartLevel: 0
    CycleDelay: 0
    CycleDelay2: 0
    CycleDelay3: 0
    PriceLevel1: 0
    PriceLevel2: 0
    PriceLevel3: 0
    TimerLevel1: 14400
    TimerLevel2: 0
    TimerLevel3: 0
    IncludeStatistic: 0
  - RoomType: 16
    StartLevel: 0
    CycleDelay: 0
    CycleDelay2: 0
    CycleDelay3: 0
    PriceLevel1: 0
    PriceLevel2: 0
    PriceLevel3: 0
    TimerLevel1: 0
    TimerLevel2: 0
    TimerLevel3: 0
    IncludeStatistic: 0
  Items:
  - RoomType: 1
    ItemId: 1
    SortId: 1
    BoughtForHard: 0
    RequiredLevel: 1
    StartLevel: 0
    Cap: 20
    Name: PHONE
    Capacity: 0
    Price: 25
    Income: 20
    CycleDelay: 0.1
    Seats: 1
    BuildingTimer: 0
  - RoomType: 1
    ItemId: 2
    SortId: 2
    BoughtForHard: 0
    RequiredLevel: 1
    StartLevel: 0
    Cap: 20
    Name: PHONE
    Capacity: 0
    Price: 75
    Income: 20
    CycleDelay: 0.1
    Seats: 1
    BuildingTimer: 0
  - RoomType: 1
    ItemId: 3
    SortId: 3
    BoughtForHard: 0
    RequiredLevel: 1
    StartLevel: 0
    Cap: 20
    Name: SINGBOARD
    Capacity: 0
    Price: 500
    Income: 20
    CycleDelay: 0.1
    Seats: 0
    BuildingTimer: 0
  - RoomType: 1
    ItemId: 4
    SortId: 4
    BoughtForHard: 0
    RequiredLevel: 1
    StartLevel: 0
    Cap: 20
    Name: SOFA
    Capacity: 0
    Price: 1000
    Income: 20
    CycleDelay: 0.1
    Seats: 0
    BuildingTimer: 0
  - RoomType: 1
    ItemId: 5
    SortId: 5
    BoughtForHard: 0
    RequiredLevel: 1
    StartLevel: 0
    Cap: 20
    Name: COFEE_TABLE
    Capacity: 0
    Price: 10000
    Income: 20
    CycleDelay: 0.1
    Seats: 0
    BuildingTimer: 0
  - RoomType: 1
    ItemId: 6
    SortId: 6
    BoughtForHard: 0
    RequiredLevel: 2
    StartLevel: 0
    Cap: 20
    Name: ARMCHAIR
    Capacity: 0
    Price: 15000
    Income: 20
    CycleDelay: 0.1
    Seats: 0
    BuildingTimer: 0
  - RoomType: 1
    ItemId: 7
    SortId: 7
    BoughtForHard: 0
    RequiredLevel: 2
    StartLevel: 0
    Cap: 20
    Name: ARMCHAIR
    Capacity: 0
    Price: 20000
    Income: 20
    CycleDelay: 0.1
    Seats: 0
    BuildingTimer: 0
  - RoomType: 1
    ItemId: 8
    SortId: 8
    BoughtForHard: 0
    RequiredLevel: 3
    StartLevel: 0
    Cap: 20
    Name: RECEPTION_WALL
    Capacity: 0
    Price: 50000
    Income: 20
    CycleDelay: 0.1
    Seats: 0
    BuildingTimer: 0
  - RoomType: 1
    ItemId: 9
    SortId: 9
    BoughtForHard: 0
    RequiredLevel: 3
    StartLevel: 0
    Cap: 20
    Name: 
    Capacity: 0
    Price: 0
    Income: 0
    CycleDelay: 0
    Seats: 0
    BuildingTimer: 0
  - RoomType: 1
    ItemId: 10
    SortId: 10
    BoughtForHard: 0
    RequiredLevel: 3
    StartLevel: 0
    Cap: 20
    Name: 
    Capacity: 0
    Price: 0
    Income: 0
    CycleDelay: 0
    Seats: 0
    BuildingTimer: 0
  - RoomType: 1
    ItemId: 11
    SortId: 11
    BoughtForHard: 0
    RequiredLevel: 3
    StartLevel: 0
    Cap: 20
    Name: 
    Capacity: 0
    Price: 0
    Income: 0
    CycleDelay: 0
    Seats: 0
    BuildingTimer: 0
  - RoomType: 1
    ItemId: 12
    SortId: 12
    BoughtForHard: 0
    RequiredLevel: 3
    StartLevel: 0
    Cap: 20
    Name: 
    Capacity: 0
    Price: 0
    Income: 0
    CycleDelay: 0
    Seats: 0
    BuildingTimer: 0
  - RoomType: 2
    ItemId: 1
    SortId: 1
    BoughtForHard: 0
    RequiredLevel: 1
    StartLevel: 0
    Cap: 20
    Name: CAR
    Capacity: 0
    Price: 50
    Income: 20
    CycleDelay: 0
    Seats: 1
    BuildingTimer: 0
  - RoomType: 2
    ItemId: 2
    SortId: 2
    BoughtForHard: 0
    RequiredLevel: 1
    StartLevel: 0
    Cap: 20
    Name: CAR
    Capacity: 0
    Price: 250
    Income: 20
    CycleDelay: 0
    Seats: 1
    BuildingTimer: 0
  - RoomType: 2
    ItemId: 3
    SortId: 3
    BoughtForHard: 0
    RequiredLevel: 1
    StartLevel: 0
    Cap: 20
    Name: CAR
    Capacity: 0
    Price: 1500
    Income: 20
    CycleDelay: 0
    Seats: 1
    BuildingTimer: 0
  - RoomType: 2
    ItemId: 4
    SortId: 4
    BoughtForHard: 0
    RequiredLevel: 1
    StartLevel: 0
    Cap: 20
    Name: CAR
    Capacity: 0
    Price: 10000
    Income: 20
    CycleDelay: 0
    Seats: 1
    BuildingTimer: 0
  - RoomType: 2
    ItemId: 5
    SortId: 5
    BoughtForHard: 0
    RequiredLevel: 2
    StartLevel: 0
    Cap: 20
    Name: CAR
    Capacity: 0
    Price: 25000
    Income: 20
    CycleDelay: 0
    Seats: 1
    BuildingTimer: 0
  - RoomType: 2
    ItemId: 6
    SortId: 9
    BoughtForHard: 0
    RequiredLevel: 1
    StartLevel: 0
    Cap: 20
    Name: GURNEY
    Capacity: 0
    Price: 250
    Income: 20
    CycleDelay: 0
    Seats: 0
    BuildingTimer: 0
  - RoomType: 2
    ItemId: 7
    SortId: 10
    BoughtForHard: 0
    RequiredLevel: 1
    StartLevel: 0
    Cap: 20
    Name: GURNEY
    Capacity: 0
    Price: 550
    Income: 20
    CycleDelay: 0
    Seats: 0
    BuildingTimer: 0
  - RoomType: 2
    ItemId: 8
    SortId: 11
    BoughtForHard: 0
    RequiredLevel: 1
    StartLevel: 0
    Cap: 20
    Name: GURNEY
    Capacity: 0
    Price: 1500
    Income: 20
    CycleDelay: 0
    Seats: 0
    BuildingTimer: 0
  - RoomType: 2
    ItemId: 9
    SortId: 12
    BoughtForHard: 0
    RequiredLevel: 1
    StartLevel: 0
    Cap: 20
    Name: GURNEY
    Capacity: 0
    Price: 4500
    Income: 20
    CycleDelay: 0
    Seats: 0
    BuildingTimer: 0
  - RoomType: 2
    ItemId: 10
    SortId: 13
    BoughtForHard: 0
    RequiredLevel: 2
    StartLevel: 0
    Cap: 20
    Name: GURNEY
    Capacity: 0
    Price: 9000
    Income: 20
    CycleDelay: 0
    Seats: 0
    BuildingTimer: 0
  - RoomType: 2
    ItemId: 11
    SortId: 6
    BoughtForHard: 0
    RequiredLevel: 2
    StartLevel: 0
    Cap: 20
    Name: CAR
    Capacity: 0
    Price: 50000
    Income: 20
    CycleDelay: 0
    Seats: 1
    BuildingTimer: 0
  - RoomType: 2
    ItemId: 12
    SortId: 7
    BoughtForHard: 0
    RequiredLevel: 3
    StartLevel: 0
    Cap: 20
    Name: CAR
    Capacity: 0
    Price: 75000
    Income: 20
    CycleDelay: 0
    Seats: 1
    BuildingTimer: 0
  - RoomType: 2
    ItemId: 13
    SortId: 14
    BoughtForHard: 0
    RequiredLevel: 3
    StartLevel: 0
    Cap: 20
    Name: GURNEY
    Capacity: 0
    Price: 25000
    Income: 20
    CycleDelay: 0
    Seats: 0
    BuildingTimer: 0
  - RoomType: 2
    ItemId: 14
    SortId: 8
    BoughtForHard: 0
    RequiredLevel: 3
    StartLevel: 0
    Cap: 20
    Name: CAR
    Capacity: 0
    Price: 150000
    Income: 20
    CycleDelay: 0
    Seats: 1
    BuildingTimer: 0
  - RoomType: 3
    ItemId: 1
    SortId: 1
    BoughtForHard: 0
    RequiredLevel: 1
    StartLevel: 0
    Cap: 20
    Name: EMBALMING_TABLE
    Capacity: 10
    Price: 50
    Income: 20
    CycleDelay: 0.1
    Seats: 1
    BuildingTimer: 0
  - RoomType: 3
    ItemId: 2
    SortId: 2
    BoughtForHard: 0
    RequiredLevel: 1
    StartLevel: 0
    Cap: 20
    Name: EMBALMING_TABLE
    Capacity: 0
    Price: 250
    Income: 20
    CycleDelay: 0.1
    Seats: 1
    BuildingTimer: 0
  - RoomType: 3
    ItemId: 3
    SortId: 3
    BoughtForHard: 0
    RequiredLevel: 1
    StartLevel: 0
    Cap: 20
    Name: EMBALMING_TABLE
    Capacity: 0
    Price: 10000
    Income: 20
    CycleDelay: 0.1
    Seats: 1
    BuildingTimer: 0
  - RoomType: 3
    ItemId: 4
    SortId: 4
    BoughtForHard: 0
    RequiredLevel: 2
    StartLevel: 0
    Cap: 20
    Name: EMBALMING_TABLE
    Capacity: 0
    Price: 15000
    Income: 20
    CycleDelay: 0.1
    Seats: 1
    BuildingTimer: 0
  - RoomType: 3
    ItemId: 5
    SortId: 5
    BoughtForHard: 0
    RequiredLevel: 2
    StartLevel: 0
    Cap: 20
    Name: EMBALMING_TABLE
    Capacity: 0
    Price: 35000
    Income: 20
    CycleDelay: 0.1
    Seats: 1
    BuildingTimer: 0
  - RoomType: 3
    ItemId: 6
    SortId: 6
    BoughtForHard: 0
    RequiredLevel: 3
    StartLevel: 0
    Cap: 20
    Name: EMBALMING_TABLE
    Capacity: 0
    Price: 50000
    Income: 20
    CycleDelay: 0.1
    Seats: 1
    BuildingTimer: 0
  - RoomType: 3
    ItemId: 7
    SortId: 7
    BoughtForHard: 0
    RequiredLevel: 1
    StartLevel: 0
    Cap: 20
    Name: BODY BOX
    Capacity: 0
    Price: 50
    Income: 20
    CycleDelay: 0.1
    Seats: 0
    BuildingTimer: 0
  - RoomType: 3
    ItemId: 8
    SortId: 8
    BoughtForHard: 0
    RequiredLevel: 1
    StartLevel: 0
    Cap: 20
    Name: BODY BOX
    Capacity: 0
    Price: 250
    Income: 20
    CycleDelay: 0.1
    Seats: 0
    BuildingTimer: 0
  - RoomType: 3
    ItemId: 9
    SortId: 9
    BoughtForHard: 0
    RequiredLevel: 1
    StartLevel: 0
    Cap: 20
    Name: BODY BOX
    Capacity: 0
    Price: 10000
    Income: 20
    CycleDelay: 0.1
    Seats: 0
    BuildingTimer: 0
  - RoomType: 3
    ItemId: 10
    SortId: 10
    BoughtForHard: 0
    RequiredLevel: 2
    StartLevel: 0
    Cap: 20
    Name: BODY BOX
    Capacity: 0
    Price: 15000
    Income: 20
    CycleDelay: 0.1
    Seats: 0
    BuildingTimer: 0
  - RoomType: 3
    ItemId: 11
    SortId: 11
    BoughtForHard: 0
    RequiredLevel: 2
    StartLevel: 0
    Cap: 20
    Name: BODY BOX
    Capacity: 0
    Price: 35000
    Income: 20
    CycleDelay: 0.1
    Seats: 0
    BuildingTimer: 0
  - RoomType: 3
    ItemId: 12
    SortId: 12
    BoughtForHard: 0
    RequiredLevel: 3
    StartLevel: 0
    Cap: 20
    Name: BODY BOX
    Capacity: 0
    Price: 50000
    Income: 20
    CycleDelay: 0.1
    Seats: 0
    BuildingTimer: 0
  - RoomType: 4
    ItemId: 1
    SortId: 1
    BoughtForHard: 0
    RequiredLevel: 1
    StartLevel: 0
    Cap: 20
    Name: TABLE
    Capacity: 0
    Price: 25
    Income: 10
    CycleDelay: 0.1
    Seats: 0
    BuildingTimer: 0
  - RoomType: 4
    ItemId: 2
    SortId: 2
    BoughtForHard: 0
    RequiredLevel: 1
    StartLevel: 0
    Cap: 20
    Name: TABLE
    Capacity: 0
    Price: 75
    Income: 10
    CycleDelay: 0.1
    Seats: 0
    BuildingTimer: 0
  - RoomType: 4
    ItemId: 3
    SortId: 3
    BoughtForHard: 0
    RequiredLevel: 2
    StartLevel: 0
    Cap: 20
    Name: TABLE
    Capacity: 0
    Price: 500
    Income: 10
    CycleDelay: 0.1
    Seats: 0
    BuildingTimer: 0
  - RoomType: 4
    ItemId: 4
    SortId: 4
    BoughtForHard: 0
    RequiredLevel: 2
    StartLevel: 0
    Cap: 20
    Name: TABLE
    Capacity: 0
    Price: 1000
    Income: 10
    CycleDelay: 0.1
    Seats: 0
    BuildingTimer: 0
  - RoomType: 4
    ItemId: 5
    SortId: 5
    BoughtForHard: 0
    RequiredLevel: 3
    StartLevel: 0
    Cap: 20
    Name: FRIDGE
    Capacity: 0
    Price: 1500
    Income: 10
    CycleDelay: 0.1
    Seats: 0
    BuildingTimer: 0
  - RoomType: 4
    ItemId: 6
    SortId: 6
    BoughtForHard: 0
    RequiredLevel: 0
    StartLevel: 0
    Cap: 20
    Name: 
    Capacity: 0
    Price: 0
    Income: 0
    CycleDelay: 0
    Seats: 0
    BuildingTimer: 0
  - RoomType: 4
    ItemId: 7
    SortId: 7
    BoughtForHard: 0
    RequiredLevel: 0
    StartLevel: 0
    Cap: 20
    Name: 
    Capacity: 0
    Price: 0
    Income: 0
    CycleDelay: 0
    Seats: 0
    BuildingTimer: 0
  - RoomType: 4
    ItemId: 8
    SortId: 8
    BoughtForHard: 0
    RequiredLevel: 0
    StartLevel: 0
    Cap: 20
    Name: 
    Capacity: 0
    Price: 0
    Income: 0
    CycleDelay: 0
    Seats: 0
    BuildingTimer: 0
  - RoomType: 4
    ItemId: 9
    SortId: 9
    BoughtForHard: 0
    RequiredLevel: 0
    StartLevel: 0
    Cap: 20
    Name: 
    Capacity: 0
    Price: 0
    Income: 0
    CycleDelay: 0
    Seats: 0
    BuildingTimer: 0
  - RoomType: 4
    ItemId: 10
    SortId: 10
    BoughtForHard: 0
    RequiredLevel: 0
    StartLevel: 0
    Cap: 20
    Name: 
    Capacity: 0
    Price: 0
    Income: 0
    CycleDelay: 0
    Seats: 0
    BuildingTimer: 0
  - RoomType: 4
    ItemId: 11
    SortId: 11
    BoughtForHard: 0
    RequiredLevel: 0
    StartLevel: 0
    Cap: 20
    Name: 
    Capacity: 0
    Price: 0
    Income: 0
    CycleDelay: 0
    Seats: 0
    BuildingTimer: 0
  - RoomType: 4
    ItemId: 12
    SortId: 12
    BoughtForHard: 0
    RequiredLevel: 0
    StartLevel: 0
    Cap: 20
    Name: 
    Capacity: 0
    Price: 0
    Income: 0
    CycleDelay: 0
    Seats: 0
    BuildingTimer: 0
  - RoomType: 4
    ItemId: 13
    SortId: 13
    BoughtForHard: 0
    RequiredLevel: 0
    StartLevel: 0
    Cap: 20
    Name: 
    Capacity: 0
    Price: 0
    Income: 0
    CycleDelay: 0
    Seats: 0
    BuildingTimer: 0
  - RoomType: 4
    ItemId: 14
    SortId: 14
    BoughtForHard: 0
    RequiredLevel: 0
    StartLevel: 0
    Cap: 20
    Name: 
    Capacity: 0
    Price: 0
    Income: 0
    CycleDelay: 0
    Seats: 0
    BuildingTimer: 0
  - RoomType: 5
    ItemId: 1
    SortId: 1
    BoughtForHard: 0
    RequiredLevel: 1
    StartLevel: 0
    Cap: 20
    Name: TOILET_CABIN
    Capacity: 0
    Price: 25
    Income: 10
    CycleDelay: 0.1
    Seats: 0
    BuildingTimer: 0
  - RoomType: 5
    ItemId: 2
    SortId: 2
    BoughtForHard: 0
    RequiredLevel: 1
    StartLevel: 0
    Cap: 20
    Name: TOILET_CABIN
    Capacity: 0
    Price: 75
    Income: 10
    CycleDelay: 0.1
    Seats: 0
    BuildingTimer: 0
  - RoomType: 5
    ItemId: 3
    SortId: 3
    BoughtForHard: 0
    RequiredLevel: 1
    StartLevel: 0
    Cap: 20
    Name: TOILET_CABIN
    Capacity: 0
    Price: 500
    Income: 10
    CycleDelay: 0.1
    Seats: 0
    BuildingTimer: 0
  - RoomType: 5
    ItemId: 4
    SortId: 4
    BoughtForHard: 0
    RequiredLevel: 2
    StartLevel: 0
    Cap: 20
    Name: TOILET_CABIN
    Capacity: 0
    Price: 1000
    Income: 10
    CycleDelay: 0.1
    Seats: 0
    BuildingTimer: 0
  - RoomType: 5
    ItemId: 5
    SortId: 5
    BoughtForHard: 0
    RequiredLevel: 3
    StartLevel: 0
    Cap: 20
    Name: TOILET_CABIN
    Capacity: 0
    Price: 1500
    Income: 10
    CycleDelay: 0.1
    Seats: 0
    BuildingTimer: 0
  - RoomType: 5
    ItemId: 6
    SortId: 6
    BoughtForHard: 0
    RequiredLevel: 0
    StartLevel: 0
    Cap: 20
    Name: 
    Capacity: 0
    Price: 0
    Income: 0
    CycleDelay: 0
    Seats: 0
    BuildingTimer: 0
  - RoomType: 5
    ItemId: 7
    SortId: 7
    BoughtForHard: 0
    RequiredLevel: 0
    StartLevel: 0
    Cap: 20
    Name: 
    Capacity: 0
    Price: 0
    Income: 0
    CycleDelay: 0
    Seats: 0
    BuildingTimer: 0
  - RoomType: 5
    ItemId: 8
    SortId: 8
    BoughtForHard: 0
    RequiredLevel: 0
    StartLevel: 0
    Cap: 20
    Name: 
    Capacity: 0
    Price: 0
    Income: 0
    CycleDelay: 0
    Seats: 0
    BuildingTimer: 0
  - RoomType: 5
    ItemId: 9
    SortId: 9
    BoughtForHard: 0
    RequiredLevel: 0
    StartLevel: 0
    Cap: 20
    Name: 
    Capacity: 0
    Price: 0
    Income: 0
    CycleDelay: 0
    Seats: 0
    BuildingTimer: 0
  - RoomType: 5
    ItemId: 10
    SortId: 10
    BoughtForHard: 0
    RequiredLevel: 0
    StartLevel: 0
    Cap: 20
    Name: 
    Capacity: 0
    Price: 0
    Income: 0
    CycleDelay: 0
    Seats: 0
    BuildingTimer: 0
  - RoomType: 6
    ItemId: 1
    SortId: 1
    BoughtForHard: 0
    RequiredLevel: 1
    StartLevel: 0
    Cap: 20
    Name: ARMCHAIR
    Capacity: 0
    Price: 25
    Income: 10
    CycleDelay: 0.1
    Seats: 0
    BuildingTimer: 0
  - RoomType: 6
    ItemId: 2
    SortId: 2
    BoughtForHard: 0
    RequiredLevel: 1
    StartLevel: 0
    Cap: 20
    Name: ARMCHAIR
    Capacity: 0
    Price: 75
    Income: 10
    CycleDelay: 0.1
    Seats: 0
    BuildingTimer: 0
  - RoomType: 6
    ItemId: 3
    SortId: 3
    BoughtForHard: 0
    RequiredLevel: 1
    StartLevel: 0
    Cap: 20
    Name: ARMCHAIR
    Capacity: 0
    Price: 500
    Income: 10
    CycleDelay: 0.1
    Seats: 0
    BuildingTimer: 0
  - RoomType: 6
    ItemId: 4
    SortId: 4
    BoughtForHard: 0
    RequiredLevel: 1
    StartLevel: 0
    Cap: 20
    Name: ARMCHAIR
    Capacity: 0
    Price: 1000
    Income: 10
    CycleDelay: 0.1
    Seats: 0
    BuildingTimer: 0
  - RoomType: 6
    ItemId: 5
    SortId: 5
    BoughtForHard: 0
    RequiredLevel: 2
    StartLevel: 0
    Cap: 20
    Name: ARMCHAIR
    Capacity: 0
    Price: 5000
    Income: 10
    CycleDelay: 0.1
    Seats: 0
    BuildingTimer: 0
  - RoomType: 6
    ItemId: 6
    SortId: 6
    BoughtForHard: 0
    RequiredLevel: 2
    StartLevel: 0
    Cap: 20
    Name: ARMCHAIR
    Capacity: 0
    Price: 10000
    Income: 10
    CycleDelay: 0.1
    Seats: 0
    BuildingTimer: 0
  - RoomType: 6
    ItemId: 7
    SortId: 7
    BoughtForHard: 0
    RequiredLevel: 3
    StartLevel: 0
    Cap: 20
    Name: ARMCHAIR
    Capacity: 0
    Price: 15000
    Income: 10
    CycleDelay: 0.1
    Seats: 0
    BuildingTimer: 0
  - RoomType: 6
    ItemId: 8
    SortId: 8
    BoughtForHard: 0
    RequiredLevel: 3
    StartLevel: 0
    Cap: 20
    Name: ARMCHAIR
    Capacity: 0
    Price: 25000
    Income: 10
    CycleDelay: 0.1
    Seats: 0
    BuildingTimer: 0
  - RoomType: 6
    ItemId: 9
    SortId: 9
    BoughtForHard: 0
    RequiredLevel: 3
    StartLevel: 0
    Cap: 20
    Name: TV
    Capacity: 0
    Price: 50000
    Income: 10
    CycleDelay: 0.1
    Seats: 0
    BuildingTimer: 0
  - RoomType: 6
    ItemId: 10
    SortId: 10
    BoughtForHard: 0
    RequiredLevel: 0
    StartLevel: 0
    Cap: 20
    Name: 
    Capacity: 0
    Price: 0
    Income: 0
    CycleDelay: 0
    Seats: 0
    BuildingTimer: 0
  - RoomType: 6
    ItemId: 11
    SortId: 11
    BoughtForHard: 0
    RequiredLevel: 0
    StartLevel: 0
    Cap: 20
    Name: 
    Capacity: 0
    Price: 0
    Income: 0
    CycleDelay: 0
    Seats: 0
    BuildingTimer: 0
  - RoomType: 7
    ItemId: 1
    SortId: 1
    BoughtForHard: 0
    RequiredLevel: 1
    StartLevel: 0
    Cap: 20
    Name: COFFIN
    Capacity: 0
    Price: 50
    Income: 10
    CycleDelay: 0.1
    Seats: 0
    BuildingTimer: 0
  - RoomType: 7
    ItemId: 2
    SortId: 2
    BoughtForHard: 0
    RequiredLevel: 1
    StartLevel: 0
    Cap: 20
    Name: BENCH
    Capacity: 0
    Price: 250
    Income: 10
    CycleDelay: 0.1
    Seats: 0
    BuildingTimer: 0
  - RoomType: 7
    ItemId: 3
    SortId: 3
    BoughtForHard: 0
    RequiredLevel: 1
    StartLevel: 0
    Cap: 20
    Name: BENCH
    Capacity: 0
    Price: 500
    Income: 10
    CycleDelay: 0.1
    Seats: 0
    BuildingTimer: 0
  - RoomType: 7
    ItemId: 4
    SortId: 4
    BoughtForHard: 0
    RequiredLevel: 1
    StartLevel: 0
    Cap: 20
    Name: BENCH
    Capacity: 0
    Price: 5000
    Income: 10
    CycleDelay: 0.1
    Seats: 0
    BuildingTimer: 0
  - RoomType: 7
    ItemId: 5
    SortId: 5
    BoughtForHard: 0
    RequiredLevel: 1
    StartLevel: 0
    Cap: 20
    Name: BENCH
    Capacity: 0
    Price: 10000
    Income: 10
    CycleDelay: 0.1
    Seats: 0
    BuildingTimer: 0
  - RoomType: 7
    ItemId: 6
    SortId: 6
    BoughtForHard: 0
    RequiredLevel: 2
    StartLevel: 0
    Cap: 20
    Name: BENCH
    Capacity: 0
    Price: 15000
    Income: 10
    CycleDelay: 0.1
    Seats: 0
    BuildingTimer: 0
  - RoomType: 7
    ItemId: 7
    SortId: 7
    BoughtForHard: 0
    RequiredLevel: 2
    StartLevel: 0
    Cap: 20
    Name: BENCH
    Capacity: 0
    Price: 25000
    Income: 10
    CycleDelay: 0.1
    Seats: 0
    BuildingTimer: 0
  - RoomType: 7
    ItemId: 8
    SortId: 8
    BoughtForHard: 0
    RequiredLevel: 3
    StartLevel: 0
    Cap: 20
    Name: BENCH
    Capacity: 0
    Price: 35000
    Income: 10
    CycleDelay: 0.1
    Seats: 0
    BuildingTimer: 0
  - RoomType: 7
    ItemId: 9
    SortId: 9
    BoughtForHard: 0
    RequiredLevel: 3
    StartLevel: 0
    Cap: 20
    Name: BENCH
    Capacity: 0
    Price: 50000
    Income: 10
    CycleDelay: 0.1
    Seats: 0
    BuildingTimer: 0
  - RoomType: 7
    ItemId: 10
    SortId: 10
    BoughtForHard: 0
    RequiredLevel: 1
    StartLevel: 0
    Cap: 20
    Name: TRIBUNE
    Capacity: 0
    Price: 7500
    Income: 10
    CycleDelay: 0.1
    Seats: 0
    BuildingTimer: 0
  - RoomType: 7
    ItemId: 11
    SortId: 11
    BoughtForHard: 0
    RequiredLevel: 2
    StartLevel: 0
    Cap: 20
    Name: CANDELABRA
    Capacity: 0
    Price: 3000
    Income: 10
    CycleDelay: 0.1
    Seats: 0
    BuildingTimer: 0
  - RoomType: 8
    ItemId: 1
    SortId: 1
    BoughtForHard: 0
    RequiredLevel: 0
    StartLevel: 1
    Cap: 20
    Name: 
    Capacity: 0
    Price: 0
    Income: 20
    CycleDelay: 25
    Seats: 0
    BuildingTimer: 0
  - RoomType: 8
    ItemId: 2
    SortId: 2
    BoughtForHard: 0
    RequiredLevel: 0
    StartLevel: 1
    Cap: 20
    Name: 
    Capacity: 0
    Price: 0
    Income: 20
    CycleDelay: 20
    Seats: 0
    BuildingTimer: 0
  - RoomType: 8
    ItemId: 3
    SortId: 3
    BoughtForHard: 0
    RequiredLevel: 0
    StartLevel: 1
    Cap: 20
    Name: CEMETRY
    Capacity: 12
    Price: 0
    Income: 0
    CycleDelay: 600
    Seats: 1
    BuildingTimer: 600
  - RoomType: 8
    ItemId: 4
    SortId: 4
    BoughtForHard: 0
    RequiredLevel: 0
    StartLevel: 0
    Cap: 20
    Name: CEMETRY
    Capacity: 12
    Price: 5000
    Income: 0
    CycleDelay: 600
    Seats: 1
    BuildingTimer: 1500
  - RoomType: 8
    ItemId: 5
    SortId: 5
    BoughtForHard: 0
    RequiredLevel: 0
    StartLevel: 0
    Cap: 20
    Name: CEMETRY
    Capacity: 12
    Price: 25000
    Income: 0
    CycleDelay: 600
    Seats: 1
    BuildingTimer: 3600
  - RoomType: 8
    ItemId: 6
    SortId: 6
    BoughtForHard: 0
    RequiredLevel: 0
    StartLevel: 0
    Cap: 20
    Name: CEMETRY
    Capacity: 12
    Price: 150000
    Income: 0
    CycleDelay: 600
    Seats: 1
    BuildingTimer: 7200
  - RoomType: 8
    ItemId: 7
    SortId: 7
    BoughtForHard: 0
    RequiredLevel: 0
    StartLevel: 0
    Cap: 20
    Name: CEMETRY
    Capacity: 12
    Price: 835000
    Income: 0
    CycleDelay: 600
    Seats: 1
    BuildingTimer: 14400
  - RoomType: 8
    ItemId: 8
    SortId: 8
    BoughtForHard: 0
    RequiredLevel: 0
    StartLevel: 0
    Cap: 20
    Name: CEMETRY
    Capacity: 12
    Price: 1400000
    Income: 0
    CycleDelay: 600
    Seats: 1
    BuildingTimer: 28800
  - RoomType: 9
    ItemId: 1
    SortId: 1
    BoughtForHard: 0
    RequiredLevel: 1
    StartLevel: 1
    Cap: 20
    Name: Cremation
    Capacity: 0
    Price: 0
    Income: 0
    CycleDelay: 0
    Seats: 0
    BuildingTimer: 0
  - RoomType: 10
    ItemId: 1
    SortId: 1
    BoughtForHard: 0
    RequiredLevel: 1
    StartLevel: 1
    Cap: 20
    Name: Cryogenic
    Capacity: 0
    Price: 0
    Income: 0
    CycleDelay: 0
    Seats: 0
    BuildingTimer: 0
  - RoomType: 14
    ItemId: 1
    SortId: 1
    BoughtForHard: 0
    RequiredLevel: 1
    StartLevel: 1
    Cap: 20
    Name: Cleaner
    Capacity: 0
    Price: 0
    Income: 0
    CycleDelay: 0
    Seats: 0
    BuildingTimer: 0
  - RoomType: 11
    ItemId: 1
    SortId: 1
    BoughtForHard: 0
    RequiredLevel: 1
    StartLevel: 0
    Cap: 20
    Name: PARKING
    Capacity: 0
    Price: 100
    Income: 10
    CycleDelay: 0.1
    Seats: 0
    BuildingTimer: 0
  - RoomType: 11
    ItemId: 2
    SortId: 2
    BoughtForHard: 0
    RequiredLevel: 1
    StartLevel: 0
    Cap: 20
    Name: PARKING
    Capacity: 0
    Price: 250
    Income: 10
    CycleDelay: 0.1
    Seats: 0
    BuildingTimer: 0
  - RoomType: 11
    ItemId: 3
    SortId: 3
    BoughtForHard: 0
    RequiredLevel: 1
    StartLevel: 0
    Cap: 20
    Name: PARKING
    Capacity: 0
    Price: 500
    Income: 10
    CycleDelay: 0.1
    Seats: 0
    BuildingTimer: 0
  - RoomType: 11
    ItemId: 4
    SortId: 4
    BoughtForHard: 0
    RequiredLevel: 1
    StartLevel: 0
    Cap: 20
    Name: PARKING
    Capacity: 0
    Price: 1000
    Income: 10
    CycleDelay: 0.1
    Seats: 0
    BuildingTimer: 0
  - RoomType: 11
    ItemId: 5
    SortId: 5
    BoughtForHard: 0
    RequiredLevel: 1
    StartLevel: 0
    Cap: 20
    Name: PARKING
    Capacity: 0
    Price: 10000
    Income: 10
    CycleDelay: 0.1
    Seats: 0
    BuildingTimer: 0
  - RoomType: 11
    ItemId: 6
    SortId: 6
    BoughtForHard: 0
    RequiredLevel: 2
    StartLevel: 0
    Cap: 20
    Name: PARKING
    Capacity: 0
    Price: 15000
    Income: 10
    CycleDelay: 0.1
    Seats: 0
    BuildingTimer: 0
  - RoomType: 11
    ItemId: 7
    SortId: 7
    BoughtForHard: 0
    RequiredLevel: 2
    StartLevel: 0
    Cap: 20
    Name: PARKING
    Capacity: 0
    Price: 25000
    Income: 10
    CycleDelay: 0.1
    Seats: 0
    BuildingTimer: 0
  - RoomType: 11
    ItemId: 8
    SortId: 8
    BoughtForHard: 0
    RequiredLevel: 2
    StartLevel: 0
    Cap: 20
    Name: PARKING
    Capacity: 0
    Price: 35000
    Income: 10
    CycleDelay: 0.1
    Seats: 0
    BuildingTimer: 0
  - RoomType: 11
    ItemId: 9
    SortId: 9
    BoughtForHard: 0
    RequiredLevel: 3
    StartLevel: 0
    Cap: 20
    Name: PARKING
    Capacity: 0
    Price: 40000
    Income: 10
    CycleDelay: 0.1
    Seats: 0
    BuildingTimer: 0
  - RoomType: 11
    ItemId: 10
    SortId: 10
    BoughtForHard: 0
    RequiredLevel: 3
    StartLevel: 0
    Cap: 20
    Name: PARKING
    Capacity: 0
    Price: 50000
    Income: 10
    CycleDelay: 0.1
    Seats: 0
    BuildingTimer: 0
  Progressions:
  - ParamType: 17
    Value: 2.46
    BaseValue: 0
  - ParamType: 24
    Value: 4.953
    BaseValue: 0
  - ParamType: 31
    Value: 8.35
    BaseValue: 500
  - ParamType: 32
    Value: 4.45
    BaseValue: 100
  - ParamType: 23
    Value: 0.14
    BaseValue: 0
  - ParamType: 15
    Value: 1.1
    BaseValue: 0
  - ParamType: 16
    Value: 0.9
    BaseValue: 0
  - ParamType: 33
    Value: 0.23
    BaseValue: 0
  Cards:
  - Region: 1
    Id: 1
    CardType: 0
    Quality: 0
    RoomType: 1
    RareBoxWeight: 100
    EpicBoxWeight: 100
    LegendaryBoxWeight: 10
    Name: HALL_MANAGER
  - Region: 1
    Id: 2
    CardType: 0
    Quality: 1
    RoomType: 2
    RareBoxWeight: 100
    EpicBoxWeight: 50
    LegendaryBoxWeight: 25
    Name: GARAGE_MANAGER
  - Region: 1
    Id: 3
    CardType: 0
    Quality: 0
    RoomType: 3
    RareBoxWeight: 100
    EpicBoxWeight: 50
    LegendaryBoxWeight: 10
    Name: EMBALMING_MANAGER
  - Region: 1
    Id: 4
    CardType: 1
    Quality: 0
    RoomType: 4
    RareBoxWeight: 100
    EpicBoxWeight: 100
    LegendaryBoxWeight: 10
    Name: FOOD_SERVICE_MANAGER
  - Region: 1
    Id: 5
    CardType: 1
    Quality: 0
    RoomType: 5
    RareBoxWeight: 0
    EpicBoxWeight: 0
    LegendaryBoxWeight: 0
    Name: TOILET_SERVICE_MANAGER
  - Region: 1
    Id: 6
    CardType: 1
    Quality: 0
    RoomType: 6
    RareBoxWeight: 0
    EpicBoxWeight: 0
    LegendaryBoxWeight: 0
    Name: REST_SERVICE_MANAGER
  - Region: 1
    Id: 7
    CardType: 0
    Quality: 1
    RoomType: 7
    RareBoxWeight: 100
    EpicBoxWeight: 50
    LegendaryBoxWeight: 25
    Name: FAREWELL_MANAGER
  - Region: 1
    Id: 8
    CardType: 0
    Quality: 0
    RoomType: 8
    RareBoxWeight: 0
    EpicBoxWeight: 0
    LegendaryBoxWeight: 0
    Name: CEMETRY_MANAGER
  - Region: 1
    Id: 9
    CardType: 2
    Quality: 0
    RoomType: 9
    RareBoxWeight: 0
    EpicBoxWeight: 0
    LegendaryBoxWeight: 0
    Name: CREMATION_MANAGER
  - Region: 1
    Id: 10
    CardType: 2
    Quality: 0
    RoomType: 10
    RareBoxWeight: 0
    EpicBoxWeight: 0
    LegendaryBoxWeight: 0
    Name: CRYOGENIC_MANAGER
  - Region: 1
    Id: 11
    CardType: 2
    Quality: 0
    RoomType: 15
    RareBoxWeight: 0
    EpicBoxWeight: 0
    LegendaryBoxWeight: 0
    Name: RESEARCH_MANAGER
  Boosts:
  - Id: 1
    Placement: 1
    RoomType: 0
    Sort: 1
    ParamType: 17
    K: 2
    Duration: 900
    NextDurationDelta: 0
    MaxCount: 8
    IncludePrevDuration: 1
    Global: 1
  - Id: 2
    Placement: 5
    RoomType: 0
    Sort: 3
    ParamType: 12
    K: 0.5
    Duration: 120
    NextDurationDelta: 0
    MaxCount: 0
    IncludePrevDuration: 0
    Global: 0
  - Id: 3
    Placement: 3
    RoomType: 0
    Sort: 3
    ParamType: 0
    K: 0
    Duration: 0
    NextDurationDelta: 0
    MaxCount: 0
    IncludePrevDuration: 0
    Global: 0
  - Id: 4
    Placement: 4
    RoomType: 0
    Sort: 3
    ParamType: 0
    K: 0
    Duration: 0
    NextDurationDelta: 0
    MaxCount: 0
    IncludePrevDuration: 0
    Global: 0
  - Id: 5
    Placement: 0
    RoomType: 1
    Sort: 2
    ParamType: 17
    K: 2
    Duration: 0
    NextDurationDelta: 0
    MaxCount: 0
    IncludePrevDuration: 0
    Global: 0
  - Id: 6
    Placement: 0
    RoomType: 2
    Sort: 2
    ParamType: 17
    K: 3
    Duration: 0
    NextDurationDelta: 0
    MaxCount: 0
    IncludePrevDuration: 0
    Global: 0
  - Id: 7
    Placement: 0
    RoomType: 3
    Sort: 2
    ParamType: 17
    K: 2
    Duration: 0
    NextDurationDelta: 0
    MaxCount: 0
    IncludePrevDuration: 0
    Global: 0
  - Id: 8
    Placement: 0
    RoomType: 4
    Sort: 2
    ParamType: 17
    K: 2
    Duration: 0
    NextDurationDelta: 0
    MaxCount: 0
    IncludePrevDuration: 0
    Global: 0
  - Id: 9
    Placement: 0
    RoomType: 5
    Sort: 2
    ParamType: 17
    K: 2
    Duration: 0
    NextDurationDelta: 0
    MaxCount: 0
    IncludePrevDuration: 0
    Global: 0
  - Id: 10
    Placement: 0
    RoomType: 6
    Sort: 2
    ParamType: 17
    K: 2
    Duration: 0
    NextDurationDelta: 0
    MaxCount: 0
    IncludePrevDuration: 0
    Global: 0
  - Id: 11
    Placement: 0
    RoomType: 7
    Sort: 2
    ParamType: 17
    K: 3
    Duration: 0
    NextDurationDelta: 0
    MaxCount: 0
    IncludePrevDuration: 0
    Global: 0
  - Id: 12
    Placement: 0
    RoomType: 8
    Sort: 2
    ParamType: 17
    K: 2
    Duration: 0
    NextDurationDelta: 0
    MaxCount: 0
    IncludePrevDuration: 0
    Global: 0
  - Id: 13
    Placement: 0
    RoomType: 9
    Sort: 2
    ParamType: 17
    K: 2
    Duration: 0
    NextDurationDelta: 0
    MaxCount: 0
    IncludePrevDuration: 0
    Global: 0
  - Id: 14
    Placement: 0
    RoomType: 10
    Sort: 2
    ParamType: 17
    K: 2
    Duration: 0
    NextDurationDelta: 0
    MaxCount: 0
    IncludePrevDuration: 0
    Global: 0
  - Id: 15
    Placement: 0
    RoomType: 15
    Sort: 2
    ParamType: 17
    K: 2
    Duration: 0
    NextDurationDelta: 0
    MaxCount: 0
    IncludePrevDuration: 0
    Global: 0
  - Id: 16
    Placement: 0
    RoomType: 0
    Sort: 3
    ParamType: 17
    K: 2
    Duration: 0
    NextDurationDelta: 0
    MaxCount: 0
    IncludePrevDuration: 0
    Global: 1
  Tasks:
  - ID: 1
    Region: 1
    TaskType: 38
    Var1: 2
    Var2: 2
    Var3: 
    RewardText: soft-150
    Class: 0
    ActionStart: 0
    ActionCompleted: 0
    ActionFinish: 0
    Reward:
      Type: 1
      Id: 0
      Amount: 150
  - ID: 2
    Region: 1
    TaskType: 39
    Var1: 2
    Var2: 1
    Var3: 
    RewardText: soft-50
    Class: 0
    ActionStart: 0
    ActionCompleted: 0
    ActionFinish: 0
    Reward:
      Type: 1
      Id: 0
      Amount: 50
  - ID: 3
    Region: 1
    TaskType: 39
    Var1: 3
    Var2: 1
    Var3: 
    RewardText: soft-50
    Class: 0
    ActionStart: 0
    ActionCompleted: 0
    ActionFinish: 0
    Reward:
      Type: 1
      Id: 0
      Amount: 50
  - ID: 4
    Region: 1
    TaskType: 38
    Var1: 3
    Var2: 2
    Var3: 
    RewardText: soft-150
    Class: 0
    ActionStart: 0
    ActionCompleted: 0
    ActionFinish: 0
    Reward:
      Type: 1
      Id: 0
      Amount: 150
  - ID: 5
    Region: 1
    TaskType: 40
    Var1: 2
    Var2: 1
    Var3: 5
    RewardText: soft-50
    Class: 0
    ActionStart: 0
    ActionCompleted: 0
    ActionFinish: 0
    Reward:
      Type: 1
      Id: 0
      Amount: 50
  - ID: 6
    Region: 1
    TaskType: 40
    Var1: 3
    Var2: 1
    Var3: 5
    RewardText: soft-50
    Class: 0
    ActionStart: 0
    ActionCompleted: 0
    ActionFinish: 0
    Reward:
      Type: 1
      Id: 0
      Amount: 50
  - ID: 7
    Region: 1
    TaskType: 38
    Var1: 5
    Var2: 1
    Var3: 
    RewardText: soft-250
    Class: 0
    ActionStart: 0
    ActionCompleted: 0
    ActionFinish: 0
    Reward:
      Type: 1
      Id: 0
      Amount: 250
  - ID: 8
    Region: 1
    TaskType: 40
    Var1: 1
    Var2: 1
    Var3: 5
    RewardText: soft-150
    Class: 0
    ActionStart: 0
    ActionCompleted: 0
    ActionFinish: 0
    Reward:
      Type: 1
      Id: 0
      Amount: 150
  - ID: 9
    Region: 1
    TaskType: 40
    Var1: 4
    Var2: 1
    Var3: 5
    RewardText: soft-150
    Class: 0
    ActionStart: 0
    ActionCompleted: 0
    ActionFinish: 0
    Reward:
      Type: 1
      Id: 0
      Amount: 150
  - ID: 10
    Region: 1
    TaskType: 38
    Var1: 6
    Var2: 1
    Var3: 
    RewardText: soft-250
    Class: 0
    ActionStart: 0
    ActionCompleted: 0
    ActionFinish: 2
    Reward:
      Type: 1
      Id: 0
      Amount: 250
  - ID: 11
    Region: 1
    TaskType: 40
    Var1: 5
    Var2: 1
    Var3: 5
    RewardText: soft-150
    Class: 0
    ActionStart: 0
    ActionCompleted: 0
    ActionFinish: 0
    Reward:
      Type: 1
      Id: 0
      Amount: 150
  - ID: 12
    Region: 1
    TaskType: 40
    Var1: 6
    Var2: 1
    Var3: 5
    RewardText: soft-150
    Class: 0
    ActionStart: 0
    ActionCompleted: 0
    ActionFinish: 0
    Reward:
      Type: 1
      Id: 0
      Amount: 150
  - ID: 13
    Region: 1
    TaskType: 38
    Var1: 1
    Var2: 2
    Var3: 
    RewardText: soft-250
    Class: 0
    ActionStart: 0
    ActionCompleted: 0
    ActionFinish: 0
    Reward:
      Type: 1
      Id: 0
      Amount: 250
  - ID: 14
    Region: 1
    TaskType: 39
    Var1: 2
    Var2: 2
    Var3: 
    RewardText: soft-150
    Class: 0
    ActionStart: 0
    ActionCompleted: 0
    ActionFinish: 0
    Reward:
      Type: 1
      Id: 0
      Amount: 150
  - ID: 15
    Region: 1
    TaskType: 39
    Var1: 3
    Var2: 2
    Var3: 
    RewardText: soft-150
    Class: 0
    ActionStart: 0
    ActionCompleted: 0
    ActionFinish: 1
    Reward:
      Type: 1
      Id: 0
      Amount: 150
  - ID: 16
    Region: 1
    TaskType: 38
    Var1: 5
    Var2: 2
    Var3: 
    RewardText: soft-400
    Class: 0
    ActionStart: 0
    ActionCompleted: 0
    ActionFinish: 0
    Reward:
      Type: 1
      Id: 0
      Amount: 400
  - ID: 17
    Region: 1
    TaskType: 39
    Var1: 1
    Var2: 2
    Var3: 
    RewardText: soft-250
    Class: 0
    ActionStart: 0
    ActionCompleted: 0
    ActionFinish: 0
    Reward:
      Type: 1
      Id: 0
      Amount: 250
  - ID: 18
    Region: 1
    TaskType: 39
    Var1: 5
    Var2: 2
    Var3: 
    RewardText: soft-250
    Class: 0
    ActionStart: 0
    ActionCompleted: 0
    ActionFinish: 0
    Reward:
      Type: 1
      Id: 0
      Amount: 250
  - ID: 19
    Region: 1
    TaskType: 38
    Var1: 4
    Var2: 2
    Var3: 
    RewardText: soft-400
    Class: 0
    ActionStart: 0
    ActionCompleted: 0
    ActionFinish: 0
    Reward:
      Type: 1
      Id: 0
      Amount: 400
  - ID: 20
    Region: 1
    TaskType: 40
    Var1: 2
    Var2: 6
    Var3: 5
    RewardText: soft-250
    Class: 0
    ActionStart: 0
    ActionCompleted: 0
    ActionFinish: 0
    Reward:
      Type: 1
      Id: 0
      Amount: 250
  - ID: 21
    Region: 1
    TaskType: 40
    Var1: 3
    Var2: 7
    Var3: 5
    RewardText: soft-250
    Class: 0
    ActionStart: 0
    ActionCompleted: 0
    ActionFinish: 0
    Reward:
      Type: 1
      Id: 0
      Amount: 250
  - ID: 22
    Region: 1
    TaskType: 38
    Var1: 6
    Var2: 2
    Var3: 
    RewardText: soft-400
    Class: 0
    ActionStart: 0
    ActionCompleted: 0
    ActionFinish: 0
    Reward:
      Type: 1
      Id: 0
      Amount: 400
  - ID: 23
    Region: 1
    TaskType: 39
    Var1: 6
    Var2: 2
    Var3: 
    RewardText: soft-250
    Class: 0
    ActionStart: 0
    ActionCompleted: 0
    ActionFinish: 0
    Reward:
      Type: 1
      Id: 0
      Amount: 250
  - ID: 24
    Region: 1
    TaskType: 39
    Var1: 1
    Var2: 2
    Var3: 
    RewardText: soft-250
    Class: 0
    ActionStart: 0
    ActionCompleted: 0
    ActionFinish: 0
    Reward:
      Type: 1
      Id: 0
      Amount: 250
  - ID: 25
    Region: 1
    TaskType: 38
    Var1: 2
    Var2: 7
    Var3: 
    RewardText: soft-400
    Class: 0
    ActionStart: 0
    ActionCompleted: 0
    ActionFinish: 0
    Reward:
      Type: 1
      Id: 0
      Amount: 400
  - ID: 26
    Region: 1
    TaskType: 40
    Var1: 2
    Var2: 7
    Var3: 5
    RewardText: soft-250
    Class: 0
    ActionStart: 0
    ActionCompleted: 0
    ActionFinish: 0
    Reward:
      Type: 1
      Id: 0
      Amount: 250
  - ID: 27
    Region: 1
    TaskType: 40
    Var1: 1
    Var2: 2
    Var3: 5
    RewardText: soft-250
    Class: 0
    ActionStart: 0
    ActionCompleted: 0
    ActionFinish: 0
    Reward:
      Type: 1
      Id: 0
      Amount: 250
  - ID: 28
    Region: 1
    TaskType: 38
    Var1: 3
    Var2: 8
    Var3: 
    RewardText: soft-750
    Class: 0
    ActionStart: 0
    ActionCompleted: 0
    ActionFinish: 0
    Reward:
      Type: 1
      Id: 0
      Amount: 750
  - ID: 29
    Region: 1
    TaskType: 40
    Var1: 4
    Var2: 2
    Var3: 5
    RewardText: soft-400
    Class: 0
    ActionStart: 0
    ActionCompleted: 0
    ActionFinish: 0
    Reward:
      Type: 1
      Id: 0
      Amount: 400
  - ID: 30
    Region: 1
    TaskType: 40
    Var1: 5
    Var2: 2
    Var3: 5
    RewardText: soft-400
    Class: 0
    ActionStart: 0
    ActionCompleted: 0
    ActionFinish: 0
    Reward:
      Type: 1
      Id: 0
      Amount: 400
  - ID: 31
    Region: 1
    TaskType: 38
    Var1: 1
    Var2: 3
    Var3: 
    RewardText: soft-750
    Class: 0
    ActionStart: 0
    ActionCompleted: 0
    ActionFinish: 0
    Reward:
      Type: 1
      Id: 0
      Amount: 750
  - ID: 32
    Region: 1
    TaskType: 40
    Var1: 6
    Var2: 2
    Var3: 5
    RewardText: soft-400
    Class: 0
    ActionStart: 0
    ActionCompleted: 0
    ActionFinish: 0
    Reward:
      Type: 1
      Id: 0
      Amount: 400
  - ID: 33
    Region: 1
    TaskType: 40
    Var1: 2
    Var2: 2
    Var3: 5
    RewardText: soft-400
    Class: 0
    ActionStart: 0
    ActionCompleted: 0
    ActionFinish: 0
    Reward:
      Type: 1
      Id: 0
      Amount: 400
  - ID: 34
    Region: 1
    TaskType: 38
    Var1: 5
    Var2: 3
    Var3: 
    RewardText: soft-750
    Class: 0
    ActionStart: 0
    ActionCompleted: 0
    ActionFinish: 0
    Reward:
      Type: 1
      Id: 0
      Amount: 750
  - ID: 35
    Region: 1
    TaskType: 40
    Var1: 3
    Var2: 2
    Var3: 5
    RewardText: soft-400
    Class: 0
    ActionStart: 0
    ActionCompleted: 0
    ActionFinish: 0
    Reward:
      Type: 1
      Id: 0
      Amount: 400
  - ID: 36
    Region: 1
    TaskType: 40
    Var1: 1
    Var2: 3
    Var3: 5
    RewardText: soft-400
    Class: 0
    ActionStart: 0
    ActionCompleted: 0
    ActionFinish: 0
    Reward:
      Type: 1
      Id: 0
      Amount: 400
  - ID: 37
    Region: 1
    TaskType: 38
    Var1: 6
    Var2: 3
    Var3: 
    RewardText: soft-1250
    Class: 0
    ActionStart: 0
    ActionCompleted: 0
    ActionFinish: 0
    Reward:
      Type: 1
      Id: 0
      Amount: 1250
  - ID: 38
    Region: 1
    TaskType: 40
    Var1: 6
    Var2: 3
    Var3: 5
    RewardText: soft-750
    Class: 0
    ActionStart: 0
    ActionCompleted: 0
    ActionFinish: 0
    Reward:
      Type: 1
      Id: 0
      Amount: 750
  - ID: 39
    Region: 1
    TaskType: 40
    Var1: 3
    Var2: 8
    Var3: 5
    RewardText: soft-750
    Class: 0
    ActionStart: 0
    ActionCompleted: 0
    ActionFinish: 0
    Reward:
      Type: 1
      Id: 0
      Amount: 750
  - ID: 40
    Region: 1
    TaskType: 38
    Var1: 1
    Var2: 4
    Var3: 
    RewardText: soft-1250
    Class: 0
    ActionStart: 0
    ActionCompleted: 0
    ActionFinish: 0
    Reward:
      Type: 1
      Id: 0
      Amount: 1250
  - ID: 41
    Region: 1
    TaskType: 40
    Var1: 5
    Var2: 3
    Var3: 5
    RewardText: soft-750
    Class: 0
    ActionStart: 0
    ActionCompleted: 0
    ActionFinish: 0
    Reward:
      Type: 1
      Id: 0
      Amount: 750
  - ID: 42
    Region: 1
    TaskType: 40
    Var1: 1
    Var2: 4
    Var3: 5
    RewardText: soft-750
    Class: 0
    ActionStart: 0
    ActionCompleted: 0
    ActionFinish: 0
    Reward:
      Type: 1
      Id: 0
      Amount: 750
  - ID: 43
    Region: 1
    TaskType: 38
    Var1: 6
    Var2: 4
    Var3: 
    RewardText: soft-1250
    Class: 0
    ActionStart: 0
    ActionCompleted: 0
    ActionFinish: 0
    Reward:
      Type: 1
      Id: 0
      Amount: 1250
  - ID: 44
    Region: 1
    TaskType: 40
    Var1: 6
    Var2: 4
    Var3: 5
    RewardText: soft-750
    Class: 0
    ActionStart: 0
    ActionCompleted: 0
    ActionFinish: 0
    Reward:
      Type: 1
      Id: 0
      Amount: 750
  - ID: 45
    Region: 1
    TaskType: 40
    Var1: 1
    Var2: 1
    Var3: 10
    RewardText: soft-750
    Class: 0
    ActionStart: 0
    ActionCompleted: 0
    ActionFinish: 0
    Reward:
      Type: 1
      Id: 0
      Amount: 750
  - ID: 46
    Region: 1
    TaskType: 38
    Var1: 2
    Var2: 3
    Var3: 
    RewardText: soft-1250
    Class: 0
    ActionStart: 0
    ActionCompleted: 0
    ActionFinish: 0
    Reward:
      Type: 1
      Id: 0
      Amount: 1250
  - ID: 47
    Region: 1
    TaskType: 40
    Var1: 2
    Var2: 1
    Var3: 10
    RewardText: soft-750
    Class: 0
    ActionStart: 0
    ActionCompleted: 0
    ActionFinish: 0
    Reward:
      Type: 1
      Id: 0
      Amount: 750
  - ID: 48
    Region: 1
    TaskType: 40
    Var1: 3
    Var2: 1
    Var3: 10
    RewardText: soft-750
    Class: 0
    ActionStart: 0
    ActionCompleted: 0
    ActionFinish: 0
    Reward:
      Type: 1
      Id: 0
      Amount: 750
  - ID: 49
    Region: 1
    TaskType: 38
    Var1: 2
    Var2: 8
    Var3: 
    RewardText: soft-1250
    Class: 0
    ActionStart: 0
    ActionCompleted: 0
    ActionFinish: 0
    Reward:
      Type: 1
      Id: 0
      Amount: 1250
  - ID: 50
    Region: 1
    TaskType: 40
    Var1: 3
    Var2: 1
    Var3: 10
    RewardText: soft-750
    Class: 0
    ActionStart: 0
    ActionCompleted: 0
    ActionFinish: 0
    Reward:
      Type: 1
      Id: 0
      Amount: 750
  - ID: 51
    Region: 1
    TaskType: 40
    Var1: 4
    Var2: 1
    Var3: 10
    RewardText: soft-750
    Class: 0
    ActionStart: 0
    ActionCompleted: 0
    ActionFinish: 0
    Reward:
      Type: 1
      Id: 0
      Amount: 750
  - ID: 52
    Region: 1
    TaskType: 38
    Var1: 3
    Var2: 3
    Var3: 
    RewardText: soft-1250
    Class: 0
    ActionStart: 0
    ActionCompleted: 0
    ActionFinish: 0
    Reward:
      Type: 1
      Id: 0
      Amount: 1250
  - ID: 53
    Region: 1
    TaskType: 40
    Var1: 1
    Var2: 2
    Var3: 10
    RewardText: soft-750
    Class: 0
    ActionStart: 0
    ActionCompleted: 0
    ActionFinish: 0
    Reward:
      Type: 1
      Id: 0
      Amount: 750
  - ID: 54
    Region: 1
    TaskType: 40
    Var1: 5
    Var2: 1
    Var3: 10
    RewardText: soft-750
    Class: 0
    ActionStart: 0
    ActionCompleted: 0
    ActionFinish: 0
    Reward:
      Type: 1
      Id: 0
      Amount: 750
  - ID: 55
    Region: 1
    TaskType: 38
    Var1: 3
    Var2: 9
    Var3: 
    RewardText: soft-1250
    Class: 0
    ActionStart: 0
    ActionCompleted: 0
    ActionFinish: 0
    Reward:
      Type: 1
      Id: 0
      Amount: 1250
  - ID: 56
    Region: 1
    TaskType: 40
    Var1: 4
    Var2: 2
    Var3: 10
    RewardText: soft-750
    Class: 0
    ActionStart: 0
    ActionCompleted: 0
    ActionFinish: 0
    Reward:
      Type: 1
      Id: 0
      Amount: 750
  - ID: 57
    Region: 1
    TaskType: 40
    Var1: 5
    Var2: 2
    Var3: 10
    RewardText: soft-750
    Class: 0
    ActionStart: 0
    ActionCompleted: 0
    ActionFinish: 0
    Reward:
      Type: 1
      Id: 0
      Amount: 750
  - ID: 58
    Region: 1
    TaskType: 38
    Var1: 1
    Var2: 5
    Var3: 
    RewardText: soft-1250
    Class: 0
    ActionStart: 0
    ActionCompleted: 0
    ActionFinish: 0
    Reward:
      Type: 1
      Id: 0
      Amount: 1250
  - ID: 59
    Region: 1
    TaskType: 40
    Var1: 6
    Var2: 3
    Var3: 10
    RewardText: soft-750
    Class: 0
    ActionStart: 0
    ActionCompleted: 0
    ActionFinish: 0
    Reward:
      Type: 1
      Id: 0
      Amount: 750
  - ID: 60
    Region: 1
    TaskType: 40
    Var1: 5
    Var2: 3
    Var3: 10
    RewardText: soft-750
    Class: 0
    ActionStart: 0
    ActionCompleted: 0
    ActionFinish: 0
    Reward:
      Type: 1
      Id: 0
      Amount: 750
  - ID: 61
    Region: 1
    TaskType: 43
    Var1: 7
    Var2: 
    Var3: 
    RewardText: soft-2500
    Class: 0
    ActionStart: 0
    ActionCompleted: 0
    ActionFinish: 0
    Reward:
      Type: 1
      Id: 0
      Amount: 2500
  - ID: 62
    Region: 1
    TaskType: 38
    Var1: 7
    Var2: 1
    Var3: 
    RewardText: soft-1250
    Class: 0
    ActionStart: 0
    ActionCompleted: 0
    ActionFinish: 0
    Reward:
      Type: 1
      Id: 0
      Amount: 1250
  - ID: 63
    Region: 1
    TaskType: 38
    Var1: 7
    Var2: 2
    Var3: 
    RewardText: soft-1250
    Class: 0
    ActionStart: 0
    ActionCompleted: 0
    ActionFinish: 0
    Reward:
      Type: 1
      Id: 0
      Amount: 1250
  - ID: 64
    Region: 1
    TaskType: 40
    Var1: 2
    Var2: 2
    Var3: 10
    RewardText: soft-1250
    Class: 0
    ActionStart: 0
    ActionCompleted: 0
    ActionFinish: 0
    Reward:
      Type: 1
      Id: 0
      Amount: 1250
  - ID: 65
    Region: 1
    TaskType: 40
    Var1: 2
    Var2: 6
    Var3: 10
    RewardText: soft-1250
    Class: 0
    ActionStart: 0
    ActionCompleted: 0
    ActionFinish: 0
    Reward:
      Type: 1
      Id: 0
      Amount: 1250
  - ID: 66
    Region: 1
    TaskType: 38
    Var1: 7
    Var2: 3
    Var3: 
    RewardText: soft-1250
    Class: 0
    ActionStart: 0
    ActionCompleted: 0
    ActionFinish: 0
    Reward:
      Type: 1
      Id: 0
      Amount: 1250
  - ID: 67
    Region: 1
    TaskType: 40
    Var1: 7
    Var2: 1
    Var3: 10
    RewardText: soft-1250
    Class: 0
    ActionStart: 0
    ActionCompleted: 0
    ActionFinish: 0
    Reward:
      Type: 1
      Id: 0
      Amount: 1250
  - ID: 68
    Region: 1
    TaskType: 40
    Var1: 3
    Var2: 7
    Var3: 10
    RewardText: soft-1250
    Class: 0
    ActionStart: 0
    ActionCompleted: 0
    ActionFinish: 0
    Reward:
      Type: 1
      Id: 0
      Amount: 1250
  - ID: 69
    Region: 1
    TaskType: 38
    Var1: 7
    Var2: 4
    Var3: 
    RewardText: soft-1250
    Class: 0
    ActionStart: 0
    ActionCompleted: 0
    ActionFinish: 0
    Reward:
      Type: 1
      Id: 0
      Amount: 1250
  - ID: 70
    Region: 1
    TaskType: 43
    Var1: 11
    Var2: 
    Var3: 
    RewardText: soft-1250
    Class: 0
    ActionStart: 0
    ActionCompleted: 0
    ActionFinish: 0
    Reward:
      Type: 1
      Id: 0
      Amount: 1250
  - ID: 71
    Region: 1
    TaskType: 38
    Var1: 11
    Var2: 1
    Var3: 
    RewardText: soft-1250
    Class: 0
    ActionStart: 0
    ActionCompleted: 0
    ActionFinish: 0
    Reward:
      Type: 1
      Id: 0
      Amount: 1250
  - ID: 72
    Region: 1
    TaskType: 40
    Var1: 1
    Var2: 1
    Var3: 20
    RewardText: soft-1250
    Class: 0
    ActionStart: 0
    ActionCompleted: 0
    ActionFinish: 0
    Reward:
      Type: 1
      Id: 0
      Amount: 1250
  - ID: 73
    Region: 1
    TaskType: 40
    Var1: 2
    Var2: 1
    Var3: 20
    RewardText: soft-1250
    Class: 0
    ActionStart: 0
    ActionCompleted: 0
    ActionFinish: 0
    Reward:
      Type: 1
      Id: 0
      Amount: 1250
  - ID: 74
    Region: 1
    TaskType: 38
    Var1: 11
    Var2: 2
    Var3: 
    RewardText: soft-1250
    Class: 0
    ActionStart: 0
    ActionCompleted: 0
    ActionFinish: 0
    Reward:
      Type: 1
      Id: 0
      Amount: 1250
  - ID: 75
    Region: 1
    TaskType: 40
    Var1: 3
    Var2: 1
    Var3: 20
    RewardText: soft-1250
    Class: 0
    ActionStart: 0
    ActionCompleted: 0
    ActionFinish: 0
    Reward:
      Type: 1
      Id: 0
      Amount: 1250
  - ID: 76
    Region: 1
    TaskType: 40
    Var1: 4
    Var2: 1
    Var3: 20
    RewardText: soft-1250
    Class: 0
    ActionStart: 0
    ActionCompleted: 0
    ActionFinish: 0
    Reward:
      Type: 1
      Id: 0
      Amount: 1250
  - ID: 77
    Region: 1
    TaskType: 38
    Var1: 11
    Var2: 3
    Var3: 
    RewardText: soft-1250
    Class: 0
    ActionStart: 0
    ActionCompleted: 0
    ActionFinish: 0
    Reward:
      Type: 1
      Id: 0
      Amount: 1250
  - ID: 78
    Region: 1
    TaskType: 40
    Var1: 5
    Var2: 1
    Var3: 20
    RewardText: soft-1250
    Class: 0
    ActionStart: 0
    ActionCompleted: 0
    ActionFinish: 0
    Reward:
      Type: 1
      Id: 0
      Amount: 1250
  - ID: 79
    Region: 1
    TaskType: 40
    Var1: 6
    Var2: 1
    Var3: 20
    RewardText: soft-1250
    Class: 0
    ActionStart: 0
    ActionCompleted: 0
    ActionFinish: 0
    Reward:
      Type: 1
      Id: 0
      Amount: 1250
  - ID: 80
    Region: 1
    TaskType: 38
    Var1: 11
    Var2: 4
    Var3: 
    RewardText: soft-1250
    Class: 0
    ActionStart: 0
    ActionCompleted: 0
    ActionFinish: 0
    Reward:
      Type: 1
      Id: 0
      Amount: 1250
  - ID: 81
    Region: 1
    TaskType: 40
    Var1: 1
    Var2: 2
    Var3: 20
    RewardText: soft-1250
    Class: 0
    ActionStart: 0
    ActionCompleted: 0
    ActionFinish: 0
    Reward:
      Type: 1
      Id: 0
      Amount: 1250
  - ID: 82
    Region: 1
    TaskType: 40
    Var1: 2
    Var2: 2
    Var3: 20
    RewardText: soft-1250
    Class: 0
    ActionStart: 0
    ActionCompleted: 0
    ActionFinish: 0
    Reward:
      Type: 1
      Id: 0
      Amount: 1250
  - ID: 83
    Region: 1
    TaskType: 40
    Var1: 3
    Var2: 2
    Var3: 20
    RewardText: soft-1250
    Class: 0
    ActionStart: 0
    ActionCompleted: 0
    ActionFinish: 0
    Reward:
      Type: 1
      Id: 0
      Amount: 1250
  - ID: 84
    Region: 1
    TaskType: 40
    Var1: 4
    Var2: 2
    Var3: 20
    RewardText: soft-1250
    Class: 0
    ActionStart: 0
    ActionCompleted: 0
    ActionFinish: 0
    Reward:
      Type: 1
      Id: 0
      Amount: 1250
  - ID: 85
    Region: 1
    TaskType: 40
    Var1: 5
    Var2: 2
    Var3: 20
    RewardText: soft-1250
    Class: 0
    ActionStart: 0
    ActionCompleted: 0
    ActionFinish: 0
    Reward:
      Type: 1
      Id: 0
      Amount: 1250
  - ID: 86
    Region: 1
    TaskType: 40
    Var1: 6
    Var2: 2
    Var3: 20
    RewardText: soft-1250
    Class: 0
    ActionStart: 0
    ActionCompleted: 0
    ActionFinish: 0
    Reward:
      Type: 1
      Id: 0
      Amount: 1250
  - ID: 87
    Region: 1
    TaskType: 40
    Var1: 7
    Var2: 1
    Var3: 20
    RewardText: soft-1250
    Class: 0
    ActionStart: 0
    ActionCompleted: 0
    ActionFinish: 0
    Reward:
      Type: 1
      Id: 0
      Amount: 1250
  - ID: 88
    Region: 1
    TaskType: 40
    Var1: 11
    Var2: 1
    Var3: 20
    RewardText: soft-1250
    Class: 0
    ActionStart: 0
    ActionCompleted: 0
    ActionFinish: 0
    Reward:
      Type: 1
      Id: 0
      Amount: 1250
  - ID: 89
    Region: 1
    TaskType: 40
    Var1: 2
    Var2: 6
    Var3: 20
    RewardText: soft-1250
    Class: 0
    ActionStart: 0
    ActionCompleted: 0
    ActionFinish: 0
    Reward:
      Type: 1
      Id: 0
      Amount: 1250
  - ID: 90
    Region: 1
    TaskType: 40
    Var1: 3
    Var2: 7
    Var3: 20
    RewardText: soft-1250
    Class: 0
    ActionStart: 0
    ActionCompleted: 0
    ActionFinish: 0
    Reward:
      Type: 1
      Id: 0
      Amount: 1250
  - ID: 91
    Region: 1
    TaskType: 40
    Var1: 1
    Var2: 3
    Var3: 20
    RewardText: soft-2500
    Class: 0
    ActionStart: 0
    ActionCompleted: 0
    ActionFinish: 0
    Reward:
      Type: 1
      Id: 0
      Amount: 2500
  - ID: 92
    Region: 1
    TaskType: 40
    Var1: 2
    Var2: 3
    Var3: 20
    RewardText: soft-2500
    Class: 0
    ActionStart: 0
    ActionCompleted: 0
    ActionFinish: 0
    Reward:
      Type: 1
      Id: 0
      Amount: 2500
  - ID: 93
    Region: 1
    TaskType: 40
    Var1: 3
    Var2: 3
    Var3: 20
    RewardText: soft-2500
    Class: 0
    ActionStart: 0
    ActionCompleted: 0
    ActionFinish: 0
    Reward:
      Type: 1
      Id: 0
      Amount: 2500
  - ID: 94
    Region: 1
    TaskType: 40
    Var1: 4
    Var2: 3
    Var3: 20
    RewardText: soft-2500
    Class: 0
    ActionStart: 0
    ActionCompleted: 0
    ActionFinish: 0
    Reward:
      Type: 1
      Id: 0
      Amount: 2500
  - ID: 95
    Region: 1
    TaskType: 40
    Var1: 5
    Var2: 3
    Var3: 20
    RewardText: soft-2500
    Class: 0
    ActionStart: 0
    ActionCompleted: 0
    ActionFinish: 0
    Reward:
      Type: 1
      Id: 0
      Amount: 2500
  - ID: 96
    Region: 1
    TaskType: 40
    Var1: 1
    Var2: 4
    Var3: 20
    RewardText: soft-2500
    Class: 0
    ActionStart: 0
    ActionCompleted: 0
    ActionFinish: 0
    Reward:
      Type: 1
      Id: 0
      Amount: 2500
  - ID: 97
    Region: 1
    TaskType: 40
    Var1: 6
    Var2: 3
    Var3: 20
    RewardText: soft-2500
    Class: 0
    ActionStart: 0
    ActionCompleted: 0
    ActionFinish: 0
    Reward:
      Type: 1
      Id: 0
      Amount: 2500
  - ID: 98
    Region: 1
    TaskType: 40
    Var1: 7
    Var2: 2
    Var3: 20
    RewardText: soft-2500
    Class: 0
    ActionStart: 0
    ActionCompleted: 0
    ActionFinish: 0
    Reward:
      Type: 1
      Id: 0
      Amount: 2500
  - ID: 99
    Region: 1
    TaskType: 40
    Var1: 11
    Var2: 2
    Var3: 20
    RewardText: soft-2500
    Class: 0
    ActionStart: 0
    ActionCompleted: 0
    ActionFinish: 0
    Reward:
      Type: 1
      Id: 0
      Amount: 2500
  - ID: 100
    Region: 1
    TaskType: 40
    Var1: 2
    Var2: 7
    Var3: 20
    RewardText: soft-2500
    Class: 0
    ActionStart: 0
    ActionCompleted: 0
    ActionFinish: 0
    Reward:
      Type: 1
      Id: 0
      Amount: 2500
  - ID: 101
    Region: 1
    TaskType: 40
    Var1: 3
    Var2: 8
    Var3: 20
    RewardText: soft-2500
    Class: 0
    ActionStart: 0
    ActionCompleted: 0
    ActionFinish: 0
    Reward:
      Type: 1
      Id: 0
      Amount: 2500
  - ID: 102
    Region: 1
    TaskType: 40
    Var1: 1
    Var2: 5
    Var3: 20
    RewardText: soft-2500
    Class: 0
    ActionStart: 0
    ActionCompleted: 0
    ActionFinish: 0
    Reward:
      Type: 1
      Id: 0
      Amount: 2500
  - ID: 103
    Region: 1
    TaskType: 40
    Var1: 11
    Var2: 3
    Var3: 20
    RewardText: soft-2500
    Class: 0
    ActionStart: 0
    ActionCompleted: 0
    ActionFinish: 0
    Reward:
      Type: 1
      Id: 0
      Amount: 2500
  - ID: 104
    Region: 1
    TaskType: 40
    Var1: 7
    Var2: 3
    Var3: 20
    RewardText: soft-2500
    Class: 0
    ActionStart: 0
    ActionCompleted: 0
    ActionFinish: 0
    Reward:
      Type: 1
      Id: 0
      Amount: 2500
  - ID: 105
    Region: 1
    TaskType: 40
    Var1: 2
    Var2: 8
    Var3: 20
    RewardText: soft-2500
    Class: 0
    ActionStart: 0
    ActionCompleted: 0
    ActionFinish: 0
    Reward:
      Type: 1
      Id: 0
      Amount: 2500
  - ID: 106
    Region: 1
    TaskType: 40
    Var1: 11
    Var2: 4
    Var3: 20
    RewardText: soft-2500
    Class: 0
    ActionStart: 0
    ActionCompleted: 0
    ActionFinish: 0
    Reward:
      Type: 1
      Id: 0
      Amount: 2500
  - ID: 107
    Region: 1
    TaskType: 40
    Var1: 7
    Var2: 4
    Var3: 20
    RewardText: soft-2500
    Class: 0
    ActionStart: 0
    ActionCompleted: 0
    ActionFinish: 0
    Reward:
      Type: 1
      Id: 0
      Amount: 2500
  - ID: 108
    Region: 1
    TaskType: 40
    Var1: 3
    Var2: 9
    Var3: 20
    RewardText: soft-2500
    Class: 0
    ActionStart: 0
    ActionCompleted: 0
    ActionFinish: 0
    Reward:
      Type: 1
      Id: 0
      Amount: 2500
  - ID: 109
    Region: 1
    TaskType: 40
    Var1: 6
    Var2: 4
    Var3: 20
    RewardText: soft-2500
    Class: 0
    ActionStart: 0
    ActionCompleted: 0
    ActionFinish: 0
    Reward:
      Type: 1
      Id: 0
      Amount: 2500
  - ID: 107
    Region: 1
    TaskType: 40
    Var1: 7
    Var2: 5
    Var3: 20
    RewardText: soft-2500
    Class: 0
    ActionStart: 0
    ActionCompleted: 0
    ActionFinish: 0
    Reward:
      Type: 1
      Id: 0
      Amount: 2500
  - ID: 111
    Region: 1
    TaskType: 43
    Var1: 9
    Var2: 
    Var3: 
    RewardText: soft-2500
    Class: 0
    ActionStart: 0
    ActionCompleted: 0
    ActionFinish: 0
    Reward:
      Type: 1
      Id: 0
      Amount: 2500
  Tutorial:
  - Region: 1
    StepId: 1
    StepAction: 24
    StepActionParam1: 0
    AnalyticsStep: tutorial_start_1
  - Region: 1
    StepId: 2
    StepAction: 1
    StepActionParam1: tutorial_tip_1
    AnalyticsStep: tutorial_start_2
  - Region: 1
    StepId: 3
    StepAction: 1
    StepActionParam1: tutorial_tip_2
    AnalyticsStep: tutorial_start_3
  - Region: 1
    StepId: 4
    StepAction: 25
    StepActionParam1: 16
    AnalyticsStep: tutorial_start_4
  - Region: 1
    StepId: 5
    StepAction: 2
    StepActionParam1: 1
    AnalyticsStep: tutorial_start_5
  - Region: 1
    StepId: 6
    StepAction: 1
    StepActionParam1: tutorial_tip_3
    AnalyticsStep: tutorial_start_6
  - Region: 1
    StepId: 7
    StepAction: 34
    StepActionParam1: 1
    AnalyticsStep: tutorial_start_7
  - Region: 1
    StepId: 8
    StepAction: 6
    StepActionParam1: 1
    AnalyticsStep: tutorial_start_8
  - Region: 1
    StepId: 9
    StepAction: 7
    StepActionParam1: 1
    AnalyticsStep: tutorial_start_9
  - Region: 1
    StepId: 10
    StepAction: 8
    StepActionParam1: 
    AnalyticsStep: tutorial_start_10
  - Region: 1
    StepId: 11
    StepAction: 9
    StepActionParam1: 
    AnalyticsStep: tutorial_start_11
  - Region: 1
    StepId: 12
    StepAction: 1
    StepActionParam1: tutorial_tip_4
    AnalyticsStep: tutorial_start_12
  - Region: 1
    StepId: 13
    StepAction: 1
    StepActionParam1: tutorial_tip_5
    AnalyticsStep: tutorial_start_13
  - Region: 1
    StepId: 14
    StepAction: 34
    StepActionParam1: 2
    AnalyticsStep: tutorial_start_14
  - Region: 1
    StepId: 15
    StepAction: 3
    StepActionParam1: 2
    AnalyticsStep: tutorial_start_15
  - Region: 1
    StepId: 16
    StepAction: 6
    StepActionParam1: 2
    AnalyticsStep: tutorial_start_16
  - Region: 1
    StepId: 17
    StepAction: 7
    StepActionParam1: 1
    AnalyticsStep: tutorial_start_17
  - Region: 1
    StepId: 18
    StepAction: 8
    StepActionParam1: 
    AnalyticsStep: tutorial_start_18
  - Region: 1
    StepId: 19
    StepAction: 10
    StepActionParam1: 
    AnalyticsStep: tutorial_start_19
  - Region: 1
    StepId: 20
    StepAction: 1
    StepActionParam1: tutorial_tip_6
    AnalyticsStep: tutorial_start_20
  - Region: 1
    StepId: 21
    StepAction: 6
    StepActionParam1: 2
    AnalyticsStep: tutorial_start_21
  - Region: 1
    StepId: 22
    StepAction: 7
    StepActionParam1: 6
    AnalyticsStep: tutorial_start_22
  - Region: 1
    StepId: 23
    StepAction: 8
    StepActionParam1: 
    AnalyticsStep: tutorial_start_23
  - Region: 1
    StepId: 24
    StepAction: 11
    StepActionParam1: 
    AnalyticsStep: tutorial_start_24
  - Region: 1
    StepId: 25
    StepAction: 1
    StepActionParam1: tutorial_tip_6_1
    AnalyticsStep: tutorial_start_25
  - Region: 1
    StepId: 26
    StepAction: 34
    StepActionParam1: 3
    AnalyticsStep: tutorial_start_26
  - Region: 1
    StepId: 27
    StepAction: 3
    StepActionParam1: 3
    AnalyticsStep: tutorial_start_27
  - Region: 1
    StepId: 28
    StepAction: 6
    StepActionParam1: 3
    AnalyticsStep: tutorial_start_28
  - Region: 1
    StepId: 29
    StepAction: 7
    StepActionParam1: 1
    AnalyticsStep: tutorial_start_29
  - Region: 1
    StepId: 30
    StepAction: 8
    StepActionParam1: 
    AnalyticsStep: tutorial_start_30
  - Region: 1
    StepId: 31
    StepAction: 12
    StepActionParam1: 
    AnalyticsStep: tutorial_start_31
  - Region: 1
    StepId: 32
    StepAction: 1
    StepActionParam1: tutorial_tip_6_2
    AnalyticsStep: tutorial_start_32
  - Region: 1
    StepId: 33
    StepAction: 3
    StepActionParam1: 3
    AnalyticsStep: tutorial_start_33
  - Region: 1
    StepId: 34
    StepAction: 6
    StepActionParam1: 3
    AnalyticsStep: tutorial_start_34
  - Region: 1
    StepId: 35
    StepAction: 7
    StepActionParam1: 7
    AnalyticsStep: tutorial_start_35
  - Region: 1
    StepId: 36
    StepAction: 8
    StepActionParam1: 
    AnalyticsStep: tutorial_start_36
  - Region: 1
    StepId: 37
    StepAction: 12
    StepActionParam1: 
    AnalyticsStep: tutorial_start_37
  - Region: 1
    StepId: 38
    StepAction: 1
    StepActionParam1: tutorial_tip_6_3
    AnalyticsStep: tutorial_start_38
  - Region: 1
    StepId: 39
    StepAction: 34
    StepActionParam1: 12
    AnalyticsStep: tutorial_start_39
  - Region: 1
    StepId: 40
    StepAction: 3
    StepActionParam1: 12
    AnalyticsStep: tutorial_start_40
  - Region: 1
    StepId: 41
    StepAction: 22
    StepActionParam1: 12
    AnalyticsStep: tutorial_start_41
  - Region: 1
    StepId: 42
    StepAction: 23
    StepActionParam1: 
    AnalyticsStep: tutorial_start_42
  - Region: 1
    StepId: 43
    StepAction: 13
    StepActionParam1: 
    AnalyticsStep: tutorial_start_43
  - Region: 1
    StepId: 44
    StepAction: 1
    StepActionParam1: tutorial_tip_7
    AnalyticsStep: tutorial_start_44
  - Region: 1
    StepId: 45
    StepAction: 34
    StepActionParam1: 8
    AnalyticsStep: tutorial_start_45
  - Region: 1
    StepId: 46
    StepAction: 14
    StepActionParam1: 
    AnalyticsStep: tutorial_start_46
  - Region: 1
    StepId: 47
    StepAction: 15
    StepActionParam1: 1
    AnalyticsStep: tutorial_start_47
  - Region: 1
    StepId: 48
    StepAction: 16
    StepActionParam1: 
    AnalyticsStep: tutorial_start_48
  - Region: 1
    StepId: 49
    StepAction: 17
    StepActionParam1: 
    AnalyticsStep: tutorial_start_49
  - Region: 1
    StepId: 50
    StepAction: 1
    StepActionParam1: tutorial_tip_8
    AnalyticsStep: tutorial_start_50
  - Region: 1
    StepId: 51
    StepAction: 1
    StepActionParam1: tutorial_tip_9
    AnalyticsStep: tutorial_start_51
  - Region: 1
    StepId: 52
    StepAction: 24
    StepActionParam1: 16
    AnalyticsStep: tutorial_start_52
  - Region: 1
    StepId: 53
    StepAction: 25
    StepActionParam1: 15
    AnalyticsStep: tutorial_start_53
  - Region: 1
    StepId: 54
    StepAction: 18
    StepActionParam1: 15
    AnalyticsStep: tutorial_start_54
  - Region: 1
    StepId: 55
    StepAction: 4
    StepActionParam1: 4
    AnalyticsStep: tutorial_start_55
  - Region: 1
    StepId: 56
    StepAction: 1
    StepActionParam1: tutorial_tip_10
    AnalyticsStep: tutorial_start_56
  - Region: 1
    StepId: 57
    StepAction: 34
    StepActionParam1: 4
    AnalyticsStep: tutorial_start_57
  - Region: 1
    StepId: 58
    StepAction: 3
    StepActionParam1: 4
    AnalyticsStep: tutorial_start_58
  - Region: 1
    StepId: 59
    StepAction: 6
    StepActionParam1: 4
    AnalyticsStep: tutorial_start_59
  - Region: 1
    StepId: 60
    StepAction: 7
    StepActionParam1: 1
    AnalyticsStep: tutorial_start_60
  - Region: 1
    StepId: 61
    StepAction: 8
    StepActionParam1: 
    AnalyticsStep: tutorial_start_61
  - Region: 1
    StepId: 62
    StepAction: 1
    StepActionParam1: tutorial_tip_11
    AnalyticsStep: tutorial_start_62
  - Region: 1
    StepId: 63
    StepAction: 25
    StepActionParam1: 3
    AnalyticsStep: tutorial_start_63
  - Region: 1
    StepId: 64
    StepAction: 18
    StepActionParam1: 3
    AnalyticsStep: tutorial_start_64
  - Region: 1
    StepId: 65
    StepAction: 19
    StepActionParam1: 
    AnalyticsStep: tutorial_start_65
  - Region: 1
    StepId: 66
    StepAction: 20
    StepActionParam1: 
    AnalyticsStep: tutorial_start_66
  - Region: 1
    StepId: 67
    StepAction: 24
    StepActionParam1: 3
    AnalyticsStep: tutorial_start_67
  - Region: 1
    StepId: 68
    StepAction: 1
    StepActionParam1: tutorial_tip_12
    AnalyticsStep: tutorial_start_68
  - Region: 1
    StepId: 69
    StepAction: 1
    StepActionParam1: tutorial_tip_13
    AnalyticsStep: tutorial_start_69
  - Region: 1
    StepId: 70
    StepAction: 25
    StepActionParam1: 7
    AnalyticsStep: tutorial_start_70
  - Region: 1
    StepId: 71
    StepAction: 18
    StepActionParam1: 7
    AnalyticsStep: tutorial_start_71
  - Region: 1
    StepId: 72
    StepAction: 21
    StepActionParam1: 
    AnalyticsStep: tutorial_start_72
  - Region: 1
    StepId: 73
    StepAction: 25
    StepActionParam1: 
    AnalyticsStep: tutorial_start_73
  - Region: 1
    StepId: 74
    StepAction: 34
    StepActionParam1: 5
    AnalyticsStep: tutorial_start_74
  - Region: 1
    StepId: 75
    StepAction: 34
    StepActionParam1: 6
    AnalyticsStep: tutorial_start_75
  - Region: 1
    StepId: 76
    StepAction: 33
    StepActionParam1: 
    AnalyticsStep: tutorial_start_76
  - Region: 1
    StepId: 77
    StepAction: 30
    StepActionParam1: 
    AnalyticsStep: tutorial_start_77
  - Region: 100
    StepId: 1
    StepAction: 24
    StepActionParam1: 
    AnalyticsStep: tutorial_chars_1
  - Region: 100
    StepId: 2
    StepAction: 1
    StepActionParam1: tutorial_characters_tip_1
    AnalyticsStep: tutorial_chars_2
  - Region: 100
    StepId: 3
    StepAction: 25
    StepActionParam1: 8
    AnalyticsStep: tutorial_chars_3
  - Region: 100
    StepId: 4
    StepAction: 18
    StepActionParam1: 8
    AnalyticsStep: tutorial_chars_4
  - Region: 100
    StepId: 5
    StepAction: 26
    StepActionParam1: 
    AnalyticsStep: tutorial_chars_5
  - Region: 100
    StepId: 6
    StepAction: 27
    StepActionParam1: 
    AnalyticsStep: tutorial_chars_6
  - Region: 100
    StepId: 7
    StepAction: 24
    StepActionParam1: 
    AnalyticsStep: tutorial_chars_7
  - Region: 100
    StepId: 8
    StepAction: 1
    StepActionParam1: tutorial_characters_tip_2
    AnalyticsStep: tutorial_chars_8
  - Region: 100
    StepId: 9
    StepAction: 3
    StepActionParam1: 3
    AnalyticsStep: tutorial_chars_9
  - Region: 100
    StepId: 10
    StepAction: 6
    StepActionParam1: 3
    AnalyticsStep: tutorial_chars_10
  - Region: 100
    StepId: 11
    StepAction: 28
    StepActionParam1: 
    AnalyticsStep: tutorial_chars_11
  - Region: 100
    StepId: 12
    StepAction: 29
    StepActionParam1: 
    AnalyticsStep: tutorial_chars_12
  - Region: 100
    StepId: 13
    StepAction: 8
    StepActionParam1: 
    AnalyticsStep: tutorial_chars_13
  - Region: 100
    StepId: 14
    StepAction: 1
    StepActionParam1: tutorial_characters_tip_3
    AnalyticsStep: tutorial_chars_14
  - Region: 100
    StepId: 15
    StepAction: 25
    StepActionParam1: 
    AnalyticsStep: tutorial_chars_15
  - Region: 101
    StepId: 1
    StepAction: 24
    StepActionParam1: 
    AnalyticsStep: tutorial_gardener_1
  - Region: 101
    StepId: 2
    StepAction: 1
    StepActionParam1: tutorial_gardener_1
    AnalyticsStep: tutorial_gardener_2
  - Region: 101
    StepId: 3
    StepAction: 3
    StepActionParam1: 8
    AnalyticsStep: tutorial_gardener_3
  - Region: 101
    StepId: 4
    StepAction: 14
    StepActionParam1: 8
    AnalyticsStep: tutorial_gardener_4
  - Region: 101
    StepId: 5
    StepAction: 15
    StepActionParam1: 
    AnalyticsStep: tutorial_gardener_5
  - Region: 101
    StepId: 6
    StepAction: 16
    StepActionParam1: 
    AnalyticsStep: tutorial_gardener_6
  - Region: 101
    StepId: 7
    StepAction: 17
    StepActionParam1: 
    AnalyticsStep: tutorial_gardener_7
  - Region: 101
    StepId: 8
    StepAction: 31
    StepActionParam1: 
    AnalyticsStep: tutorial_gardener_8
  - Region: 101
    StepId: 9
    StepAction: 1
    StepActionParam1: tutorial_gardener_2
    AnalyticsStep: tutorial_gardener_9
  - Region: 101
    StepId: 10
    StepAction: 25
    StepActionParam1: 
    AnalyticsStep: tutorial_gardener_10
  - Region: 102
    StepId: 1
    StepAction: 24
    StepActionParam1: 
    AnalyticsStep: 
  - Region: 102
    StepId: 2
    StepAction: 32
    StepActionParam1: 
    AnalyticsStep: 
  - Region: 102
    StepId: 3
    StepAction: 25
    StepActionParam1: 
    AnalyticsStep: 
  Offers:
  - Region: 1
    Id: 1
    ShopId: 
    SKU: 
    SkuGroup: 
    NonConsumable: 0
    Value: 0
    Value1: 0
    Price: 0
    Count: 5
    CycleDelay: 7200
    Type: Case
    ShopIdFull: 
  - Region: 1
    Id: 2
    ShopId: 
    SKU: 
    SkuGroup: 
    NonConsumable: 0
    Value: 2
    Value1: 2
    Price: 100
    Count: 0
    CycleDelay: 0
    Type: Case
    ShopIdFull: 
  - Region: 1
    Id: 3
    ShopId: 
    SKU: 
    SkuGroup: 
    NonConsumable: 0
    Value: 4
    Value1: 4
    Price: 300
    Count: 0
    CycleDelay: 0
    Type: Case
    ShopIdFull: 
  - Region: 1
    Id: 4
    ShopId: tickets15
    SKU: tickets_15
    SkuGroup: AdTickets
    NonConsumable: 0
    Value: 15
    Value1: 0
    Price: 2
    Count: 0
    CycleDelay: 0
    Type: Ticket
    ShopIdFull: com.mortician.inc.tickets15
  - Region: 1
    Id: 5
    ShopId: tickets30
    SKU: tickets_30
    SkuGroup: AdTickets
    NonConsumable: 0
    Value: 30
    Value1: 0
    Price: 4
    Count: 0
    CycleDelay: 0
    Type: Ticket
    ShopIdFull: com.mortician.inc.tickets30
  - Region: 1
    Id: 6
    ShopId: tickets70
    SKU: tickets_70
    SkuGroup: AdTickets
    NonConsumable: 0
    Value: 70
    Value1: 0
    Price: 10
    Count: 0
    CycleDelay: 0
    Type: Ticket
    ShopIdFull: com.mortician.inc.tickets70
  - Region: 1
    Id: 7
    ShopId: 
    SKU: 
    SkuGroup: 
    NonConsumable: 0
    Value: 5
    Value1: 0
    Price: 0
    Count: 1
    CycleDelay: 0
    Type: Hard
    ShopIdFull: 
  - Region: 1
    Id: 8
    ShopId: crystals.50
    SKU: crystals_50
    SkuGroup: Hard
    NonConsumable: 0
    Value: 50
    Value1: 0
    Price: 2
    Count: 0
    CycleDelay: 0
    Type: Hard
    ShopIdFull: com.mortician.inc.crystals.50
  - Region: 1
    Id: 9
    ShopId: crystals.150
    SKU: crystals_150
    SkuGroup: Hard
    NonConsumable: 0
    Value: 150
    Value1: 0
    Price: 4
    Count: 0
    CycleDelay: 0
    Type: Hard
    ShopIdFull: com.mortician.inc.crystals.150
  - Region: 1
    Id: 10
    ShopId: crystals.400
    SKU: crystals_400
    SkuGroup: Hard
    NonConsumable: 0
    Value: 400
    Value1: 0
    Price: 10
    Count: 0
    CycleDelay: 0
    Type: Hard
    ShopIdFull: com.mortician.inc.crystals.400
  - Region: 1
    Id: 11
    ShopId: crystals.900
    SKU: crystals_900
    SkuGroup: Hard
    NonConsumable: 0
    Value: 900
    Value1: 0
    Price: 16
    Count: 0
    CycleDelay: 0
    Type: Hard
    ShopIdFull: com.mortician.inc.crystals.900
  - Region: 1
    Id: 12
    ShopId: crystals.2600
    SKU: crystals_2600
    SkuGroup: Hard
    NonConsumable: 0
    Value: 2600
    Value1: 0
    Price: 45
    Count: 0
    CycleDelay: 0
    Type: Hard
    ShopIdFull: com.mortician.inc.crystals.2600
  - Region: 1
    Id: 13
    ShopId: 
    SKU: 
    SkuGroup: 
    NonConsumable: 0
    Value: 600
    Value1: 10
    Price: 20
    Count: 0
    CycleDelay: 0
    Type: SkipTime
    ShopIdFull: 
  - Region: 1
    Id: 14
    ShopId: 
    SKU: 
    SkuGroup: 
    NonConsumable: 0
    Value: 1800
    Value1: 30
    Price: 60
    Count: 0
    CycleDelay: 0
    Type: SkipTime
    ShopIdFull: 
  - Region: 1
    Id: 15
    ShopId: 
    SKU: 
    SkuGroup: 
    NonConsumable: 0
    Value: 3600
    Value1: 60
    Price: 100
    Count: 0
    CycleDelay: 0
    Type: SkipTime
    ShopIdFull: 
  - Region: 1
    Id: 16
    ShopId: manager
    SKU: store_offer_manager
    SkuGroup: StoreOffers
    NonConsumable: 0
    Value: 0
    Value1: 0
    Price: 13
    Count: 0
    CycleDelay: 0
    Type: Character
    ShopIdFull: com.mortician.inc.manager
  - Region: 1
    Id: 17
    ShopId: marketer
    SKU: store_offer_marketer
    SkuGroup: StoreOffers
    NonConsumable: 0
    Value: 0
    Value1: 0
    Price: 13
    Count: 0
    CycleDelay: 0
    Type: Character
    ShopIdFull: com.mortician.inc.marketer
  - Region: 1
    Id: 18
    ShopId: agent
    SKU: store_offer_agent
    SkuGroup: StoreOffers
    NonConsumable: 0
    Value: 0
    Value1: 0
    Price: 15
    Count: 0
    CycleDelay: 0
    Type: Character
    ShopIdFull: com.mortician.inc.agent
  MapEventPoints:
  - Id: 1
    Name: Hospital
    Price: 1000
    BuildingTime: 10
    CycleDelay: 12
    StartLevel: 1
    Cap: 5
  - Id: 2
    Name: Electrician
    Price: 25000
    BuildingTime: 1800
    CycleDelay: 30
    StartLevel: 0
    Cap: 1
  MapConfigs:
  - Id: 1
    Corpse: 0
  - Id: 2
    Corpse: 1000
  - Id: 3
    Corpse: 5000
