%YAML 1.1
%TAG !u! tag:unity3d.com,2011:
--- !u!74 &7400000
AnimationClip:
  m_ObjectHideFlags: 0
  m_CorrespondingSourceObject: {fileID: 0}
  m_PrefabInstance: {fileID: 0}
  m_PrefabAsset: {fileID: 0}
  m_Name: barrier_open
  serializedVersion: 6
  m_Legacy: 1
  m_Compressed: 0
  m_UseHighQualityCurve: 1
  m_RotationCurves:
  - curve:
      serializedVersion: 2
      m_Curve:
      - serializedVersion: 3
        time: 0
        value: {x: 0, y: 0, z: 0, w: 1}
        inSlope: {x: -0.000064659995, y: 0.00003392492, z: -0.22282624, w: -0.0004148483}
        outSlope: {x: -0.000064659995, y: 0.00003392492, z: -0.22282624, w: -0.0004148483}
        tangentMode: 0
        weightedMode: 0
        inWeight: {x: 0.33333334, y: 0.33333334, z: 0.33333334, w: 0.33333334}
        outWeight: {x: 0.33333334, y: 0.33333334, z: 0.33333334, w: 0.33333334}
      - serializedVersion: 3
        time: 0.016666668
        value: {x: -0.0000010776666, y: 0.00000056541535, z: -0.003713771, w: 0.9999931}
        inSlope: {x: -0.0001255499, y: 0.00006417935, z: -0.43027142, w: -0.0030863283}
        outSlope: {x: -0.0001255499, y: 0.00006417935, z: -0.43027142, w: -0.0030863283}
        tangentMode: 0
        weightedMode: 0
        inWeight: {x: 0.33333334, y: 0.33333334, z: 0.33333334, w: 0.33333334}
        outWeight: {x: 0.33333334, y: 0.33333334, z: 0.33333334, w: 0.33333334}
      - serializedVersion: 3
        time: 0.033333335
        value: {x: -0.0000041849967, y: 0.0000021393118, z: -0.014342382, w: 0.9998971}
        inSlope: {x: -0.00024236602, y: 0.00011769468, z: -0.8220035, w: -0.01431763}
        outSlope: {x: -0.00024236602, y: 0.00011769468, z: -0.8220035, w: -0.01431763}
        tangentMode: 0
        weightedMode: 0
        inWeight: {x: 0.33333334, y: 0.33333334, z: 0.33333334, w: 0.33333334}
        outWeight: {x: 0.33333334, y: 0.33333334, z: 0.33333334, w: 0.33333334}
      - serializedVersion: 3
        time: 0.050000004
        value: {x: -0.000009156535, y: 0.000004488572, z: -0.031113893, w: 0.99951583}
        inSlope: {x: -0.00034970295, y: 0.00015587063, z: -1.1671785, w: -0.039474964}
        outSlope: {x: -0.00034970295, y: 0.00015587063, z: -1.1671785, w: -0.039474964}
        tangentMode: 0
        weightedMode: 0
        inWeight: {x: 0.33333334, y: 0.33333334, z: 0.33333334, w: 0.33333334}
        outWeight: {x: 0.33333334, y: 0.33333334, z: 0.33333334, w: 0.33333334}
      - serializedVersion: 3
        time: 0.06666667
        value: {x: -0.000015841762, y: 0.0000073349997, z: -0.053248335, w: 0.9985813}
        inSlope: {x: -0.0004479175, y: 0.00017672, z: -1.4651711, w: -0.081515916}
        outSlope: {x: -0.0004479175, y: 0.00017672, z: -1.4651711, w: -0.081515916}
        tangentMode: 0
        weightedMode: 0
        inWeight: {x: 0.33333334, y: 0.33333334, z: 0.33333334, w: 0.33333334}
        outWeight: {x: 0.33333334, y: 0.33333334, z: 0.33333334, w: 0.33333334}
      - serializedVersion: 3
        time: 0.083333336
        value: {x: -0.000024087118, y: 0.000010379238, z: -0.079952925, w: 0.99679863}
        inSlope: {x: -0.0005363928, y: 0.00017962669, z: -1.7151318, w: -0.14088573}
        outSlope: {x: -0.0005363928, y: 0.00017962669, z: -1.7151318, w: -0.14088573}
        tangentMode: 0
        weightedMode: 0
        inWeight: {x: 0.33333334, y: 0.33333334, z: 0.33333334, w: 0.33333334}
        outWeight: {x: 0.33333334, y: 0.33333334, z: 0.33333334, w: 0.33333334}
      - serializedVersion: 3
        time: 0.1
        value: {x: -0.00003372152, y: 0.000013322556, z: -0.11041939, w: 0.9938851}
        inSlope: {x: -0.0006137821, y: 0.00016522912, z: -1.9161515, w: -0.21586421}
        outSlope: {x: -0.0006137821, y: 0.00016522912, z: -1.9161515, w: -0.21586421}
        tangentMode: 0
        weightedMode: 0
        inWeight: {x: 0.33333334, y: 0.33333334, z: 0.33333334, w: 0.33333334}
        outWeight: {x: 0.33333334, y: 0.33333334, z: 0.33333334, w: 0.33333334}
      - serializedVersion: 3
        time: 0.11666667
        value: {x: -0.00004454652, y: 0.000015886875, z: -0.14382464, w: 0.98960316}
        inSlope: {x: -0.0006783011, y: 0.00013531034, z: -2.067467, w: -0.30291075}
        outSlope: {x: -0.0006783011, y: 0.00013531034, z: -2.067467, w: -0.30291075}
        tangentMode: 0
        weightedMode: 0
        inWeight: {x: 0.33333334, y: 0.33333334, z: 0.33333334, w: 0.33333334}
        outWeight: {x: 0.33333334, y: 0.33333334, z: 0.33333334, w: 0.33333334}
      - serializedVersion: 3
        time: 0.13333334
        value: {x: -0.000056331563, y: 0.000017832901, z: -0.17933497, w: 0.9837881}
        inSlope: {x: -0.0007280315, y: 0.000092667164, z: -2.1686735, w: -0.39704913}
        outSlope: {x: -0.0007280315, y: 0.000092667164, z: -2.1686735, w: -0.39704913}
        tangentMode: 0
        weightedMode: 0
        inWeight: {x: 0.33333334, y: 0.33333334, z: 0.33333334, w: 0.33333334}
        outWeight: {x: 0.33333334, y: 0.33333334, z: 0.33333334, w: 0.33333334}
      - serializedVersion: 3
        time: 0.15
        value: {x: -0.00006881424, y: 0.000018975781, z: -0.21611376, w: 0.9763682}
        inSlope: {x: -0.0007612072, y: 0.000040942326, z: -2.2199018, w: -0.49225873}
        outSlope: {x: -0.0007612072, y: 0.000040942326, z: -2.2199018, w: -0.49225873}
        tangentMode: 0
        weightedMode: 0
        inWeight: {x: 0.33333334, y: 0.33333334, z: 0.33333334, w: 0.33333334}
        outWeight: {x: 0.33333334, y: 0.33333334, z: 0.33333334, w: 0.33333334}
      - serializedVersion: 3
        time: 0.16666667
        value: {x: -0.00008170513, y: 0.000019197645, z: -0.2533317, w: 0.96737945}
        inSlope: {x: -0.0007764522, y: -0.000015588595, z: -2.2219343, w: -0.58186775}
        outSlope: {x: -0.0007764522, y: -0.000015588595, z: -2.2219343, w: -0.58186775}
        tangentMode: 0
        weightedMode: 0
        inWeight: {x: 0.33333334, y: 0.33333334, z: 0.33333334, w: 0.33333334}
        outWeight: {x: 0.33333334, y: 0.33333334, z: 0.33333334, w: 0.33333334}
      - serializedVersion: 3
        time: 0.18333334
        value: {x: -0.00009469598, y: 0.000018456161, z: -0.29017824, w: 0.9569726}
        inSlope: {x: -0.0007729491, y: -0.00007227062, z: -2.17624, w: -0.6589777}
        outSlope: {x: -0.0007729491, y: -0.00007227062, z: -2.17624, w: -0.6589777}
        tangentMode: 0
        weightedMode: 0
        inWeight: {x: 0.33333334, y: 0.33333334, z: 0.33333334, w: 0.33333334}
        outWeight: {x: 0.33333334, y: 0.33333334, z: 0.33333334, w: 0.33333334}
      - serializedVersion: 3
        time: 0.2
        value: {x: -0.0001074701, y: 0.000016788625, z: -0.32587302, w: 0.94541353}
        inSlope: {x: -0.000750522, y: -0.00012435591, z: -2.0849223, w: -0.7168562}
        outSlope: {x: -0.000750522, y: -0.00012435591, z: -2.0849223, w: -0.7168562}
        tangentMode: 0
        weightedMode: 0
        inWeight: {x: 0.33333334, y: 0.33333334, z: 0.33333334, w: 0.33333334}
        outWeight: {x: 0.33333334, y: 0.33333334, z: 0.33333334, w: 0.33333334}
      - serializedVersion: 3
        time: 0.21666667
        value: {x: -0.000119713375, y: 0.000014310965, z: -0.35967565, w: 0.9330774}
        inSlope: {x: -0.0007096189, y: -0.00016730106, z: -1.9505678, w: -0.7493091}
        outSlope: {x: -0.0007096189, y: -0.00016730106, z: -1.9505678, w: -0.7493091}
        tangentMode: 0
        weightedMode: 0
        inWeight: {x: 0.33333334, y: 0.33333334, z: 0.33333334, w: 0.33333334}
        outWeight: {x: 0.33333334, y: 0.33333334, z: 0.33333334, w: 0.33333334}
      - serializedVersion: 3
        time: 0.23333333
        value: {x: -0.00013112406, y: 0.000011211923, z: -0.39089194, w: 0.92043656}
        inSlope: {x: -0.00065121124, y: -0.00019705987, z: -1.7760087, w: -0.7510186}
        outSlope: {x: -0.00065121124, y: -0.00019705987, z: -1.7760087, w: -0.7510186}
        tangentMode: 0
        weightedMode: 0
        inWeight: {x: 0.33333334, y: 0.33333334, z: 0.33333334, w: 0.33333334}
        outWeight: {x: 0.33333334, y: 0.33333334, z: 0.33333334, w: 0.33333334}
      - serializedVersion: 3
        time: 0.25
        value: {x: -0.00014142042, y: 0.000007742303, z: -0.41887593, w: 0.90804344}
        inSlope: {x: -0.0005766058, y: -0.00021036332, z: -1.5640411, w: -0.71784294}
        outSlope: {x: -0.0005766058, y: -0.00021036332, z: -1.5640411, w: -0.71784294}
        tangentMode: 0
        weightedMode: 0
        inWeight: {x: 0.33333334, y: 0.33333334, z: 0.33333334, w: 0.33333334}
        outWeight: {x: 0.33333334, y: 0.33333334, z: 0.33333334, w: 0.33333334}
      - serializedVersion: 3
        time: 0.26666668
        value: {x: -0.00015034426, y: 0.00000419981, z: -0.44302666, w: 0.89650846}
        inSlope: {x: -0.00048719422, y: -0.0002049653, z: -1.3170645, w: -0.6470788}
        outSlope: {x: -0.00048719422, y: -0.0002049653, z: -1.3170645, w: -0.6470788}
        tangentMode: 0
        weightedMode: 0
        inWeight: {x: 0.33333334, y: 0.33333334, z: 0.33333334, w: 0.33333334}
        outWeight: {x: 0.33333334, y: 0.33333334, z: 0.33333334, w: 0.33333334}
      - serializedVersion: 3
        time: 0.28333336
        value: {x: -0.00015766024, y: 0.00000091012043, z: -0.46277812, w: 0.88647413}
        inSlope: {x: -0.00038418465, y: -0.00017985248, z: -1.036715, w: -0.53766805}
        outSlope: {x: -0.00038418465, y: -0.00017985248, z: -1.036715, w: -0.53766805}
        tangentMode: 0
        weightedMode: 0
        inWeight: {x: 0.33333334, y: 0.33333334, z: 0.33333334, w: 0.33333334}
        outWeight: {x: 0.33333334, y: 0.33333334, z: 0.33333334, w: 0.33333334}
      - serializedVersion: 3
        time: 0.30000004
        value: {x: -0.00016315043, y: -0.0000017952771, z: -0.47758386, w: 0.8785862}
        inSlope: {x: -0.00026832457, y: -0.0001354425, z: -0.72351366, w: -0.39041308}
        outSlope: {x: -0.00026832457, y: -0.0001354425, z: -0.72351366, w: -0.39041308}
        tangentMode: 0
        weightedMode: 0
        inWeight: {x: 0.33333334, y: 0.33333334, z: 0.33333334, w: 0.33333334}
        outWeight: {x: 0.33333334, y: 0.33333334, z: 0.33333334, w: 0.33333334}
      - serializedVersion: 3
        time: 0.31666672
        value: {x: -0.0001666044, y: -0.000003604633, z: -0.48689526, w: 0.87346035}
        inSlope: {x: -0.00013968181, y: -0.00007376665, z: -0.37655535, w: -0.20820023}
        outSlope: {x: -0.00013968181, y: -0.00007376665, z: -0.37655535, w: -0.20820023}
        tangentMode: 0
        weightedMode: 0
        inWeight: {x: 0.33333334, y: 0.33333334, z: 0.33333334, w: 0.33333334}
        outWeight: {x: 0.33333334, y: 0.33333334, z: 0.33333334, w: 0.33333334}
      - serializedVersion: 3
        time: 0.33333334
        value: {x: -0.00016780649, y: -0.000004254165, z: -0.4901357, w: 0.87164617}
        inSlope: {x: -0.0000721256, y: -0.000038972026, z: -0.19442672, w: -0.10885149}
        outSlope: {x: -0.0000721256, y: -0.000038972026, z: -0.19442672, w: -0.10885149}
        tangentMode: 0
        weightedMode: 0
        inWeight: {x: 0.33333334, y: 0.33333334, z: 0.33333334, w: 0.33333334}
        outWeight: {x: 0.33333334, y: 0.33333334, z: 0.33333334, w: 0.33333334}
      m_PreInfinity: 2
      m_PostInfinity: 2
      m_RotationOrder: 4
    path: barrierR
  - curve:
      serializedVersion: 2
      m_Curve:
      - serializedVersion: 3
        time: 0
        value: {x: 0, y: 0, z: 0, w: 1}
        inSlope: {x: 0.000064675565, y: 0.00003771845, z: 0.22517984, w: -0.00042200086}
        outSlope: {x: 0.000064675565, y: 0.00003771845, z: 0.22517984, w: -0.00042200086}
        tangentMode: 0
        weightedMode: 0
        inWeight: {x: 0.33333334, y: 0.33333334, z: 0.33333334, w: 0.33333334}
        outWeight: {x: 0.33333334, y: 0.33333334, z: 0.33333334, w: 0.33333334}
      - serializedVersion: 3
        time: 0.016666668
        value: {x: 0.0000010779262, y: 0.0000006286409, z: 0.0037529974, w: 0.99999297}
        inSlope: {x: 0.00012566589, y: 0.00007148995, z: 0.43481582, w: -0.0031507013}
        outSlope: {x: 0.00012566589, y: 0.00007148995, z: 0.43481582, w: -0.0031507013}
        tangentMode: 0
        weightedMode: 0
        inWeight: {x: 0.33333334, y: 0.33333334, z: 0.33333334, w: 0.33333334}
        outWeight: {x: 0.33333334, y: 0.33333334, z: 0.33333334, w: 0.33333334}
      - serializedVersion: 3
        time: 0.033333335
        value: {x: 0.000004188863, y: 0.0000023829984, z: 0.014493861, w: 0.999895}
        inSlope: {x: 0.0002429026, y: 0.00013160407, z: 0.83068264, w: -0.014621614}
        outSlope: {x: 0.0002429026, y: 0.00013160407, z: 0.83068264, w: -0.014621614}
        tangentMode: 0
        weightedMode: 0
        inWeight: {x: 0.33333334, y: 0.33333334, z: 0.33333334, w: 0.33333334}
        outWeight: {x: 0.33333334, y: 0.33333334, z: 0.33333334, w: 0.33333334}
      - serializedVersion: 3
        time: 0.050000004
        value: {x: 0.000009174681, y: 0.000005015444, z: 0.031442422, w: 0.9995056}
        inSlope: {x: 0.00035117584, y: 0.00017548028, z: 1.1794908, w: -0.0403136}
        outSlope: {x: 0.00035117584, y: 0.00017548028, z: 1.1794908, w: -0.0403136}
        tangentMode: 0
        weightedMode: 0
        inWeight: {x: 0.33333334, y: 0.33333334, z: 0.33333334, w: 0.33333334}
        outWeight: {x: 0.33333334, y: 0.33333334, z: 0.33333334, w: 0.33333334}
      - serializedVersion: 3
        time: 0.06666667
        value: {x: 0.000015894724, y: 0.000008232341, z: 0.053810224, w: 0.9985512}
        inSlope: {x: 0.00045094115, y: 0.00020107525, z: 1.480595, w: -0.083246835}
        outSlope: {x: 0.00045094115, y: 0.00020107525, z: 1.480595, w: -0.083246835}
        tangentMode: 0
        weightedMode: 0
        inWeight: {x: 0.33333334, y: 0.33333334, z: 0.33333334, w: 0.33333334}
        outWeight: {x: 0.33333334, y: 0.33333334, z: 0.33333334, w: 0.33333334}
      - serializedVersion: 3
        time: 0.083333336
        value: {x: 0.00002420605, y: 0.000011717952, z: 0.080795586, w: 0.9967307}
        inSlope: {x: 0.0005415801, y: 0.00020771942, z: 1.7331183, w: -0.1438755}
        outSlope: {x: 0.0005415801, y: 0.00020771942, z: 1.7331183, w: -0.1438755}
        tangentMode: 0
        weightedMode: 0
        inWeight: {x: 0.33333334, y: 0.33333334, z: 0.33333334, w: 0.33333334}
        outWeight: {x: 0.33333334, y: 0.33333334, z: 0.33333334, w: 0.33333334}
      - serializedVersion: 3
        time: 0.1
        value: {x: 0.00003394739, y: 0.000015156322, z: 0.111580834, w: 0.99375534}
        inSlope: {x: 0.0006216592, y: 0.00019600886, z: 1.9361236, w: -0.22043648}
        outSlope: {x: 0.0006216592, y: 0.00019600886, z: 1.9361236, w: -0.22043648}
        tangentMode: 0
        weightedMode: 0
        inWeight: {x: 0.33333334, y: 0.33333334, z: 0.33333334, w: 0.33333334}
        outWeight: {x: 0.33333334, y: 0.33333334, z: 0.33333334, w: 0.33333334}
      - serializedVersion: 3
        time: 0.11666667
        value: {x: 0.000044928023, y: 0.00001825158, z: 0.14533304, w: 0.9893828}
        inSlope: {x: 0.0006892398, y: 0.00016770582, z: 2.0888228, w: -0.30931765}
        outSlope: {x: 0.0006892398, y: 0.00016770582, z: 2.0888228, w: -0.30931765}
        tangentMode: 0
        weightedMode: 0
        inWeight: {x: 0.33333334, y: 0.33333334, z: 0.33333334, w: 0.33333334}
        outWeight: {x: 0.33333334, y: 0.33333334, z: 0.33333334, w: 0.33333334}
      - serializedVersion: 3
        time: 0.13333334
        value: {x: 0.000056922057, y: 0.000020746516, z: 0.18120827, w: 0.98344475}
        inSlope: {x: 0.0007422005, y: 0.00012561829, z: 2.1907969, w: -0.4054337}
        outSlope: {x: 0.0007422005, y: 0.00012561829, z: 2.1907969, w: -0.4054337}
        tangentMode: 0
        weightedMode: 0
        inWeight: {x: 0.33333334, y: 0.33333334, z: 0.33333334, w: 0.33333334}
        outWeight: {x: 0.33333334, y: 0.33333334, z: 0.33333334, w: 0.33333334}
      - serializedVersion: 3
        time: 0.15
        value: {x: 0.00006966804, y: 0.000022438857, z: 0.2183596, w: 0.97586834}
        inSlope: {x: 0.0007785446, y: 0.000073440264, z: 2.2421842, w: -0.5026246}
        outSlope: {x: 0.0007785446, y: 0.000073440264, z: 2.2421842, w: -0.5026246}
        tangentMode: 0
        weightedMode: 0
        inWeight: {x: 0.33333334, y: 0.33333334, z: 0.33333334, w: 0.33333334}
        outWeight: {x: 0.33333334, y: 0.33333334, z: 0.33333334, w: 0.33333334}
      - serializedVersion: 3
        time: 0.16666667
        value: {x: 0.00008287354, y: 0.000023194525, z: 0.25594774, w: 0.9666906}
        inSlope: {x: 0.0007966567, y: 0.000015540683, z: 2.2437935, w: -0.59408253}
        outSlope: {x: 0.0007966567, y: 0.000015540683, z: 2.2437935, w: -0.59408253}
        tangentMode: 0
        weightedMode: 0
        inWeight: {x: 0.33333334, y: 0.33333334, z: 0.33333334, w: 0.33333334}
        outWeight: {x: 0.33333334, y: 0.33333334, z: 0.33333334, w: 0.33333334}
      - serializedVersion: 3
        time: 0.18333334
        value: {x: 0.000096223266, y: 0.00002295688, z: 0.29315272, w: 0.9560656}
        inSlope: {x: 0.00079548743, y: -0.000043293352, z: 2.1971388, w: -0.67276245}
        outSlope: {x: 0.00079548743, y: -0.000043293352, z: 2.1971388, w: -0.67276245}
        tangentMode: 0
        weightedMode: 0
        inWeight: {x: 0.33333334, y: 0.33333334, z: 0.33333334, w: 0.33333334}
        outWeight: {x: 0.33333334, y: 0.33333334, z: 0.33333334, w: 0.33333334}
      - serializedVersion: 3
        time: 0.2
        value: {x: 0.00010938979, y: 0.000021751413, z: 0.3291857, w: 0.9442652}
        inSlope: {x: 0.00077465817, y: -0.00009814817, z: 2.104389, w: -0.7317907}
        outSlope: {x: 0.00077465817, y: -0.00009814817, z: 2.104389, w: -0.7317907}
        tangentMode: 0
        weightedMode: 0
        inWeight: {x: 0.33333334, y: 0.33333334, z: 0.33333334, w: 0.33333334}
        outWeight: {x: 0.33333334, y: 0.33333334, z: 0.33333334, w: 0.33333334}
      - serializedVersion: 3
        time: 0.21666667
        value: {x: 0.0001220452, y: 0.000019685274, z: 0.363299, w: 0.9316726}
        inSlope: {x: 0.00073445163, y: -0.00014429557, z: 1.9682122, w: -0.76484984}
        outSlope: {x: 0.00073445163, y: -0.00014429557, z: 1.9682122, w: -0.76484984}
        tangentMode: 0
        weightedMode: 0
        inWeight: {x: 0.33333334, y: 0.33333334, z: 0.33333334, w: 0.33333334}
        outWeight: {x: 0.33333334, y: 0.33333334, z: 0.33333334, w: 0.33333334}
      - serializedVersion: 3
        time: 0.23333333
        value: {x: 0.00013387151, y: 0.000016941562, z: 0.39479277, w: 0.9187702}
        inSlope: {x: 0.00067571434, y: -0.0001775035, z: 1.7915369, w: -0.76652354}
        outSlope: {x: 0.00067571434, y: -0.0001775035, z: 1.7915369, w: -0.76652354}
        tangentMode: 0
        weightedMode: 0
        inWeight: {x: 0.33333334, y: 0.33333334, z: 0.33333334, w: 0.33333334}
        outWeight: {x: 0.33333334, y: 0.33333334, z: 0.33333334, w: 0.33333334}
      - serializedVersion: 3
        time: 0.25
        value: {x: 0.00014456901, y: 0.000013768491, z: 0.4230169, w: 0.9061218}
        inSlope: {x: 0.00059968, y: -0.00019432977, z: 1.5772448, w: -0.73260045}
        outSlope: {x: 0.00059968, y: -0.00019432977, z: 1.5772448, w: -0.73260045}
        tangentMode: 0
        weightedMode: 0
        inWeight: {x: 0.33333334, y: 0.33333334, z: 0.33333334, w: 0.33333334}
        outWeight: {x: 0.33333334, y: 0.33333334, z: 0.33333334, w: 0.33333334}
      - serializedVersion: 3
        time: 0.26666668
        value: {x: 0.00015386085, y: 0.0000104639, z: 0.4473676, w: 0.8943502}
        inSlope: {x: 0.00050771545, y: -0.00019238831, z: 1.3278041, w: -0.6603253}
        outSlope: {x: 0.00050771545, y: -0.00019238831, z: 1.3278041, w: -0.6603253}
        tangentMode: 0
        weightedMode: 0
        inWeight: {x: 0.33333334, y: 0.33333334, z: 0.33333334, w: 0.33333334}
        outWeight: {x: 0.33333334, y: 0.33333334, z: 0.33333334, w: 0.33333334}
      - serializedVersion: 3
        time: 0.28333336
        value: {x: 0.00016149288, y: 0.000007355542, z: 0.46727708, w: 0.8841109}
        inSlope: {x: 0.00040104054, y: -0.00017058436, z: 1.0449038, w: -0.54863286}
        outSlope: {x: 0.00040104054, y: -0.00017058436, z: 1.0449038, w: -0.54863286}
        tangentMode: 0
        weightedMode: 0
        inWeight: {x: 0.33333334, y: 0.33333334, z: 0.33333334, w: 0.33333334}
        outWeight: {x: 0.33333334, y: 0.33333334, z: 0.33333334, w: 0.33333334}
      - serializedVersion: 3
        time: 0.30000004
        value: {x: 0.00016722888, y: 0.0000047777503, z: 0.48219776, w: 0.8760624}
        inSlope: {x: 0.00028045475, y: -0.00012931912, z: 0.7290828, w: -0.39835238}
        outSlope: {x: 0.00028045475, y: -0.00012931912, z: 0.7290828, w: -0.39835238}
        tangentMode: 0
        weightedMode: 0
        inWeight: {x: 0.33333334, y: 0.33333334, z: 0.33333334, w: 0.33333334}
        outWeight: {x: 0.33333334, y: 0.33333334, z: 0.33333334, w: 0.33333334}
      - serializedVersion: 3
        time: 0.31666672
        value: {x: 0.00017084138, y: 0.000003044901, z: 0.49157986, w: 0.8708325}
        inSlope: {x: 0.00014611405, y: -0.000070694376, z: 0.37940297, w: -0.2124256}
        outSlope: {x: 0.00014611405, y: -0.000070694376, z: 0.37940297, w: -0.2124256}
        tangentMode: 0
        weightedMode: 0
        inWeight: {x: 0.33333334, y: 0.33333334, z: 0.33333334, w: 0.33333334}
        outWeight: {x: 0.33333334, y: 0.33333334, z: 0.33333334, w: 0.33333334}
      - serializedVersion: 3
        time: 0.33333334
        value: {x: 0.00017209935, y: 0.0000024212713, z: 0.49484453, w: 0.86898154}
        inSlope: {x: 0.00007547837, y: -0.000037417878, z: 0.19588047, w: -0.111058064}
        outSlope: {x: 0.00007547837, y: -0.000037417878, z: 0.19588047, w: -0.111058064}
        tangentMode: 0
        weightedMode: 0
        inWeight: {x: 0.33333334, y: 0.33333334, z: 0.33333334, w: 0.33333334}
        outWeight: {x: 0.33333334, y: 0.33333334, z: 0.33333334, w: 0.33333334}
      m_PreInfinity: 2
      m_PostInfinity: 2
      m_RotationOrder: 4
    path: barrierL
  m_CompressedRotationCurves: []
  m_EulerCurves: []
  m_PositionCurves: []
  m_ScaleCurves: []
  m_FloatCurves: []
  m_PPtrCurves: []
  m_SampleRate: 60
  m_WrapMode: 0
  m_Bounds:
    m_Center: {x: 0, y: 0, z: 0}
    m_Extent: {x: 0, y: 0, z: 0}
  m_ClipBindingConstant:
    genericBindings: []
    pptrCurveMapping: []
  m_AnimationClipSettings:
    serializedVersion: 2
    m_AdditiveReferencePoseClip: {fileID: 0}
    m_AdditiveReferencePoseTime: 0
    m_StartTime: 0
    m_StopTime: 0.33333334
    m_OrientationOffsetY: 0
    m_Level: 0
    m_CycleOffset: 0
    m_HasAdditiveReferencePose: 0
    m_LoopTime: 1
    m_LoopBlend: 0
    m_LoopBlendOrientation: 0
    m_LoopBlendPositionY: 0
    m_LoopBlendPositionXZ: 0
    m_KeepOriginalOrientation: 0
    m_KeepOriginalPositionY: 1
    m_KeepOriginalPositionXZ: 0
    m_HeightFromFeet: 0
    m_Mirror: 0
  m_EditorCurves:
  - curve:
      serializedVersion: 2
      m_Curve:
      - serializedVersion: 3
        time: 0
        value: 0
        inSlope: -0.000064659995
        outSlope: -0.000064659995
        tangentMode: 0
        weightedMode: 0
        inWeight: 0.33333334
        outWeight: 0.33333334
      - serializedVersion: 3
        time: 0.016666668
        value: -0.0000010776666
        inSlope: -0.0001255499
        outSlope: -0.0001255499
        tangentMode: 0
        weightedMode: 0
        inWeight: 0.33333334
        outWeight: 0.33333334
      - serializedVersion: 3
        time: 0.033333335
        value: -0.0000041849967
        inSlope: -0.00024236602
        outSlope: -0.00024236602
        tangentMode: 0
        weightedMode: 0
        inWeight: 0.33333334
        outWeight: 0.33333334
      - serializedVersion: 3
        time: 0.050000004
        value: -0.000009156535
        inSlope: -0.00034970295
        outSlope: -0.00034970295
        tangentMode: 0
        weightedMode: 0
        inWeight: 0.33333334
        outWeight: 0.33333334
      - serializedVersion: 3
        time: 0.06666667
        value: -0.000015841762
        inSlope: -0.0004479175
        outSlope: -0.0004479175
        tangentMode: 0
        weightedMode: 0
        inWeight: 0.33333334
        outWeight: 0.33333334
      - serializedVersion: 3
        time: 0.083333336
        value: -0.000024087118
        inSlope: -0.0005363928
        outSlope: -0.0005363928
        tangentMode: 0
        weightedMode: 0
        inWeight: 0.33333334
        outWeight: 0.33333334
      - serializedVersion: 3
        time: 0.1
        value: -0.00003372152
        inSlope: -0.0006137821
        outSlope: -0.0006137821
        tangentMode: 0
        weightedMode: 0
        inWeight: 0.33333334
        outWeight: 0.33333334
      - serializedVersion: 3
        time: 0.11666667
        value: -0.00004454652
        inSlope: -0.0006783011
        outSlope: -0.0006783011
        tangentMode: 0
        weightedMode: 0
        inWeight: 0.33333334
        outWeight: 0.33333334
      - serializedVersion: 3
        time: 0.13333334
        value: -0.000056331563
        inSlope: -0.0007280315
        outSlope: -0.0007280315
        tangentMode: 0
        weightedMode: 0
        inWeight: 0.33333334
        outWeight: 0.33333334
      - serializedVersion: 3
        time: 0.15
        value: -0.00006881424
        inSlope: -0.0007612072
        outSlope: -0.0007612072
        tangentMode: 0
        weightedMode: 0
        inWeight: 0.33333334
        outWeight: 0.33333334
      - serializedVersion: 3
        time: 0.16666667
        value: -0.00008170513
        inSlope: -0.0007764522
        outSlope: -0.0007764522
        tangentMode: 0
        weightedMode: 0
        inWeight: 0.33333334
        outWeight: 0.33333334
      - serializedVersion: 3
        time: 0.18333334
        value: -0.00009469598
        inSlope: -0.0007729491
        outSlope: -0.0007729491
        tangentMode: 0
        weightedMode: 0
        inWeight: 0.33333334
        outWeight: 0.33333334
      - serializedVersion: 3
        time: 0.2
        value: -0.0001074701
        inSlope: -0.000750522
        outSlope: -0.000750522
        tangentMode: 0
        weightedMode: 0
        inWeight: 0.33333334
        outWeight: 0.33333334
      - serializedVersion: 3
        time: 0.21666667
        value: -0.000119713375
        inSlope: -0.0007096189
        outSlope: -0.0007096189
        tangentMode: 0
        weightedMode: 0
        inWeight: 0.33333334
        outWeight: 0.33333334
      - serializedVersion: 3
        time: 0.23333333
        value: -0.00013112406
        inSlope: -0.00065121124
        outSlope: -0.00065121124
        tangentMode: 0
        weightedMode: 0
        inWeight: 0.33333334
        outWeight: 0.33333334
      - serializedVersion: 3
        time: 0.25
        value: -0.00014142042
        inSlope: -0.0005766058
        outSlope: -0.0005766058
        tangentMode: 0
        weightedMode: 0
        inWeight: 0.33333334
        outWeight: 0.33333334
      - serializedVersion: 3
        time: 0.26666668
        value: -0.00015034426
        inSlope: -0.00048719422
        outSlope: -0.00048719422
        tangentMode: 0
        weightedMode: 0
        inWeight: 0.33333334
        outWeight: 0.33333334
      - serializedVersion: 3
        time: 0.28333336
        value: -0.00015766024
        inSlope: -0.00038418465
        outSlope: -0.00038418465
        tangentMode: 0
        weightedMode: 0
        inWeight: 0.33333334
        outWeight: 0.33333334
      - serializedVersion: 3
        time: 0.30000004
        value: -0.00016315043
        inSlope: -0.00026832457
        outSlope: -0.00026832457
        tangentMode: 0
        weightedMode: 0
        inWeight: 0.33333334
        outWeight: 0.33333334
      - serializedVersion: 3
        time: 0.31666672
        value: -0.0001666044
        inSlope: -0.00013968181
        outSlope: -0.00013968181
        tangentMode: 0
        weightedMode: 0
        inWeight: 0.33333334
        outWeight: 0.33333334
      - serializedVersion: 3
        time: 0.33333334
        value: -0.00016780649
        inSlope: -0.0000721256
        outSlope: -0.0000721256
        tangentMode: 0
        weightedMode: 0
        inWeight: 0.33333334
        outWeight: 0.33333334
      m_PreInfinity: 2
      m_PostInfinity: 2
      m_RotationOrder: 4
    attribute: m_LocalRotation.x
    path: barrierR
    classID: 4
    script: {fileID: 0}
  - curve:
      serializedVersion: 2
      m_Curve:
      - serializedVersion: 3
        time: 0
        value: 0
        inSlope: 0.00003392492
        outSlope: 0.00003392492
        tangentMode: 0
        weightedMode: 0
        inWeight: 0.33333334
        outWeight: 0.33333334
      - serializedVersion: 3
        time: 0.016666668
        value: 0.00000056541535
        inSlope: 0.00006417935
        outSlope: 0.00006417935
        tangentMode: 0
        weightedMode: 0
        inWeight: 0.33333334
        outWeight: 0.33333334
      - serializedVersion: 3
        time: 0.033333335
        value: 0.0000021393118
        inSlope: 0.00011769468
        outSlope: 0.00011769468
        tangentMode: 0
        weightedMode: 0
        inWeight: 0.33333334
        outWeight: 0.33333334
      - serializedVersion: 3
        time: 0.050000004
        value: 0.000004488572
        inSlope: 0.00015587063
        outSlope: 0.00015587063
        tangentMode: 0
        weightedMode: 0
        inWeight: 0.33333334
        outWeight: 0.33333334
      - serializedVersion: 3
        time: 0.06666667
        value: 0.0000073349997
        inSlope: 0.00017672
        outSlope: 0.00017672
        tangentMode: 0
        weightedMode: 0
        inWeight: 0.33333334
        outWeight: 0.33333334
      - serializedVersion: 3
        time: 0.083333336
        value: 0.000010379238
        inSlope: 0.00017962669
        outSlope: 0.00017962669
        tangentMode: 0
        weightedMode: 0
        inWeight: 0.33333334
        outWeight: 0.33333334
      - serializedVersion: 3
        time: 0.1
        value: 0.000013322556
        inSlope: 0.00016522912
        outSlope: 0.00016522912
        tangentMode: 0
        weightedMode: 0
        inWeight: 0.33333334
        outWeight: 0.33333334
      - serializedVersion: 3
        time: 0.11666667
        value: 0.000015886875
        inSlope: 0.00013531034
        outSlope: 0.00013531034
        tangentMode: 0
        weightedMode: 0
        inWeight: 0.33333334
        outWeight: 0.33333334
      - serializedVersion: 3
        time: 0.13333334
        value: 0.000017832901
        inSlope: 0.000092667164
        outSlope: 0.000092667164
        tangentMode: 0
        weightedMode: 0
        inWeight: 0.33333334
        outWeight: 0.33333334
      - serializedVersion: 3
        time: 0.15
        value: 0.000018975781
        inSlope: 0.000040942326
        outSlope: 0.000040942326
        tangentMode: 0
        weightedMode: 0
        inWeight: 0.33333334
        outWeight: 0.33333334
      - serializedVersion: 3
        time: 0.16666667
        value: 0.000019197645
        inSlope: -0.000015588595
        outSlope: -0.000015588595
        tangentMode: 0
        weightedMode: 0
        inWeight: 0.33333334
        outWeight: 0.33333334
      - serializedVersion: 3
        time: 0.18333334
        value: 0.000018456161
        inSlope: -0.00007227062
        outSlope: -0.00007227062
        tangentMode: 0
        weightedMode: 0
        inWeight: 0.33333334
        outWeight: 0.33333334
      - serializedVersion: 3
        time: 0.2
        value: 0.000016788625
        inSlope: -0.00012435591
        outSlope: -0.00012435591
        tangentMode: 0
        weightedMode: 0
        inWeight: 0.33333334
        outWeight: 0.33333334
      - serializedVersion: 3
        time: 0.21666667
        value: 0.000014310965
        inSlope: -0.00016730106
        outSlope: -0.00016730106
        tangentMode: 0
        weightedMode: 0
        inWeight: 0.33333334
        outWeight: 0.33333334
      - serializedVersion: 3
        time: 0.23333333
        value: 0.000011211923
        inSlope: -0.00019705987
        outSlope: -0.00019705987
        tangentMode: 0
        weightedMode: 0
        inWeight: 0.33333334
        outWeight: 0.33333334
      - serializedVersion: 3
        time: 0.25
        value: 0.000007742303
        inSlope: -0.00021036332
        outSlope: -0.00021036332
        tangentMode: 0
        weightedMode: 0
        inWeight: 0.33333334
        outWeight: 0.33333334
      - serializedVersion: 3
        time: 0.26666668
        value: 0.00000419981
        inSlope: -0.0002049653
        outSlope: -0.0002049653
        tangentMode: 0
        weightedMode: 0
        inWeight: 0.33333334
        outWeight: 0.33333334
      - serializedVersion: 3
        time: 0.28333336
        value: 0.00000091012043
        inSlope: -0.00017985248
        outSlope: -0.00017985248
        tangentMode: 0
        weightedMode: 0
        inWeight: 0.33333334
        outWeight: 0.33333334
      - serializedVersion: 3
        time: 0.30000004
        value: -0.0000017952771
        inSlope: -0.0001354425
        outSlope: -0.0001354425
        tangentMode: 0
        weightedMode: 0
        inWeight: 0.33333334
        outWeight: 0.33333334
      - serializedVersion: 3
        time: 0.31666672
        value: -0.000003604633
        inSlope: -0.00007376665
        outSlope: -0.00007376665
        tangentMode: 0
        weightedMode: 0
        inWeight: 0.33333334
        outWeight: 0.33333334
      - serializedVersion: 3
        time: 0.33333334
        value: -0.000004254165
        inSlope: -0.000038972026
        outSlope: -0.000038972026
        tangentMode: 0
        weightedMode: 0
        inWeight: 0.33333334
        outWeight: 0.33333334
      m_PreInfinity: 2
      m_PostInfinity: 2
      m_RotationOrder: 4
    attribute: m_LocalRotation.y
    path: barrierR
    classID: 4
    script: {fileID: 0}
  - curve:
      serializedVersion: 2
      m_Curve:
      - serializedVersion: 3
        time: 0
        value: 0
        inSlope: -0.22282624
        outSlope: -0.22282624
        tangentMode: 0
        weightedMode: 0
        inWeight: 0.33333334
        outWeight: 0.33333334
      - serializedVersion: 3
        time: 0.016666668
        value: -0.003713771
        inSlope: -0.43027142
        outSlope: -0.43027142
        tangentMode: 0
        weightedMode: 0
        inWeight: 0.33333334
        outWeight: 0.33333334
      - serializedVersion: 3
        time: 0.033333335
        value: -0.014342382
        inSlope: -0.8220035
        outSlope: -0.8220035
        tangentMode: 0
        weightedMode: 0
        inWeight: 0.33333334
        outWeight: 0.33333334
      - serializedVersion: 3
        time: 0.050000004
        value: -0.031113893
        inSlope: -1.1671785
        outSlope: -1.1671785
        tangentMode: 0
        weightedMode: 0
        inWeight: 0.33333334
        outWeight: 0.33333334
      - serializedVersion: 3
        time: 0.06666667
        value: -0.053248335
        inSlope: -1.4651711
        outSlope: -1.4651711
        tangentMode: 0
        weightedMode: 0
        inWeight: 0.33333334
        outWeight: 0.33333334
      - serializedVersion: 3
        time: 0.083333336
        value: -0.079952925
        inSlope: -1.7151318
        outSlope: -1.7151318
        tangentMode: 0
        weightedMode: 0
        inWeight: 0.33333334
        outWeight: 0.33333334
      - serializedVersion: 3
        time: 0.1
        value: -0.11041939
        inSlope: -1.9161515
        outSlope: -1.9161515
        tangentMode: 0
        weightedMode: 0
        inWeight: 0.33333334
        outWeight: 0.33333334
      - serializedVersion: 3
        time: 0.11666667
        value: -0.14382464
        inSlope: -2.067467
        outSlope: -2.067467
        tangentMode: 0
        weightedMode: 0
        inWeight: 0.33333334
        outWeight: 0.33333334
      - serializedVersion: 3
        time: 0.13333334
        value: -0.17933497
        inSlope: -2.1686735
        outSlope: -2.1686735
        tangentMode: 0
        weightedMode: 0
        inWeight: 0.33333334
        outWeight: 0.33333334
      - serializedVersion: 3
        time: 0.15
        value: -0.21611376
        inSlope: -2.2199018
        outSlope: -2.2199018
        tangentMode: 0
        weightedMode: 0
        inWeight: 0.33333334
        outWeight: 0.33333334
      - serializedVersion: 3
        time: 0.16666667
        value: -0.2533317
        inSlope: -2.2219343
        outSlope: -2.2219343
        tangentMode: 0
        weightedMode: 0
        inWeight: 0.33333334
        outWeight: 0.33333334
      - serializedVersion: 3
        time: 0.18333334
        value: -0.29017824
        inSlope: -2.17624
        outSlope: -2.17624
        tangentMode: 0
        weightedMode: 0
        inWeight: 0.33333334
        outWeight: 0.33333334
      - serializedVersion: 3
        time: 0.2
        value: -0.32587302
        inSlope: -2.0849223
        outSlope: -2.0849223
        tangentMode: 0
        weightedMode: 0
        inWeight: 0.33333334
        outWeight: 0.33333334
      - serializedVersion: 3
        time: 0.21666667
        value: -0.35967565
        inSlope: -1.9505678
        outSlope: -1.9505678
        tangentMode: 0
        weightedMode: 0
        inWeight: 0.33333334
        outWeight: 0.33333334
      - serializedVersion: 3
        time: 0.23333333
        value: -0.39089194
        inSlope: -1.7760087
        outSlope: -1.7760087
        tangentMode: 0
        weightedMode: 0
        inWeight: 0.33333334
        outWeight: 0.33333334
      - serializedVersion: 3
        time: 0.25
        value: -0.41887593
        inSlope: -1.5640411
        outSlope: -1.5640411
        tangentMode: 0
        weightedMode: 0
        inWeight: 0.33333334
        outWeight: 0.33333334
      - serializedVersion: 3
        time: 0.26666668
        value: -0.44302666
        inSlope: -1.3170645
        outSlope: -1.3170645
        tangentMode: 0
        weightedMode: 0
        inWeight: 0.33333334
        outWeight: 0.33333334
      - serializedVersion: 3
        time: 0.28333336
        value: -0.46277812
        inSlope: -1.036715
        outSlope: -1.036715
        tangentMode: 0
        weightedMode: 0
        inWeight: 0.33333334
        outWeight: 0.33333334
      - serializedVersion: 3
        time: 0.30000004
        value: -0.47758386
        inSlope: -0.72351366
        outSlope: -0.72351366
        tangentMode: 0
        weightedMode: 0
        inWeight: 0.33333334
        outWeight: 0.33333334
      - serializedVersion: 3
        time: 0.31666672
        value: -0.48689526
        inSlope: -0.37655535
        outSlope: -0.37655535
        tangentMode: 0
        weightedMode: 0
        inWeight: 0.33333334
        outWeight: 0.33333334
      - serializedVersion: 3
        time: 0.33333334
        value: -0.4901357
        inSlope: -0.19442672
        outSlope: -0.19442672
        tangentMode: 0
        weightedMode: 0
        inWeight: 0.33333334
        outWeight: 0.33333334
      m_PreInfinity: 2
      m_PostInfinity: 2
      m_RotationOrder: 4
    attribute: m_LocalRotation.z
    path: barrierR
    classID: 4
    script: {fileID: 0}
  - curve:
      serializedVersion: 2
      m_Curve:
      - serializedVersion: 3
        time: 0
        value: 1
        inSlope: -0.0004148483
        outSlope: -0.0004148483
        tangentMode: 0
        weightedMode: 0
        inWeight: 0.33333334
        outWeight: 0.33333334
      - serializedVersion: 3
        time: 0.016666668
        value: 0.9999931
        inSlope: -0.0030863283
        outSlope: -0.0030863283
        tangentMode: 0
        weightedMode: 0
        inWeight: 0.33333334
        outWeight: 0.33333334
      - serializedVersion: 3
        time: 0.033333335
        value: 0.9998971
        inSlope: -0.01431763
        outSlope: -0.01431763
        tangentMode: 0
        weightedMode: 0
        inWeight: 0.33333334
        outWeight: 0.33333334
      - serializedVersion: 3
        time: 0.050000004
        value: 0.99951583
        inSlope: -0.039474964
        outSlope: -0.039474964
        tangentMode: 0
        weightedMode: 0
        inWeight: 0.33333334
        outWeight: 0.33333334
      - serializedVersion: 3
        time: 0.06666667
        value: 0.9985813
        inSlope: -0.081515916
        outSlope: -0.081515916
        tangentMode: 0
        weightedMode: 0
        inWeight: 0.33333334
        outWeight: 0.33333334
      - serializedVersion: 3
        time: 0.083333336
        value: 0.99679863
        inSlope: -0.14088573
        outSlope: -0.14088573
        tangentMode: 0
        weightedMode: 0
        inWeight: 0.33333334
        outWeight: 0.33333334
      - serializedVersion: 3
        time: 0.1
        value: 0.9938851
        inSlope: -0.21586421
        outSlope: -0.21586421
        tangentMode: 0
        weightedMode: 0
        inWeight: 0.33333334
        outWeight: 0.33333334
      - serializedVersion: 3
        time: 0.11666667
        value: 0.98960316
        inSlope: -0.30291075
        outSlope: -0.30291075
        tangentMode: 0
        weightedMode: 0
        inWeight: 0.33333334
        outWeight: 0.33333334
      - serializedVersion: 3
        time: 0.13333334
        value: 0.9837881
        inSlope: -0.39704913
        outSlope: -0.39704913
        tangentMode: 0
        weightedMode: 0
        inWeight: 0.33333334
        outWeight: 0.33333334
      - serializedVersion: 3
        time: 0.15
        value: 0.9763682
        inSlope: -0.49225873
        outSlope: -0.49225873
        tangentMode: 0
        weightedMode: 0
        inWeight: 0.33333334
        outWeight: 0.33333334
      - serializedVersion: 3
        time: 0.16666667
        value: 0.96737945
        inSlope: -0.58186775
        outSlope: -0.58186775
        tangentMode: 0
        weightedMode: 0
        inWeight: 0.33333334
        outWeight: 0.33333334
      - serializedVersion: 3
        time: 0.18333334
        value: 0.9569726
        inSlope: -0.6589777
        outSlope: -0.6589777
        tangentMode: 0
        weightedMode: 0
        inWeight: 0.33333334
        outWeight: 0.33333334
      - serializedVersion: 3
        time: 0.2
        value: 0.94541353
        inSlope: -0.7168562
        outSlope: -0.7168562
        tangentMode: 0
        weightedMode: 0
        inWeight: 0.33333334
        outWeight: 0.33333334
      - serializedVersion: 3
        time: 0.21666667
        value: 0.9330774
        inSlope: -0.7493091
        outSlope: -0.7493091
        tangentMode: 0
        weightedMode: 0
        inWeight: 0.33333334
        outWeight: 0.33333334
      - serializedVersion: 3
        time: 0.23333333
        value: 0.92043656
        inSlope: -0.7510186
        outSlope: -0.7510186
        tangentMode: 0
        weightedMode: 0
        inWeight: 0.33333334
        outWeight: 0.33333334
      - serializedVersion: 3
        time: 0.25
        value: 0.90804344
        inSlope: -0.71784294
        outSlope: -0.71784294
        tangentMode: 0
        weightedMode: 0
        inWeight: 0.33333334
        outWeight: 0.33333334
      - serializedVersion: 3
        time: 0.26666668
        value: 0.89650846
        inSlope: -0.6470788
        outSlope: -0.6470788
        tangentMode: 0
        weightedMode: 0
        inWeight: 0.33333334
        outWeight: 0.33333334
      - serializedVersion: 3
        time: 0.28333336
        value: 0.88647413
        inSlope: -0.53766805
        outSlope: -0.53766805
        tangentMode: 0
        weightedMode: 0
        inWeight: 0.33333334
        outWeight: 0.33333334
      - serializedVersion: 3
        time: 0.30000004
        value: 0.8785862
        inSlope: -0.39041308
        outSlope: -0.39041308
        tangentMode: 0
        weightedMode: 0
        inWeight: 0.33333334
        outWeight: 0.33333334
      - serializedVersion: 3
        time: 0.31666672
        value: 0.87346035
        inSlope: -0.20820023
        outSlope: -0.20820023
        tangentMode: 0
        weightedMode: 0
        inWeight: 0.33333334
        outWeight: 0.33333334
      - serializedVersion: 3
        time: 0.33333334
        value: 0.87164617
        inSlope: -0.10885149
        outSlope: -0.10885149
        tangentMode: 0
        weightedMode: 0
        inWeight: 0.33333334
        outWeight: 0.33333334
      m_PreInfinity: 2
      m_PostInfinity: 2
      m_RotationOrder: 4
    attribute: m_LocalRotation.w
    path: barrierR
    classID: 4
    script: {fileID: 0}
  - curve:
      serializedVersion: 2
      m_Curve:
      - serializedVersion: 3
        time: 0
        value: 0
        inSlope: 0.000064675565
        outSlope: 0.000064675565
        tangentMode: 0
        weightedMode: 0
        inWeight: 0.33333334
        outWeight: 0.33333334
      - serializedVersion: 3
        time: 0.016666668
        value: 0.0000010779262
        inSlope: 0.00012566589
        outSlope: 0.00012566589
        tangentMode: 0
        weightedMode: 0
        inWeight: 0.33333334
        outWeight: 0.33333334
      - serializedVersion: 3
        time: 0.033333335
        value: 0.000004188863
        inSlope: 0.0002429026
        outSlope: 0.0002429026
        tangentMode: 0
        weightedMode: 0
        inWeight: 0.33333334
        outWeight: 0.33333334
      - serializedVersion: 3
        time: 0.050000004
        value: 0.000009174681
        inSlope: 0.00035117584
        outSlope: 0.00035117584
        tangentMode: 0
        weightedMode: 0
        inWeight: 0.33333334
        outWeight: 0.33333334
      - serializedVersion: 3
        time: 0.06666667
        value: 0.000015894724
        inSlope: 0.00045094115
        outSlope: 0.00045094115
        tangentMode: 0
        weightedMode: 0
        inWeight: 0.33333334
        outWeight: 0.33333334
      - serializedVersion: 3
        time: 0.083333336
        value: 0.00002420605
        inSlope: 0.0005415801
        outSlope: 0.0005415801
        tangentMode: 0
        weightedMode: 0
        inWeight: 0.33333334
        outWeight: 0.33333334
      - serializedVersion: 3
        time: 0.1
        value: 0.00003394739
        inSlope: 0.0006216592
        outSlope: 0.0006216592
        tangentMode: 0
        weightedMode: 0
        inWeight: 0.33333334
        outWeight: 0.33333334
      - serializedVersion: 3
        time: 0.11666667
        value: 0.000044928023
        inSlope: 0.0006892398
        outSlope: 0.0006892398
        tangentMode: 0
        weightedMode: 0
        inWeight: 0.33333334
        outWeight: 0.33333334
      - serializedVersion: 3
        time: 0.13333334
        value: 0.000056922057
        inSlope: 0.0007422005
        outSlope: 0.0007422005
        tangentMode: 0
        weightedMode: 0
        inWeight: 0.33333334
        outWeight: 0.33333334
      - serializedVersion: 3
        time: 0.15
        value: 0.00006966804
        inSlope: 0.0007785446
        outSlope: 0.0007785446
        tangentMode: 0
        weightedMode: 0
        inWeight: 0.33333334
        outWeight: 0.33333334
      - serializedVersion: 3
        time: 0.16666667
        value: 0.00008287354
        inSlope: 0.0007966567
        outSlope: 0.0007966567
        tangentMode: 0
        weightedMode: 0
        inWeight: 0.33333334
        outWeight: 0.33333334
      - serializedVersion: 3
        time: 0.18333334
        value: 0.000096223266
        inSlope: 0.00079548743
        outSlope: 0.00079548743
        tangentMode: 0
        weightedMode: 0
        inWeight: 0.33333334
        outWeight: 0.33333334
      - serializedVersion: 3
        time: 0.2
        value: 0.00010938979
        inSlope: 0.00077465817
        outSlope: 0.00077465817
        tangentMode: 0
        weightedMode: 0
        inWeight: 0.33333334
        outWeight: 0.33333334
      - serializedVersion: 3
        time: 0.21666667
        value: 0.0001220452
        inSlope: 0.00073445163
        outSlope: 0.00073445163
        tangentMode: 0
        weightedMode: 0
        inWeight: 0.33333334
        outWeight: 0.33333334
      - serializedVersion: 3
        time: 0.23333333
        value: 0.00013387151
        inSlope: 0.00067571434
        outSlope: 0.00067571434
        tangentMode: 0
        weightedMode: 0
        inWeight: 0.33333334
        outWeight: 0.33333334
      - serializedVersion: 3
        time: 0.25
        value: 0.00014456901
        inSlope: 0.00059968
        outSlope: 0.00059968
        tangentMode: 0
        weightedMode: 0
        inWeight: 0.33333334
        outWeight: 0.33333334
      - serializedVersion: 3
        time: 0.26666668
        value: 0.00015386085
        inSlope: 0.00050771545
        outSlope: 0.00050771545
        tangentMode: 0
        weightedMode: 0
        inWeight: 0.33333334
        outWeight: 0.33333334
      - serializedVersion: 3
        time: 0.28333336
        value: 0.00016149288
        inSlope: 0.00040104054
        outSlope: 0.00040104054
        tangentMode: 0
        weightedMode: 0
        inWeight: 0.33333334
        outWeight: 0.33333334
      - serializedVersion: 3
        time: 0.30000004
        value: 0.00016722888
        inSlope: 0.00028045475
        outSlope: 0.00028045475
        tangentMode: 0
        weightedMode: 0
        inWeight: 0.33333334
        outWeight: 0.33333334
      - serializedVersion: 3
        time: 0.31666672
        value: 0.00017084138
        inSlope: 0.00014611405
        outSlope: 0.00014611405
        tangentMode: 0
        weightedMode: 0
        inWeight: 0.33333334
        outWeight: 0.33333334
      - serializedVersion: 3
        time: 0.33333334
        value: 0.00017209935
        inSlope: 0.00007547837
        outSlope: 0.00007547837
        tangentMode: 0
        weightedMode: 0
        inWeight: 0.33333334
        outWeight: 0.33333334
      m_PreInfinity: 2
      m_PostInfinity: 2
      m_RotationOrder: 4
    attribute: m_LocalRotation.x
    path: barrierL
    classID: 4
    script: {fileID: 0}
  - curve:
      serializedVersion: 2
      m_Curve:
      - serializedVersion: 3
        time: 0
        value: 0
        inSlope: 0.00003771845
        outSlope: 0.00003771845
        tangentMode: 0
        weightedMode: 0
        inWeight: 0.33333334
        outWeight: 0.33333334
      - serializedVersion: 3
        time: 0.016666668
        value: 0.0000006286409
        inSlope: 0.00007148995
        outSlope: 0.00007148995
        tangentMode: 0
        weightedMode: 0
        inWeight: 0.33333334
        outWeight: 0.33333334
      - serializedVersion: 3
        time: 0.033333335
        value: 0.0000023829984
        inSlope: 0.00013160407
        outSlope: 0.00013160407
        tangentMode: 0
        weightedMode: 0
        inWeight: 0.33333334
        outWeight: 0.33333334
      - serializedVersion: 3
        time: 0.050000004
        value: 0.000005015444
        inSlope: 0.00017548028
        outSlope: 0.00017548028
        tangentMode: 0
        weightedMode: 0
        inWeight: 0.33333334
        outWeight: 0.33333334
      - serializedVersion: 3
        time: 0.06666667
        value: 0.000008232341
        inSlope: 0.00020107525
        outSlope: 0.00020107525
        tangentMode: 0
        weightedMode: 0
        inWeight: 0.33333334
        outWeight: 0.33333334
      - serializedVersion: 3
        time: 0.083333336
        value: 0.000011717952
        inSlope: 0.00020771942
        outSlope: 0.00020771942
        tangentMode: 0
        weightedMode: 0
        inWeight: 0.33333334
        outWeight: 0.33333334
      - serializedVersion: 3
        time: 0.1
        value: 0.000015156322
        inSlope: 0.00019600886
        outSlope: 0.00019600886
        tangentMode: 0
        weightedMode: 0
        inWeight: 0.33333334
        outWeight: 0.33333334
      - serializedVersion: 3
        time: 0.11666667
        value: 0.00001825158
        inSlope: 0.00016770582
        outSlope: 0.00016770582
        tangentMode: 0
        weightedMode: 0
        inWeight: 0.33333334
        outWeight: 0.33333334
      - serializedVersion: 3
        time: 0.13333334
        value: 0.000020746516
        inSlope: 0.00012561829
        outSlope: 0.00012561829
        tangentMode: 0
        weightedMode: 0
        inWeight: 0.33333334
        outWeight: 0.33333334
      - serializedVersion: 3
        time: 0.15
        value: 0.000022438857
        inSlope: 0.000073440264
        outSlope: 0.000073440264
        tangentMode: 0
        weightedMode: 0
        inWeight: 0.33333334
        outWeight: 0.33333334
      - serializedVersion: 3
        time: 0.16666667
        value: 0.000023194525
        inSlope: 0.000015540683
        outSlope: 0.000015540683
        tangentMode: 0
        weightedMode: 0
        inWeight: 0.33333334
        outWeight: 0.33333334
      - serializedVersion: 3
        time: 0.18333334
        value: 0.00002295688
        inSlope: -0.000043293352
        outSlope: -0.000043293352
        tangentMode: 0
        weightedMode: 0
        inWeight: 0.33333334
        outWeight: 0.33333334
      - serializedVersion: 3
        time: 0.2
        value: 0.000021751413
        inSlope: -0.00009814817
        outSlope: -0.00009814817
        tangentMode: 0
        weightedMode: 0
        inWeight: 0.33333334
        outWeight: 0.33333334
      - serializedVersion: 3
        time: 0.21666667
        value: 0.000019685274
        inSlope: -0.00014429557
        outSlope: -0.00014429557
        tangentMode: 0
        weightedMode: 0
        inWeight: 0.33333334
        outWeight: 0.33333334
      - serializedVersion: 3
        time: 0.23333333
        value: 0.000016941562
        inSlope: -0.0001775035
        outSlope: -0.0001775035
        tangentMode: 0
        weightedMode: 0
        inWeight: 0.33333334
        outWeight: 0.33333334
      - serializedVersion: 3
        time: 0.25
        value: 0.000013768491
        inSlope: -0.00019432977
        outSlope: -0.00019432977
        tangentMode: 0
        weightedMode: 0
        inWeight: 0.33333334
        outWeight: 0.33333334
      - serializedVersion: 3
        time: 0.26666668
        value: 0.0000104639
        inSlope: -0.00019238831
        outSlope: -0.00019238831
        tangentMode: 0
        weightedMode: 0
        inWeight: 0.33333334
        outWeight: 0.33333334
      - serializedVersion: 3
        time: 0.28333336
        value: 0.000007355542
        inSlope: -0.00017058436
        outSlope: -0.00017058436
        tangentMode: 0
        weightedMode: 0
        inWeight: 0.33333334
        outWeight: 0.33333334
      - serializedVersion: 3
        time: 0.30000004
        value: 0.0000047777503
        inSlope: -0.00012931912
        outSlope: -0.00012931912
        tangentMode: 0
        weightedMode: 0
        inWeight: 0.33333334
        outWeight: 0.33333334
      - serializedVersion: 3
        time: 0.31666672
        value: 0.000003044901
        inSlope: -0.000070694376
        outSlope: -0.000070694376
        tangentMode: 0
        weightedMode: 0
        inWeight: 0.33333334
        outWeight: 0.33333334
      - serializedVersion: 3
        time: 0.33333334
        value: 0.0000024212713
        inSlope: -0.000037417878
        outSlope: -0.000037417878
        tangentMode: 0
        weightedMode: 0
        inWeight: 0.33333334
        outWeight: 0.33333334
      m_PreInfinity: 2
      m_PostInfinity: 2
      m_RotationOrder: 4
    attribute: m_LocalRotation.y
    path: barrierL
    classID: 4
    script: {fileID: 0}
  - curve:
      serializedVersion: 2
      m_Curve:
      - serializedVersion: 3
        time: 0
        value: 0
        inSlope: 0.22517984
        outSlope: 0.22517984
        tangentMode: 0
        weightedMode: 0
        inWeight: 0.33333334
        outWeight: 0.33333334
      - serializedVersion: 3
        time: 0.016666668
        value: 0.0037529974
        inSlope: 0.43481582
        outSlope: 0.43481582
        tangentMode: 0
        weightedMode: 0
        inWeight: 0.33333334
        outWeight: 0.33333334
      - serializedVersion: 3
        time: 0.033333335
        value: 0.014493861
        inSlope: 0.83068264
        outSlope: 0.83068264
        tangentMode: 0
        weightedMode: 0
        inWeight: 0.33333334
        outWeight: 0.33333334
      - serializedVersion: 3
        time: 0.050000004
        value: 0.031442422
        inSlope: 1.1794908
        outSlope: 1.1794908
        tangentMode: 0
        weightedMode: 0
        inWeight: 0.33333334
        outWeight: 0.33333334
      - serializedVersion: 3
        time: 0.06666667
        value: 0.053810224
        inSlope: 1.480595
        outSlope: 1.480595
        tangentMode: 0
        weightedMode: 0
        inWeight: 0.33333334
        outWeight: 0.33333334
      - serializedVersion: 3
        time: 0.083333336
        value: 0.080795586
        inSlope: 1.7331183
        outSlope: 1.7331183
        tangentMode: 0
        weightedMode: 0
        inWeight: 0.33333334
        outWeight: 0.33333334
      - serializedVersion: 3
        time: 0.1
        value: 0.111580834
        inSlope: 1.9361236
        outSlope: 1.9361236
        tangentMode: 0
        weightedMode: 0
        inWeight: 0.33333334
        outWeight: 0.33333334
      - serializedVersion: 3
        time: 0.11666667
        value: 0.14533304
        inSlope: 2.0888228
        outSlope: 2.0888228
        tangentMode: 0
        weightedMode: 0
        inWeight: 0.33333334
        outWeight: 0.33333334
      - serializedVersion: 3
        time: 0.13333334
        value: 0.18120827
        inSlope: 2.1907969
        outSlope: 2.1907969
        tangentMode: 0
        weightedMode: 0
        inWeight: 0.33333334
        outWeight: 0.33333334
      - serializedVersion: 3
        time: 0.15
        value: 0.2183596
        inSlope: 2.2421842
        outSlope: 2.2421842
        tangentMode: 0
        weightedMode: 0
        inWeight: 0.33333334
        outWeight: 0.33333334
      - serializedVersion: 3
        time: 0.16666667
        value: 0.25594774
        inSlope: 2.2437935
        outSlope: 2.2437935
        tangentMode: 0
        weightedMode: 0
        inWeight: 0.33333334
        outWeight: 0.33333334
      - serializedVersion: 3
        time: 0.18333334
        value: 0.29315272
        inSlope: 2.1971388
        outSlope: 2.1971388
        tangentMode: 0
        weightedMode: 0
        inWeight: 0.33333334
        outWeight: 0.33333334
      - serializedVersion: 3
        time: 0.2
        value: 0.3291857
        inSlope: 2.104389
        outSlope: 2.104389
        tangentMode: 0
        weightedMode: 0
        inWeight: 0.33333334
        outWeight: 0.33333334
      - serializedVersion: 3
        time: 0.21666667
        value: 0.363299
        inSlope: 1.9682122
        outSlope: 1.9682122
        tangentMode: 0
        weightedMode: 0
        inWeight: 0.33333334
        outWeight: 0.33333334
      - serializedVersion: 3
        time: 0.23333333
        value: 0.39479277
        inSlope: 1.7915369
        outSlope: 1.7915369
        tangentMode: 0
        weightedMode: 0
        inWeight: 0.33333334
        outWeight: 0.33333334
      - serializedVersion: 3
        time: 0.25
        value: 0.4230169
        inSlope: 1.5772448
        outSlope: 1.5772448
        tangentMode: 0
        weightedMode: 0
        inWeight: 0.33333334
        outWeight: 0.33333334
      - serializedVersion: 3
        time: 0.26666668
        value: 0.4473676
        inSlope: 1.3278041
        outSlope: 1.3278041
        tangentMode: 0
        weightedMode: 0
        inWeight: 0.33333334
        outWeight: 0.33333334
      - serializedVersion: 3
        time: 0.28333336
        value: 0.46727708
        inSlope: 1.0449038
        outSlope: 1.0449038
        tangentMode: 0
        weightedMode: 0
        inWeight: 0.33333334
        outWeight: 0.33333334
      - serializedVersion: 3
        time: 0.30000004
        value: 0.48219776
        inSlope: 0.7290828
        outSlope: 0.7290828
        tangentMode: 0
        weightedMode: 0
        inWeight: 0.33333334
        outWeight: 0.33333334
      - serializedVersion: 3
        time: 0.31666672
        value: 0.49157986
        inSlope: 0.37940297
        outSlope: 0.37940297
        tangentMode: 0
        weightedMode: 0
        inWeight: 0.33333334
        outWeight: 0.33333334
      - serializedVersion: 3
        time: 0.33333334
        value: 0.49484453
        inSlope: 0.19588047
        outSlope: 0.19588047
        tangentMode: 0
        weightedMode: 0
        inWeight: 0.33333334
        outWeight: 0.33333334
      m_PreInfinity: 2
      m_PostInfinity: 2
      m_RotationOrder: 4
    attribute: m_LocalRotation.z
    path: barrierL
    classID: 4
    script: {fileID: 0}
  - curve:
      serializedVersion: 2
      m_Curve:
      - serializedVersion: 3
        time: 0
        value: 1
        inSlope: -0.00042200086
        outSlope: -0.00042200086
        tangentMode: 0
        weightedMode: 0
        inWeight: 0.33333334
        outWeight: 0.33333334
      - serializedVersion: 3
        time: 0.016666668
        value: 0.99999297
        inSlope: -0.0031507013
        outSlope: -0.0031507013
        tangentMode: 0
        weightedMode: 0
        inWeight: 0.33333334
        outWeight: 0.33333334
      - serializedVersion: 3
        time: 0.033333335
        value: 0.999895
        inSlope: -0.014621614
        outSlope: -0.014621614
        tangentMode: 0
        weightedMode: 0
        inWeight: 0.33333334
        outWeight: 0.33333334
      - serializedVersion: 3
        time: 0.050000004
        value: 0.9995056
        inSlope: -0.0403136
        outSlope: -0.0403136
        tangentMode: 0
        weightedMode: 0
        inWeight: 0.33333334
        outWeight: 0.33333334
      - serializedVersion: 3
        time: 0.06666667
        value: 0.9985512
        inSlope: -0.083246835
        outSlope: -0.083246835
        tangentMode: 0
        weightedMode: 0
        inWeight: 0.33333334
        outWeight: 0.33333334
      - serializedVersion: 3
        time: 0.083333336
        value: 0.9967307
        inSlope: -0.1438755
        outSlope: -0.1438755
        tangentMode: 0
        weightedMode: 0
        inWeight: 0.33333334
        outWeight: 0.33333334
      - serializedVersion: 3
        time: 0.1
        value: 0.99375534
        inSlope: -0.22043648
        outSlope: -0.22043648
        tangentMode: 0
        weightedMode: 0
        inWeight: 0.33333334
        outWeight: 0.33333334
      - serializedVersion: 3
        time: 0.11666667
        value: 0.9893828
        inSlope: -0.30931765
        outSlope: -0.30931765
        tangentMode: 0
        weightedMode: 0
        inWeight: 0.33333334
        outWeight: 0.33333334
      - serializedVersion: 3
        time: 0.13333334
        value: 0.98344475
        inSlope: -0.4054337
        outSlope: -0.4054337
        tangentMode: 0
        weightedMode: 0
        inWeight: 0.33333334
        outWeight: 0.33333334
      - serializedVersion: 3
        time: 0.15
        value: 0.97586834
        inSlope: -0.5026246
        outSlope: -0.5026246
        tangentMode: 0
        weightedMode: 0
        inWeight: 0.33333334
        outWeight: 0.33333334
      - serializedVersion: 3
        time: 0.16666667
        value: 0.9666906
        inSlope: -0.59408253
        outSlope: -0.59408253
        tangentMode: 0
        weightedMode: 0
        inWeight: 0.33333334
        outWeight: 0.33333334
      - serializedVersion: 3
        time: 0.18333334
        value: 0.9560656
        inSlope: -0.67276245
        outSlope: -0.67276245
        tangentMode: 0
        weightedMode: 0
        inWeight: 0.33333334
        outWeight: 0.33333334
      - serializedVersion: 3
        time: 0.2
        value: 0.9442652
        inSlope: -0.7317907
        outSlope: -0.7317907
        tangentMode: 0
        weightedMode: 0
        inWeight: 0.33333334
        outWeight: 0.33333334
      - serializedVersion: 3
        time: 0.21666667
        value: 0.9316726
        inSlope: -0.76484984
        outSlope: -0.76484984
        tangentMode: 0
        weightedMode: 0
        inWeight: 0.33333334
        outWeight: 0.33333334
      - serializedVersion: 3
        time: 0.23333333
        value: 0.9187702
        inSlope: -0.76652354
        outSlope: -0.76652354
        tangentMode: 0
        weightedMode: 0
        inWeight: 0.33333334
        outWeight: 0.33333334
      - serializedVersion: 3
        time: 0.25
        value: 0.9061218
        inSlope: -0.73260045
        outSlope: -0.73260045
        tangentMode: 0
        weightedMode: 0
        inWeight: 0.33333334
        outWeight: 0.33333334
      - serializedVersion: 3
        time: 0.26666668
        value: 0.8943502
        inSlope: -0.6603253
        outSlope: -0.6603253
        tangentMode: 0
        weightedMode: 0
        inWeight: 0.33333334
        outWeight: 0.33333334
      - serializedVersion: 3
        time: 0.28333336
        value: 0.8841109
        inSlope: -0.54863286
        outSlope: -0.54863286
        tangentMode: 0
        weightedMode: 0
        inWeight: 0.33333334
        outWeight: 0.33333334
      - serializedVersion: 3
        time: 0.30000004
        value: 0.8760624
        inSlope: -0.39835238
        outSlope: -0.39835238
        tangentMode: 0
        weightedMode: 0
        inWeight: 0.33333334
        outWeight: 0.33333334
      - serializedVersion: 3
        time: 0.31666672
        value: 0.8708325
        inSlope: -0.2124256
        outSlope: -0.2124256
        tangentMode: 0
        weightedMode: 0
        inWeight: 0.33333334
        outWeight: 0.33333334
      - serializedVersion: 3
        time: 0.33333334
        value: 0.86898154
        inSlope: -0.111058064
        outSlope: -0.111058064
        tangentMode: 0
        weightedMode: 0
        inWeight: 0.33333334
        outWeight: 0.33333334
      m_PreInfinity: 2
      m_PostInfinity: 2
      m_RotationOrder: 4
    attribute: m_LocalRotation.w
    path: barrierL
    classID: 4
    script: {fileID: 0}
  m_EulerEditorCurves:
  - curve:
      serializedVersion: 2
      m_Curve:
      - serializedVersion: 3
        time: 0
        value: 0
        inSlope: 0
        outSlope: 0
        tangentMode: 136
        weightedMode: 0
        inWeight: 0.33333334
        outWeight: 0.33333334
      - serializedVersion: 3
        time: 0.33333334
        value: -0.017
        inSlope: 0
        outSlope: 0
        tangentMode: 136
        weightedMode: 0
        inWeight: 0.33333334
        outWeight: 0.33333334
      m_PreInfinity: 2
      m_PostInfinity: 2
      m_RotationOrder: 4
    attribute: localEulerAnglesBaked.x
    path: barrierR
    classID: 4
    script: {fileID: 0}
  - curve:
      serializedVersion: 2
      m_Curve:
      - serializedVersion: 3
        time: 0
        value: 0
        inSlope: 0
        outSlope: 0
        tangentMode: 136
        weightedMode: 0
        inWeight: 0.33333334
        outWeight: 0.33333334
      - serializedVersion: 3
        time: 0.33333334
        value: 0.009
        inSlope: 0
        outSlope: 0
        tangentMode: 136
        weightedMode: 0
        inWeight: 0.33333334
        outWeight: 0.33333334
      m_PreInfinity: 2
      m_PostInfinity: 2
      m_RotationOrder: 4
    attribute: localEulerAnglesBaked.y
    path: barrierR
    classID: 4
    script: {fileID: 0}
  - curve:
      serializedVersion: 2
      m_Curve:
      - serializedVersion: 3
        time: 0
        value: 0
        inSlope: 0
        outSlope: 0
        tangentMode: 136
        weightedMode: 0
        inWeight: 0.33333334
        outWeight: 0.33333334
      - serializedVersion: 3
        time: 0.33333334
        value: -58.699
        inSlope: 0
        outSlope: 0
        tangentMode: 136
        weightedMode: 0
        inWeight: 0.33333334
        outWeight: 0.33333334
      m_PreInfinity: 2
      m_PostInfinity: 2
      m_RotationOrder: 4
    attribute: localEulerAnglesBaked.z
    path: barrierR
    classID: 4
    script: {fileID: 0}
  - curve:
      serializedVersion: 2
      m_Curve:
      - serializedVersion: 3
        time: 0
        value: 0
        inSlope: 0
        outSlope: 0
        tangentMode: 136
        weightedMode: 0
        inWeight: 0.33333334
        outWeight: 0.33333334
      - serializedVersion: 3
        time: 0.33333334
        value: 0.017
        inSlope: 0
        outSlope: 0
        tangentMode: 136
        weightedMode: 0
        inWeight: 0.33333334
        outWeight: 0.33333334
      m_PreInfinity: 2
      m_PostInfinity: 2
      m_RotationOrder: 4
    attribute: localEulerAnglesBaked.x
    path: barrierL
    classID: 4
    script: {fileID: 0}
  - curve:
      serializedVersion: 2
      m_Curve:
      - serializedVersion: 3
        time: 0
        value: 0
        inSlope: 0
        outSlope: 0
        tangentMode: 136
        weightedMode: 0
        inWeight: 0.33333334
        outWeight: 0.33333334
      - serializedVersion: 3
        time: 0.33333334
        value: 0.01
        inSlope: 0
        outSlope: 0
        tangentMode: 136
        weightedMode: 0
        inWeight: 0.33333334
        outWeight: 0.33333334
      m_PreInfinity: 2
      m_PostInfinity: 2
      m_RotationOrder: 4
    attribute: localEulerAnglesBaked.y
    path: barrierL
    classID: 4
    script: {fileID: 0}
  - curve:
      serializedVersion: 2
      m_Curve:
      - serializedVersion: 3
        time: 0
        value: 0
        inSlope: 0
        outSlope: 0
        tangentMode: 136
        weightedMode: 0
        inWeight: 0.33333334
        outWeight: 0.33333334
      - serializedVersion: 3
        time: 0.33333334
        value: 59.319
        inSlope: 0
        outSlope: 0
        tangentMode: 136
        weightedMode: 0
        inWeight: 0.33333334
        outWeight: 0.33333334
      m_PreInfinity: 2
      m_PostInfinity: 2
      m_RotationOrder: 4
    attribute: localEulerAnglesBaked.z
    path: barrierL
    classID: 4
    script: {fileID: 0}
  m_HasGenericRootTransform: 0
  m_HasMotionFloatCurves: 0
  m_Events: []
