%YAML 1.1
%TAG !u! tag:unity3d.com,2011:
--- !u!1 &8370478923820234259
GameObject:
  m_ObjectHideFlags: 0
  m_CorrespondingSourceObject: {fileID: 0}
  m_PrefabInstance: {fileID: 0}
  m_PrefabAsset: {fileID: 0}
  serializedVersion: 6
  m_Component:
  - component: {fileID: 9178963411227290793}
  - component: {fileID: 5246096541181911820}
  - component: {fileID: 8009957926596597702}
  m_Layer: 0
  m_Name: park_flashlight
  m_TagString: Untagged
  m_Icon: {fileID: 0}
  m_NavMeshLayer: 0
  m_StaticEditorFlags: 2147483647
  m_IsActive: 1
--- !u!4 &9178963411227290793
Transform:
  m_ObjectHideFlags: 0
  m_CorrespondingSourceObject: {fileID: 0}
  m_PrefabInstance: {fileID: 0}
  m_PrefabAsset: {fileID: 0}
  m_GameObject: {fileID: 8370478923820234259}
  m_LocalRotation: {x: -0.00000008146034, y: 0, z: -0, w: 1}
  m_LocalPosition: {x: -2.9659, y: 0, z: 8.9372}
  m_LocalScale: {x: 0.7, y: 0.7, z: 0.7}
  m_ConstrainProportionsScale: 1
  m_Children:
  - {fileID: 9178963411233413572}
  m_Father: {fileID: 0}
  m_RootOrder: 0
  m_LocalEulerAnglesHint: {x: 0, y: 0, z: 0}
--- !u!33 &5246096541181911820
MeshFilter:
  m_ObjectHideFlags: 0
  m_CorrespondingSourceObject: {fileID: 0}
  m_PrefabInstance: {fileID: 0}
  m_PrefabAsset: {fileID: 0}
  m_GameObject: {fileID: 8370478923820234259}
  m_Mesh: {fileID: 8701650931441692226, guid: 8c96d625f8505c547b6bb5bbde85708b, type: 3}
--- !u!23 &8009957926596597702
MeshRenderer:
  m_ObjectHideFlags: 0
  m_CorrespondingSourceObject: {fileID: 0}
  m_PrefabInstance: {fileID: 0}
  m_PrefabAsset: {fileID: 0}
  m_GameObject: {fileID: 8370478923820234259}
  m_Enabled: 1
  m_CastShadows: 1
  m_ReceiveShadows: 1
  m_DynamicOccludee: 1
  m_StaticShadowCaster: 0
  m_MotionVectors: 1
  m_LightProbeUsage: 1
  m_ReflectionProbeUsage: 1
  m_RayTracingMode: 2
  m_RayTraceProcedural: 0
  m_RenderingLayerMask: 1
  m_RendererPriority: 0
  m_Materials:
  - {fileID: 2100000, guid: 2c1debfdda885f64e89fcad2a9fa7266, type: 2}
  m_StaticBatchInfo:
    firstSubMesh: 0
    subMeshCount: 0
  m_StaticBatchRoot: {fileID: 0}
  m_ProbeAnchor: {fileID: 0}
  m_LightProbeVolumeOverride: {fileID: 0}
  m_ScaleInLightmap: 1
  m_ReceiveGI: 1
  m_PreserveUVs: 0
  m_IgnoreNormalsForChartDetection: 0
  m_ImportantGI: 0
  m_StitchLightmapSeams: 1
  m_SelectedEditorRenderState: 3
  m_MinimumChartSize: 4
  m_AutoUVMaxDistance: 0.5
  m_AutoUVMaxAngle: 89
  m_LightmapParameters: {fileID: 0}
  m_SortingLayerID: 0
  m_SortingLayer: 0
  m_SortingOrder: 0
  m_AdditionalVertexStreams: {fileID: 0}
--- !u!1001 &8712358521844104751
PrefabInstance:
  m_ObjectHideFlags: 0
  serializedVersion: 2
  m_Modification:
    m_TransformParent: {fileID: 9178963411227290793}
    m_Modifications:
    - target: {fileID: -8679921383154817045, guid: 9761684e04dce084881f9da09e22a092, type: 3}
      propertyPath: m_RootOrder
      value: 0
      objectReference: {fileID: 0}
    - target: {fileID: -8679921383154817045, guid: 9761684e04dce084881f9da09e22a092, type: 3}
      propertyPath: m_LocalScale.x
      value: 2.4299326
      objectReference: {fileID: 0}
    - target: {fileID: -8679921383154817045, guid: 9761684e04dce084881f9da09e22a092, type: 3}
      propertyPath: m_LocalScale.y
      value: 2.4150462
      objectReference: {fileID: 0}
    - target: {fileID: -8679921383154817045, guid: 9761684e04dce084881f9da09e22a092, type: 3}
      propertyPath: m_LocalScale.z
      value: 1
      objectReference: {fileID: 0}
    - target: {fileID: -8679921383154817045, guid: 9761684e04dce084881f9da09e22a092, type: 3}
      propertyPath: m_LocalPosition.x
      value: -0.128
      objectReference: {fileID: 0}
    - target: {fileID: -8679921383154817045, guid: 9761684e04dce084881f9da09e22a092, type: 3}
      propertyPath: m_LocalPosition.y
      value: 0.003
      objectReference: {fileID: 0}
    - target: {fileID: -8679921383154817045, guid: 9761684e04dce084881f9da09e22a092, type: 3}
      propertyPath: m_LocalPosition.z
      value: 0.064
      objectReference: {fileID: 0}
    - target: {fileID: -8679921383154817045, guid: 9761684e04dce084881f9da09e22a092, type: 3}
      propertyPath: m_LocalRotation.w
      value: 0.33320096
      objectReference: {fileID: 0}
    - target: {fileID: -8679921383154817045, guid: 9761684e04dce084881f9da09e22a092, type: 3}
      propertyPath: m_LocalRotation.x
      value: -0.333201
      objectReference: {fileID: 0}
    - target: {fileID: -8679921383154817045, guid: 9761684e04dce084881f9da09e22a092, type: 3}
      propertyPath: m_LocalRotation.y
      value: 0.62368035
      objectReference: {fileID: 0}
    - target: {fileID: -8679921383154817045, guid: 9761684e04dce084881f9da09e22a092, type: 3}
      propertyPath: m_LocalRotation.z
      value: 0.62368035
      objectReference: {fileID: 0}
    - target: {fileID: -8679921383154817045, guid: 9761684e04dce084881f9da09e22a092, type: 3}
      propertyPath: m_LocalEulerAnglesHint.x
      value: -90
      objectReference: {fileID: 0}
    - target: {fileID: -8679921383154817045, guid: 9761684e04dce084881f9da09e22a092, type: 3}
      propertyPath: m_LocalEulerAnglesHint.y
      value: 180
      objectReference: {fileID: 0}
    - target: {fileID: -8679921383154817045, guid: 9761684e04dce084881f9da09e22a092, type: 3}
      propertyPath: m_LocalEulerAnglesHint.z
      value: -56.22699
      objectReference: {fileID: 0}
    - target: {fileID: -7511558181221131132, guid: 9761684e04dce084881f9da09e22a092, type: 3}
      propertyPath: m_Materials.Array.data[0]
      value: 
      objectReference: {fileID: 2100000, guid: d4f452dc68ccb1f4cb355e312446cbf4, type: 2}
    - target: {fileID: 919132149155446097, guid: 9761684e04dce084881f9da09e22a092, type: 3}
      propertyPath: m_Name
      value: quad
      objectReference: {fileID: 0}
    - target: {fileID: 919132149155446097, guid: 9761684e04dce084881f9da09e22a092, type: 3}
      propertyPath: m_StaticEditorFlags
      value: 2147483647
      objectReference: {fileID: 0}
    m_RemovedComponents: []
  m_SourcePrefab: {fileID: 100100000, guid: 9761684e04dce084881f9da09e22a092, type: 3}
--- !u!4 &9178963411233413572 stripped
Transform:
  m_CorrespondingSourceObject: {fileID: -8679921383154817045, guid: 9761684e04dce084881f9da09e22a092, type: 3}
  m_PrefabInstance: {fileID: 8712358521844104751}
  m_PrefabAsset: {fileID: 0}
