%YAML 1.1
%TAG !u! tag:unity3d.com,2011:
--- !u!1 &4653904652901840276
GameObject:
  m_ObjectHideFlags: 0
  m_CorrespondingSourceObject: {fileID: 0}
  m_PrefabInstance: {fileID: 0}
  m_PrefabAsset: {fileID: 0}
  serializedVersion: 6
  m_Component:
  - component: {fileID: 5466856696023363374}
  - component: {fileID: 8967219526072475787}
  - component: {fileID: 6599182958755566657}
  m_Layer: 0
  m_Name: traffic lights (1)
  m_TagString: Untagged
  m_Icon: {fileID: 0}
  m_NavMeshLayer: 0
  m_StaticEditorFlags: 2147483647
  m_IsActive: 1
--- !u!4 &5466856696023363374
Transform:
  m_ObjectHideFlags: 0
  m_CorrespondingSourceObject: {fileID: 0}
  m_PrefabInstance: {fileID: 0}
  m_PrefabAsset: {fileID: 0}
  m_GameObject: {fileID: 4653904652901840276}
  m_LocalRotation: {x: 0, y: 0, z: 0, w: 1}
  m_LocalPosition: {x: -0.049, y: 0, z: 8.387}
  m_LocalScale: {x: 1, y: 1, z: 1}
  m_ConstrainProportionsScale: 0
  m_Children:
  - {fileID: 5466856696565820620}
  m_Father: {fileID: 0}
  m_RootOrder: 0
  m_LocalEulerAnglesHint: {x: 0, y: 0, z: 0}
--- !u!33 &8967219526072475787
MeshFilter:
  m_ObjectHideFlags: 0
  m_CorrespondingSourceObject: {fileID: 0}
  m_PrefabInstance: {fileID: 0}
  m_PrefabAsset: {fileID: 0}
  m_GameObject: {fileID: 4653904652901840276}
  m_Mesh: {fileID: -6178679796688519103, guid: 3ac91e41671f4fb4cbfa5ff561452786, type: 3}
--- !u!23 &6599182958755566657
MeshRenderer:
  m_ObjectHideFlags: 0
  m_CorrespondingSourceObject: {fileID: 0}
  m_PrefabInstance: {fileID: 0}
  m_PrefabAsset: {fileID: 0}
  m_GameObject: {fileID: 4653904652901840276}
  m_Enabled: 1
  m_CastShadows: 1
  m_ReceiveShadows: 1
  m_DynamicOccludee: 1
  m_StaticShadowCaster: 0
  m_MotionVectors: 1
  m_LightProbeUsage: 1
  m_ReflectionProbeUsage: 1
  m_RayTracingMode: 2
  m_RayTraceProcedural: 0
  m_RenderingLayerMask: 1
  m_RendererPriority: 0
  m_Materials:
  - {fileID: 2100000, guid: 3c7c2e4f76e016d4ab8e9f9c6da80525, type: 2}
  m_StaticBatchInfo:
    firstSubMesh: 0
    subMeshCount: 0
  m_StaticBatchRoot: {fileID: 0}
  m_ProbeAnchor: {fileID: 0}
  m_LightProbeVolumeOverride: {fileID: 0}
  m_ScaleInLightmap: 1
  m_ReceiveGI: 1
  m_PreserveUVs: 0
  m_IgnoreNormalsForChartDetection: 0
  m_ImportantGI: 0
  m_StitchLightmapSeams: 1
  m_SelectedEditorRenderState: 3
  m_MinimumChartSize: 4
  m_AutoUVMaxDistance: 0.5
  m_AutoUVMaxAngle: 89
  m_LightmapParameters: {fileID: 0}
  m_SortingLayerID: 0
  m_SortingLayer: 0
  m_SortingOrder: 0
  m_AdditionalVertexStreams: {fileID: 0}
--- !u!1001 &5500184107964435239
PrefabInstance:
  m_ObjectHideFlags: 0
  serializedVersion: 2
  m_Modification:
    m_TransformParent: {fileID: 5466856696023363374}
    m_Modifications:
    - target: {fileID: -8679921383154817045, guid: 9761684e04dce084881f9da09e22a092, type: 3}
      propertyPath: m_RootOrder
      value: 0
      objectReference: {fileID: 0}
    - target: {fileID: -8679921383154817045, guid: 9761684e04dce084881f9da09e22a092, type: 3}
      propertyPath: m_LocalScale.x
      value: 1.7415
      objectReference: {fileID: 0}
    - target: {fileID: -8679921383154817045, guid: 9761684e04dce084881f9da09e22a092, type: 3}
      propertyPath: m_LocalScale.y
      value: 1.7415
      objectReference: {fileID: 0}
    - target: {fileID: -8679921383154817045, guid: 9761684e04dce084881f9da09e22a092, type: 3}
      propertyPath: m_LocalScale.z
      value: 1.7415
      objectReference: {fileID: 0}
    - target: {fileID: -8679921383154817045, guid: 9761684e04dce084881f9da09e22a092, type: 3}
      propertyPath: m_LocalPosition.x
      value: -0.085
      objectReference: {fileID: 0}
    - target: {fileID: -8679921383154817045, guid: 9761684e04dce084881f9da09e22a092, type: 3}
      propertyPath: m_LocalPosition.y
      value: 0.001
      objectReference: {fileID: 0}
    - target: {fileID: -8679921383154817045, guid: 9761684e04dce084881f9da09e22a092, type: 3}
      propertyPath: m_LocalPosition.z
      value: 0.047
      objectReference: {fileID: 0}
    - target: {fileID: -8679921383154817045, guid: 9761684e04dce084881f9da09e22a092, type: 3}
      propertyPath: m_LocalRotation.w
      value: 0.2976054
      objectReference: {fileID: 0}
    - target: {fileID: -8679921383154817045, guid: 9761684e04dce084881f9da09e22a092, type: 3}
      propertyPath: m_LocalRotation.x
      value: -0.2976054
      objectReference: {fileID: 0}
    - target: {fileID: -8679921383154817045, guid: 9761684e04dce084881f9da09e22a092, type: 3}
      propertyPath: m_LocalRotation.y
      value: 0.64142895
      objectReference: {fileID: 0}
    - target: {fileID: -8679921383154817045, guid: 9761684e04dce084881f9da09e22a092, type: 3}
      propertyPath: m_LocalRotation.z
      value: 0.64142895
      objectReference: {fileID: 0}
    - target: {fileID: -8679921383154817045, guid: 9761684e04dce084881f9da09e22a092, type: 3}
      propertyPath: m_LocalEulerAnglesHint.x
      value: -90
      objectReference: {fileID: 0}
    - target: {fileID: -8679921383154817045, guid: 9761684e04dce084881f9da09e22a092, type: 3}
      propertyPath: m_LocalEulerAnglesHint.y
      value: 0
      objectReference: {fileID: 0}
    - target: {fileID: -8679921383154817045, guid: 9761684e04dce084881f9da09e22a092, type: 3}
      propertyPath: m_LocalEulerAnglesHint.z
      value: 130.22
      objectReference: {fileID: 0}
    - target: {fileID: -7511558181221131132, guid: 9761684e04dce084881f9da09e22a092, type: 3}
      propertyPath: m_Materials.Array.data[0]
      value: 
      objectReference: {fileID: 2100000, guid: d4f452dc68ccb1f4cb355e312446cbf4, type: 2}
    - target: {fileID: 919132149155446097, guid: 9761684e04dce084881f9da09e22a092, type: 3}
      propertyPath: m_Name
      value: quad
      objectReference: {fileID: 0}
    - target: {fileID: 919132149155446097, guid: 9761684e04dce084881f9da09e22a092, type: 3}
      propertyPath: m_StaticEditorFlags
      value: 2147483647
      objectReference: {fileID: 0}
    m_RemovedComponents: []
  m_SourcePrefab: {fileID: 100100000, guid: 9761684e04dce084881f9da09e22a092, type: 3}
--- !u!4 &5466856696565820620 stripped
Transform:
  m_CorrespondingSourceObject: {fileID: -8679921383154817045, guid: 9761684e04dce084881f9da09e22a092, type: 3}
  m_PrefabInstance: {fileID: 5500184107964435239}
  m_PrefabAsset: {fileID: 0}
