%YAML 1.1
%TAG !u! tag:unity3d.com,2011:
--- !u!1 &4912067912729362854
GameObject:
  m_ObjectHideFlags: 0
  m_CorrespondingSourceObject: {fileID: 0}
  m_PrefabInstance: {fileID: 0}
  m_PrefabAsset: {fileID: 0}
  serializedVersion: 6
  m_Component:
  - component: {fileID: 5719847578542299932}
  - component: {fileID: 8705212356414362809}
  - component: {fileID: 6857812137305940083}
  m_Layer: 0
  m_Name: tree_3
  m_TagString: Untagged
  m_Icon: {fileID: 0}
  m_NavMeshLayer: 0
  m_StaticEditorFlags: 0
  m_IsActive: 1
--- !u!4 &5719847578542299932
Transform:
  m_ObjectHideFlags: 0
  m_CorrespondingSourceObject: {fileID: 0}
  m_PrefabInstance: {fileID: 0}
  m_PrefabAsset: {fileID: 0}
  m_GameObject: {fileID: 4912067912729362854}
  m_LocalRotation: {x: 0, y: 0, z: 0, w: 1}
  m_LocalPosition: {x: -0, y: 0, z: 0}
  m_LocalScale: {x: 1, y: 1, z: 1}
  m_ConstrainProportionsScale: 0
  m_Children:
  - {fileID: 5719847578879381849}
  m_Father: {fileID: 0}
  m_RootOrder: 0
  m_LocalEulerAnglesHint: {x: 0, y: 0, z: 0}
--- !u!33 &8705212356414362809
MeshFilter:
  m_ObjectHideFlags: 0
  m_CorrespondingSourceObject: {fileID: 0}
  m_PrefabInstance: {fileID: 0}
  m_PrefabAsset: {fileID: 0}
  m_GameObject: {fileID: 4912067912729362854}
  m_Mesh: {fileID: 3139663964067809887, guid: 609109be60a06664bb28f9471c30c46f, type: 3}
--- !u!23 &6857812137305940083
MeshRenderer:
  m_ObjectHideFlags: 0
  m_CorrespondingSourceObject: {fileID: 0}
  m_PrefabInstance: {fileID: 0}
  m_PrefabAsset: {fileID: 0}
  m_GameObject: {fileID: 4912067912729362854}
  m_Enabled: 1
  m_CastShadows: 1
  m_ReceiveShadows: 1
  m_DynamicOccludee: 1
  m_StaticShadowCaster: 0
  m_MotionVectors: 1
  m_LightProbeUsage: 1
  m_ReflectionProbeUsage: 1
  m_RayTracingMode: 2
  m_RayTraceProcedural: 0
  m_RenderingLayerMask: 1
  m_RendererPriority: 0
  m_Materials:
  - {fileID: 2100000, guid: 3c7c2e4f76e016d4ab8e9f9c6da80525, type: 2}
  m_StaticBatchInfo:
    firstSubMesh: 0
    subMeshCount: 0
  m_StaticBatchRoot: {fileID: 0}
  m_ProbeAnchor: {fileID: 0}
  m_LightProbeVolumeOverride: {fileID: 0}
  m_ScaleInLightmap: 1
  m_ReceiveGI: 1
  m_PreserveUVs: 0
  m_IgnoreNormalsForChartDetection: 0
  m_ImportantGI: 0
  m_StitchLightmapSeams: 1
  m_SelectedEditorRenderState: 3
  m_MinimumChartSize: 4
  m_AutoUVMaxDistance: 0.5
  m_AutoUVMaxAngle: 89
  m_LightmapParameters: {fileID: 0}
  m_SortingLayerID: 0
  m_SortingLayer: 0
  m_SortingOrder: 0
  m_AdditionalVertexStreams: {fileID: 0}
--- !u!1001 &5254084947354236594
PrefabInstance:
  m_ObjectHideFlags: 0
  serializedVersion: 2
  m_Modification:
    m_TransformParent: {fileID: 5719847578542299932}
    m_Modifications:
    - target: {fileID: -8679921383154817045, guid: 9761684e04dce084881f9da09e22a092, type: 3}
      propertyPath: m_RootOrder
      value: 0
      objectReference: {fileID: 0}
    - target: {fileID: -8679921383154817045, guid: 9761684e04dce084881f9da09e22a092, type: 3}
      propertyPath: m_LocalScale.x
      value: 2.8397303
      objectReference: {fileID: 0}
    - target: {fileID: -8679921383154817045, guid: 9761684e04dce084881f9da09e22a092, type: 3}
      propertyPath: m_LocalScale.y
      value: 3.03749
      objectReference: {fileID: 0}
    - target: {fileID: -8679921383154817045, guid: 9761684e04dce084881f9da09e22a092, type: 3}
      propertyPath: m_LocalScale.z
      value: 1.6371102
      objectReference: {fileID: 0}
    - target: {fileID: -8679921383154817045, guid: 9761684e04dce084881f9da09e22a092, type: 3}
      propertyPath: m_LocalPosition.x
      value: -0.135
      objectReference: {fileID: 0}
    - target: {fileID: -8679921383154817045, guid: 9761684e04dce084881f9da09e22a092, type: 3}
      propertyPath: m_LocalPosition.y
      value: 0.005
      objectReference: {fileID: 0}
    - target: {fileID: -8679921383154817045, guid: 9761684e04dce084881f9da09e22a092, type: 3}
      propertyPath: m_LocalPosition.z
      value: 0.07
      objectReference: {fileID: 0}
    - target: {fileID: -8679921383154817045, guid: 9761684e04dce084881f9da09e22a092, type: 3}
      propertyPath: m_LocalRotation.w
      value: -0.36611795
      objectReference: {fileID: 0}
    - target: {fileID: -8679921383154817045, guid: 9761684e04dce084881f9da09e22a092, type: 3}
      propertyPath: m_LocalRotation.x
      value: 0.36593935
      objectReference: {fileID: 0}
    - target: {fileID: -8679921383154817045, guid: 9761684e04dce084881f9da09e22a092, type: 3}
      propertyPath: m_LocalRotation.y
      value: -0.60514593
      objectReference: {fileID: 0}
    - target: {fileID: -8679921383154817045, guid: 9761684e04dce084881f9da09e22a092, type: 3}
      propertyPath: m_LocalRotation.z
      value: -0.6048507
      objectReference: {fileID: 0}
    - target: {fileID: -8679921383154817045, guid: 9761684e04dce084881f9da09e22a092, type: 3}
      propertyPath: m_LocalEulerAnglesHint.x
      value: -89.966
      objectReference: {fileID: 0}
    - target: {fileID: -8679921383154817045, guid: 9761684e04dce084881f9da09e22a092, type: 3}
      propertyPath: m_LocalEulerAnglesHint.y
      value: 0
      objectReference: {fileID: 0}
    - target: {fileID: -8679921383154817045, guid: 9761684e04dce084881f9da09e22a092, type: 3}
      propertyPath: m_LocalEulerAnglesHint.z
      value: 117.627
      objectReference: {fileID: 0}
    - target: {fileID: -7511558181221131132, guid: 9761684e04dce084881f9da09e22a092, type: 3}
      propertyPath: m_Materials.Array.data[0]
      value: 
      objectReference: {fileID: 2100000, guid: ec29bd0ab0474544e89a3688ef42112c, type: 2}
    - target: {fileID: 919132149155446097, guid: 9761684e04dce084881f9da09e22a092, type: 3}
      propertyPath: m_Name
      value: quad
      objectReference: {fileID: 0}
    - target: {fileID: 919132149155446097, guid: 9761684e04dce084881f9da09e22a092, type: 3}
      propertyPath: m_StaticEditorFlags
      value: 2147483647
      objectReference: {fileID: 0}
    m_RemovedComponents: []
  m_SourcePrefab: {fileID: 100100000, guid: 9761684e04dce084881f9da09e22a092, type: 3}
--- !u!4 &5719847578879381849 stripped
Transform:
  m_CorrespondingSourceObject: {fileID: -8679921383154817045, guid: 9761684e04dce084881f9da09e22a092, type: 3}
  m_PrefabInstance: {fileID: 5254084947354236594}
  m_PrefabAsset: {fileID: 0}
